NProp,Ligne,Seance,Numero,NomEleve,Lycee,Poesie,C1,C2,C3,C3BIS,C4,C5,C6,C7,C8,C9,C10,E1,E2,E3,E4,E5,E6,E7,E8,E9,E10,E11,Text
1,1,Charogne,C1,Thomas,1,1,1.0,,,,,,,,,,,,,,,,,,1.0,,,,
2,5,Charogne,C1,Thomas,1,1,1.0,,,,,,,,,,,,,,,,,,,1.0,,,
3,7,Charogne,C1,Lalie,1,1,1.0,,,,,,,,,,,1.0,,,,,,,,,,,
4,9,Charogne,C1,Thomas,1,1,1.0,,,,,,,,,,,,,,,,,,1.0,,,,
5,13,Charogne,C1,Thomas,1,1,1.0,,,,,,,,,,,,,,,,,,,1.0,,,
6,15,Charogne,C1,Lalie,1,1,1.0,,,,,,,,,,,1.0,,,,,,,,,,,
7,17,Charogne,C1,Thomas,1,1,,,,,,,1.0,,,,,,,,,,,,,1.0,,,
8,19,Charogne,C1,Lalie,1,1,1.0,,,,,,,,,,,,,,,,,,,1.0,,,
9,24,Charogne,C1,Thomas,1,1,,,,1.0,,,,,,,,,1.0,,,,,,,1.0,,,
10,27,Charogne,C1,Lalie,1,1,,,1.0,,,,,,,,,1.0,,,,,,,,,,,
11,29,Charogne,C1,Thomas,1,1,,,,,,,1.0,,,,,,,,,,,,,,,1.0,
12,31,Charogne,C1,Lalie,1,1,,,,,,,1.0,,,,,1.0,,,,,,,,,,,
13,33,Charogne,C1,Thomas,1,1,,1.0,,,,,1.0,,,,,1.0,,,,,,,,,,,
14,35,Charogne,C1,Lalie,1,1,,,1.0,,,,,,,,,,,,,1.0,,,,,,,
15,37,Charogne,C1,Thomas,1,1,,,1.0,,,,,,,,,1.0,,,,,,,,,,,
16,39,Charogne,C1,Lalie,1,1,,,1.0,,,,,,,,,,1.0,,,,,,,,,,
17,41,Charogne,C1,Thomas,1,1,,,1.0,,,,,,,,,,,1.0,,,,,,,,,
18,43,Charogne,C1,Thomas,1,1,,,,,,,1.0,,,,,,,,,,,,,1.0,,,
19,45,Charogne,C1,Lalie,1,1,1.0,,,,,,,,,,,,,,,1.0,,,,,,,
20,48,Charogne,C1,Thomas,1,1,1.0,,,,,,,,,,,,1.0,,,,,,,,,,
21,50,Charogne,C1,Lalie,1,1,,,,,,,1.0,,,,,,,,,,,,,1.0,,,
22,50,Charogne,C1,Lalie,1,1,,1.0,,,,,,,,,,,1.0,,,,,,,1.0,,,
23,52,Charogne,C1,Thomas,1,1,,,,,,,1.0,,,,,,,,,,,,,,,1.0,
24,53,Charogne,C1,Thomas,1,1,1.0,,,,,,1.0,,,,,,,,,,,,,,,1.0,
25,55,Charogne,C1,Lalie,1,1,1.0,,,,,,,,,,,1.0,,,,,,,,,,,
26,57,Charogne,C1,Thomas,1,1,,,,,,,1.0,,,,,,,,,,,,,1.0,,,
27,59,Charogne,C1,Lalie,1,1,,,,,,,1.0,,,,,1.0,,,,,,,,,,,
28,61,Charogne,C1,Thomas,1,1,,,,,,,1.0,,,,,1.0,,,,,,,,,,,
29,63,Charogne,C1,Lalie,1,1,,,,,,,1.0,,,,,1.0,,,,,,,,,,,
30,65,Charogne,C1,Thomas,1,1,,,,,,,1.0,,,,,1.0,,,,,,,,,,,
31,67,Charogne,C1,Lalie,1,1,,,,,,,1.0,,,,,1.0,,,,,,,,,,,
32,69,Charogne,C1,Thomas,1,1,,,,,,,1.0,,,,,,,,,,,,,,,1.0,
33,71,Charogne,C1,Lalie,1,1,,,,,,,1.0,,,,,,,,,,,,,1.0,,,
34,73,Charogne,C1,Thomas,1,1,,1.0,,,,,1.0,,,,,1.0,,,,,,,,,,,
35,74,Charogne,C1,Thomas,1,1,1.0,,,,,,,,,,,,,,,,,,,1.0,,,
36,76,Charogne,C1,Lalie,1,1,,1.0,,,,,,,,,,,,,,,,,,1.0,,,
37,78,Charogne,C1,Thomas,1,1,,1.0,,,,,1.0,,,,,,1.0,,,,,,,,,,
38,80,Charogne,C1,Lalie,1,1,,,,,,,1.0,,,,,,,,,,,,,1.0,,,
39,82,Charogne,C1,Thomas,1,1,,,,,,,1.0,,,,,,1.0,,,,,,,,,,
40,84,Charogne,C1,Lalie,1,1,,,,,,,,1.0,,,,1.0,,,,,,,,,,,
41,86,Charogne,C1,Thomas,1,1,,,,,,,,1.0,,,,1.0,,,,,,,,,,,
42,94,Charogne,C1,Lalie,1,1,,,,,,,,1.0,,,,,,,,,1.0,,,,,,
43,98,Charogne,C1,Lalie,1,1,,,,,,,,,,1.0,,,,,,,,1.0,,,,,
44,104,Charogne,C1,Thomas,1,1,,,,,,,,,,1.0,,1.0,,,,,,,,,,,
