NProp,Ligne,Seance,Numero,NomEleve,Lycee,Poesie,C1,C2,C3,C3BIS,C4,C5,C6,C7,C8,C9,C10,E1,E2,E3,E4,E5,E6,E7,E8,E9,E10,E11,Text
1,1,Charogne,C8,Romane,1,1,,,,,,,1.0,,,,,,,,,,,,1.0,,,,Romane< : C’est quoi déjà ?>
2,3,Charogne,C8,Flora,1,1,,,,,,,1.0,,,,,,1.0,,,,,,,,,,Flora< : Il faut mettre en commun ce qu’on a noté.>
3,5,Charogne,C8,Luce,1,1,,1.0,,,,,,,,,,,,,,,,,1.0,,,,"Luce< : Moi, déjà, j’ai relevé tout le champ lexical qui voulait dire tout ce qui était la mort, la pourriture, tout ça, et aussi le champ lexical de tout ce qui est…>"
4,7,Charogne,C8,Julie,1,1,,1.0,,,,,,,,,,,1.0,,,,,,,,,,"Julie< : Soleil, bonheur, joie…>"
5,9,Charogne,C8,Luce,1,1,,1.0,,,,,,,,,,1.0,,,,,,,,,,,"Luce< : Oui, voilà, exactement.>"
6,11,Charogne,C8,Romane ,1,1,,1.0,,,,,,,,,,1.0,,,,,,,,,,,"Romane :<Oui, moi aussi, j’ai mis ça.>"
7,13,Charogne,C8,Romane,1,1,,1.0,,,,,,,,,,,1.0,,,,,,,,,,Romane<J’ai mis le champ lexical du printemps.>
8,15,Charogne,C8,Flora,1,1,,1.0,,,,,,,,,,,,,,,,,1.0,,,,"Flora< : Moi, j’ai fait juste les figures de style.>"
9,17,Charogne,C8,Luce,1,1,,1.0,,,,,,,,,,,,,,,,,,1.0,,,Luce< : Et tu as trouvé quoi comme figures de style ?>
10,19,Charogne,C8,Flora,1,1,,1.0,,,,,,,,,,,1.0,,,,,,,,,,"Flora< : Des comparaisons, personnification, parallélisme, hyperbole.>"
11,21,Charogne,C8,Julie,1,1,,1.0,,,,,,,,,,,1.0,,,,,,,,,,Julie< : Il y a des oxymores aussi.>
12,23,Charogne,C8,Romane,1,1,,1.0,,,,,,,,,,,,1.0,,,,,,,,,Romane< : Mais moi je trouve pas d’oxymores.>
13,25,Charogne,C8,Flora,1,1,,1.0,,,,,,,,,,,,,,1.0,,,,,,,"Flora< : Il y a un champ lexical du ciel et de la lumière, genre avec « étoiles », « ciel », « soleil », etc.>"
14,27,Charogne,C8,Romane,1,1,,,,,,1.0,,,,,,,,,,1.0,,,,,,,"Romane< : Oxymore, en fait, c’est deux mots contraires mais qui sont collés, en fait.>"
15,29,Charogne,C8,Julie,1,1,,,,,,,1.0,,,,,,,,,1.0,,,,,,,"Julie< : Oui, mais vous avez dit quoi qui ressemblait… ?>"
16,31,Charogne,C8,Romane ,1,1,,,,,,1.0,,,,,,,,,,1.0,,,,,,,"Romane :<Antithèse. Antithèse, c’est sur une phrase, en fait>."
17,33,Charogne,C8,Romane,1,1,,1.0,,,,,,,,,,,1.0,,,,,,,,,,"Romane<Par exemple, là : « Ce beau matin d’été »…>"
18,35,Charogne,C8,Romane,1,1,,,,,,,,1.0,,,,,,,,,,,,1.0,,,"Romane<Ah ben non, rien… je me suis trompée.>"
19,37,Charogne,C8,Julie,1,1,,1.0,,,,,,,,,,,,1.0,,,,,,,,,"Julie<: Ça, du coup, ce que vous avez dit, c’est pas une oxymore, c’est une machin…>"
20,39,Charogne,C8,Romane,1,1,,1.0,,,,,,,,,,,1.0,,,,,,,,,,"Romane< : « Le soleil rayonnait sur cette pourriture », ça, c’est une antithèse.>"
21,41,Charogne,C8,Julie ,1,1,,1.0,,,,,,,,,,1.0,,,,,,,,,,,"Julie :<Oui, c’est ce que j’ai mis.>"
22,43,Charogne,C8,Julie,1,1,,1.0,,,,,,,,,,,,1.0,,,,,,,,,"Julie<Mais genre lui et lui, du coup, ça sera pas des oxymores…>"
23,45,Charogne,C8,Romane,1,1,,,,,,1.0,,,,,,,1.0,,,,,,,,,,"Romane< : Un oxymore, c’est « une obscure clarté ».>"
24,47,Charogne,C8,Julie,1,1,,,,,,,,1.0,,,,1.0,,,,,,,,,,,"Julie< : Oui, ça, je sais…>"
25,49,Charogne,C8,Romane,1,1,,,1.0,,,,,,,,,,,,,,,,1.0,,,,"Romane< : On pourrait dire un peu, soit c’est une rupture, genre en mode une rupture qui lui a fait mal, il l’a trompé ou je sais pas, ou alors, c’est les difficultés de l’amour, entre joie et tristesse, ou des trucs comme ça…>"
26,51,Charogne,C8,Luce,1,1,,,1.0,,,,,,,,,,1.0,,,,,,,,,,"Luce< : Moi, j’aurais plus dit une rupture.>"
27,53,Charogne,C8,Romane,1,1,1.0,,,,,,,,,,,,1.0,,,,,,,,,,"Romane< : Oui, parce que bon, il la traite quand même de charogne.>"
28,55,Charogne,C8,Flora,1,1,,1.0,,,,,,,,,,,,,,,,,1.0,,,,"Flora< : Je pense que « qui vous mangera de baisers », c’est pas une hyperbole, mais c’est une autre figure de style. Je dirais…>"
29,57,Charogne,C8,Romane ,1,1,,1.0,,,,,,,,,,,1.0,,,,,,,,,,"Romane :<Une synecdote…>Non, c’est quoi la synecdote, déjà ?"
30,57,Charogne,C8,Romane ,1,1,,,,,,1.0,,,,,,,,,,,,,,1.0,,,"Romane : Une synecdote…<Non, c’est quoi la synecdote, déjà ?>"
31,60,Charogne,C8,Julie,1,1,,1.0,,,,,,,,,,,,,,1.0,,,,,,,Julie< : C’est ça. Le dernier.>
32,62,Charogne,C8,Flora,1,1,,1.0,,,,,,,,,,,1.0,,,,,,,,,,Flora< : Peut-être une personnification…>
33,64,Charogne,C8,Luce,1,1,,,,,,1.0,,,,,,,1.0,,,,,,,,,,"Luce< : Une personnification, c’est par rapport à l’humain.>"
34,66,Charogne,C8,Romane,1,1,,,,,,1.0,,,,,,1.0,,,,,,,,,,,"Romane< : Une personnification, tu lui donnes des traits humains.>"
35,68,Charogne,C8,Flora,1,1,,1.0,,,,,,,,,,,,,,,,,,1.0,,,Flora< : Réfléchissez : « Qui vous mangera de baisers. »>
36,70,Charogne,C8,Romane ,1,1,,1.0,,,,,,,,,,,1.0,,,,,,,,,,"Romane :<Je sais pas si c’est une hyperbole>, c’est bizarre"
37,70,Charogne,C8,Romane ,1,1,,,,,,,,1.0,,,,,,,,,,,,1.0,,,"Romane : Je sais pas si c’est une hyperbole ,<c’est bizarre>…"
38,73,Charogne,C8,Julie,1,1,,,,,,1.0,,,,,,,,,,1.0,,,,,,,"Julie< : « J’aime l’amour et les coquillettes », il y a écrit.>"
39,75,Charogne,C8,Romane,1,1,,,,,,,1.0,,,,,,,,,,,,,1.0,,,"Romane< : Et là, du coup, il faut mettre en commun, mais après, qu’est-ce qu’on fait ?>"
40,77,Charogne,C8,Julie,1,1,,,,,,,1.0,,,,,,1.0,,,,,,,,,,Julie< : On va passer…>
41,79,Charogne,C8,Romane,1,1,,,,,,,1.0,,,,,,,,1.0,,,,,,,,Romane< : Donc il faut prendre des notes.>
42,81,Charogne,C8,Julie ,1,1,,,,,,,1.0,,,,,,1.0,,,,,,,,,,"Julie :<Oui, qu’on dise ce qu’on a fait.>"
43,83,Charogne,C8,Julie,1,1,,1.0,,,,,,,,,,,,,,,,,,1.0,,,Julie<Tu as trouvé des comparaisons où ?>
44,85,Charogne,C8,Romane,1,1,,,,,,,1.0,,,,,,,,,,,,,1.0,,,"Romane< : Julie, tu pourras les marquer après, là…>"
45,87,Charogne,C8,Julie ,1,1,,,,,,,,1.0,,,,,,,,,,,,1.0,,,"Julie :<Pourquoi j’ai mis ça, moi ?>"
46,89,Charogne,C8,Julie,1,1,,1.0,,,,,,,,,,,1.0,,,,,,,,,,"(Julie )<Ah oui, quand il y a « comme », c’est qu’il y a une comparaison>."
47,91,Charogne,C8,Flora,1,1,,,,,,,1.0,,,,,1.0,,,,,,,,,,,Flora< : Elle l’a mis.>
48,93,Charogne,C8,Julie ,1,1,,,,,,,1.0,,,,,1.0,,,,,,,,,,,"Julie :<Ça, je l’ai mis… ah oui, j’avais pas vu.>"
49,95,Charogne,C8,Julie,1,1,,,,,,1.0,,,,,,,,,,,,,,1.0,,,Julie<C’est quoi le parallélisme ?>
50,97,Charogne,C8,Luce,1,1,,,,,,1.0,,,,,,,1.0,,,,,,,,,,"Luce< : Quand il y a deux parties de la phrase qui se ressemblent. « Soleil de ma nature », c’est un parallélisme…>"
51,99,Charogne,C8,Julie,1,1,,,,,,,,,,1.0,,,,,,,,,,1.0,,,"Julie< : Il y a des trucs que je sais actuellement, mais que dans le bac je savais pas. Genre, je savais plus.>"
52,101,Charogne,C8,Romane ,1,1,,1.0,,,,,,,,,,,,,,1.0,,,,,,,"Romane :<Donc champ lexical de la mort, de la tristesse, tout ça.>"
53,103,Charogne,C8,Romane,1,1,,,,,,,1.0,,,,,,,,1.0,,,,,,,,"Romane<Et du coup, vas-y… tu mets et puis tu cites.>"
54,105,Charogne,C8,Luce,1,1,,,,,,,1.0,,,,,,1.0,,,,,,,,,,Luce< : Je vais mettre ligne 1…>
55,107,Charogne,C8,Romane ,1,1,,,,,,,1.0,,,,,,1.0,,,,,,,,,,Romane :<Oui. Et puis on emportera le texte avec pour s’aider.>
56,107,Charogne,C8,Romane ,1,1,,,,,,1.0,,,,,,,1.0,,,,,,,,,,Romane : Oui. Et puis on emportera le texte avec pour s’aider.<>
57,111,Charogne,C8,Julie,1,1,,,,,,,1.0,,,,,,1.0,,,,,,,,,,"Julie< : Un jour, il y a monsieur ???, il m’a dit : « Quand tu cites plusieurs lignes, tu mets deux L... » Du coup, des fois, j’ai mis deux L.>"
58,113,Charogne,C8,Romane,1,1,,,,,,,1.0,,,,,,1.0,,,,,,,,,,Romane< : Ah bon ? J’ai jamais entendu parler de ça.>
59,115,Charogne,C8,Flora,1,1,,,,,,,1.0,,,,,,1.0,,,,,,,,,,Flora< : Tu cites deux lignes tu mets deux L ?>
60,117,Charogne,C8,Julie,1,1,,,,,,,1.0,,,,,1.0,,,,,,,,,,,Julie< : Oui.>
61,119,Charogne,C8,Luce,1,1,,,,,,,1.0,,,,,,1.0,,,,,,,,,,"Luce< : Moi, j’ai mis un seul L.>"
62,121,Charogne,C8,Julie,1,1,,,,,,,1.0,,,,,,1.0,,,,,,,,,,"Julie< : Et il fait : « Ouais, personne fait ça... » Du coup, dans mon truc, des fois, j’ai mis deux L.>"
63,123,Charogne,C8,Romane,1,1,1.0,,,,,,,,,,,,,,,,,,1.0,,,,"Romane< : Est-ce que même les mouches, c’est synonyme de mort ? Parce que tu sais, quand tu es mort, il y a des mouches qui viennent, c’est ce qu’ils disent. On peut le mettre dans le champ lexical…>"
64,125,Charogne,C8,Flora,1,1,1.0,,,,,,,,,,,,,1.0,,,,,,,,,"Flora< : C’est plutôt les vermines, là.>"
65,127,Charogne,C8,Romane,1,1,1.0,,,,,,,,,,,,,1.0,,,,,,,,,"Romane< : Oui, mais bon : « Les mouches bourdonnaient sur ce ventre putride... »>"
66,129,Charogne,C8,Julie,1,1,,,,,,,1.0,,,,,,,,,,,,,1.0,,,Julie< : Tu l’as vu où ?>
67,131,Charogne,C8,Flora,1,1,,1.0,,,,,,,,,,,,,,,,,1.0,,,,"Flora< : Tout ce qui est verdure… attends : « fleur », « floraison grasse », et puis « herbe ».>"
68,133,Charogne,C8,Romane,1,1,,1.0,,,,,,,,,,,,,,,,,,1.0,,,"Romane< : Et ça, c’est quoi ?>"
69,135,Charogne,C8,Flora,1,1,,1.0,,,,,,,,,,,1.0,,,,,,,,,,"Flora< : Le champ lexical, je sais pas, de la verdure.>"
70,137,Charogne,C8,Romane,1,1,,1.0,,,,,,,,,,,1.0,,,,,,,,,,"Romane< : De la nature, quoi, de la vie. Ça va avec la vie.>"
71,139,Charogne,C8,Luce,1,1,,1.0,,,,,,,,,,,1.0,,,,,,,,,,Luce< : Il y a écrit « Nature ».>
72,141,Charogne,C8,Romane,1,1,,,1.0,,,,,,,,,,,1.0,,,,,,,,,"Romane< : Ben, la nature, ça vit. Tu sais, le printemps, la nature, les feuilles, c’est synonyme de « renaissance ».>"
73,143,Charogne,C8,Flora ,1,1,,,,,,,1.0,,,,,,,,,,,,,,1.0,,"Flora :<On s’arrête à « nature », on va pas plus loin…>"
74,145,Charogne,C8,Flora,1,1,1.0,,,,,,,,,,,,1.0,,,,,,,,,,"Flora<« Mon âme », c’est un signe de vie… Par contre, « charogne », il y a plus trop de vie.>"
75,147,Charogne,C8,Romane,1,1,1.0,,,,,,,,,,,,1.0,,,,,,,,,,"Romane< : « Charogne », c’est la mort…>"
76,149,Charogne,C8,Flora,1,1,1.0,,,,,,,,,,,,1.0,,,,,,,,,,"Flora< : Mais en fait, j’ai mis, genre, il rend doux ce qui est dégueulasse. Genre, regarde : « Au détour d’un sentier, une charogne infâme sur un lit semé de cailloux... » On dirait, il présente un plat, genre…>"
77,151,Charogne,C8,Romane,1,1,1.0,,,,,,,,,,,,,1.0,,,,,,,,,"Romane< : Oui, mais bon, c’est des cailloux, donc c’est pas très…>"
78,153,Charogne,C8,Flora,1,1,1.0,,,,,,,,,,,,,1.0,,,,,,,,,"Flora< : Oui, mais ça rend ça plus calme, en fait.>"
79,155,Charogne,C8,Romane,1,1,1.0,,,,,,,,,,,,1.0,,,,,,,,,,"Romane< : Poétique, quoi.>"
80,157,Charogne,C8,Flora,1,1,,,1.0,,,,,,,,,,1.0,,,,,,,,,,"Flora< : Alors que si ça se trouve, c’est juste une grosse bête qui est comme ça…>"
81,159,Charogne,C8,Julie,1,1,,,1.0,,,,,,,,,,1.0,,,,,,,,,,"Julie< : Oui, c’est ça, avec des gros rochers.>"
82,161,Charogne,C8,Flora,1,1,1.0,,,,,,,,,,,,,,,,,,1.0,,,,"Flora< : Après, il y a beaucoup d’amour : « mon ange », « ma passion »…>"
83,163,Charogne,C8,Romane,1,1,,,1.0,,,,,,,,,,1.0,,,,,,,,,,"Romane< : Moi, je dis, c’est qu’elle l’a trompé, il a la haine contre elle, mais il est quand même amoureux.>"
84,165,Charogne,C8,Flora,1,1,,,1.0,,,,,,,,,,1.0,,,,,,,,,,"Flora< : Si ça se trouve, elle est super moche, en fait, c’est pour ça qu’il fait cette comparaison.>"
85,167,Charogne,C8,Julie,1,1,,,1.0,,,,,,,,,1.0,,,,,,,,,,,"Julie< : Oui, j’y ai pensé aussi…>"
86,169,Charogne,C8,Romane,1,1,,,1.0,,,,,,,,,,1.0,,,,,,,,,,"Romane< : Oui, mais il l’aime quand même, parce que c’est le mental…>"
87,171,Charogne,C8,Julie,1,1,,,1.0,,,,,,,,,,1.0,,,,,,,,,,Julie< : La beauté intérieure…>
88,173,Charogne,C8,Romane ,1,1,,,1.0,,,,,,,,,1.0,,,,,,,,,,,Romane :<Voilà>.
89,175,Charogne,C8,Romane,1,1,,1.0,,,,,,,,,,,1.0,,,,,,,,,,Romane<Et c’est une métaphore…>
90,177,Charogne,C8,Flora,1,1,,,1.0,,,,,,,,,,1.0,,,,,,,,,,"Flora< : Elle est moche d’où, de l’intérieur ou de l’extérieur ?>"
91,179,Charogne,C8,Julie,1,1,,,1.0,,,,,,,,,,1.0,,,,,,,,,,"Julie< : De l’extérieur et elle est belle de l’intérieur. C’est pour ça qu’il dit « charogne », mais genre doux à l’intérieur. Et c’est pour ça qu’il l’aime.>"
92,181,Charogne,C8,Romane,1,1,1.0,,,,,,,,,,,,,,,,,,1.0,,,,"Romane< : Ou alors, il rend plus poétique sa mort, la mort de sa meuf.>"
93,183,Charogne,C8,Julie,1,1,,,1.0,,,,,,,,,1.0,,,,,,,,,,,"Julie< : J’avoue c’est possible aussi, c’est juste que je trouve ça un peu glauque.>"
94,185,Charogne,C8,Flora,1,1,1.0,,,,,,,,,,,,1.0,,,,,,,,,,"Flora< : Tu as quand même, excellent : « Le soleil rayonnait sur cette pourriture comme afin de la cuire à point »… c’est dégueulasse.>"
95,187,Charogne,C8,Romane ,1,1,,,1.0,,,,,,,,,,1.0,,,,,,,,,,"Romane :<En fait, il est en deuil, du coup, il dit des trucs… genre, il est vraiment… Imagine, sa femme, elle est morte… sa maitresse… c’est pas sa femme, c’est sa maitresse. Imagine, elle est morte, et tu vois, genre, c’est le deuil, en fait. Et le deuil, ça le rend complètement taré, du coup, il dit n’importe quoi, il confond ce qui est bon et ce qui est pas bon…>"
96,189,Charogne,C8,Flora,1,1,,,,,,,,,,1.0,,,1.0,,,,,,,,,,Flora< : Il faut arrêter de se laver…>
97,191,Charogne,C8,Romane,1,1,,,,,,,,,,1.0,,,1.0,,,,,,,,,,"Romane< : Mais tu sais que le savon, c’est vrai, c’est un truc de fou comment ça aide…>"
98,193,Charogne,C8,Flora,1,1,,,,,,,,1.0,,,,,,1.0,,,,,,,,,"Flora< : En fait, il y a trop de sous-entendus, et des fois, vous allez trop loin…>"
99,195,Charogne,C8,Julie ,1,1,,,,,,,,1.0,,,,,1.0,,,,,,,,,,"Julie <: Oui sauf que le truc, du coup, des fois, tu vas loin>,"
100,198,Charogne,C8,Julie,1,1,,,,,,,,1.0,,,,,,1.0,,,,,,,,,"Julie<mais des fois, tu as plusieurs idées, sauf que, moi, dans le bac de français, j’avais plusieurs idées, et du coup, j’ai fait : « Euh… je sais plus laquelle… »>"
101,200,Charogne,C8,Flora,1,1,,,,,,,,,,1.0,,,,,,,,,,1.0,,,Flora< : C’était quoi ta problématique ?>
102,202,Charogne,C8,Julie,1,1,,,,,,,,,,1.0,,,1.0,,,,,,,,,,"Julie< : C’était un truc en mode : pourquoi… parce qu’on parlait, genre, des gens méchants, un peu, les gens gentils, et je crois que j’ai dit… non, j’ai pas dit un truc comme ça, mais c’était… j’ai oublié.>"
103,204,Charogne,C8,Romane,1,1,,,,,,,,,,1.0,,,1.0,,,,,,,,,,"Romane< : Moi j’ai fait, genre, comment décrit-il un endroit sordide et comment le rend-il fantastique ?>"
104,206,Charogne,C8,Julie,1,1,,,,,,,,,,1.0,,,1.0,,,,,,,,,,"Julie< : Moi j’ai pas du tout parlé de fantastique. Moi j’ai dit, le rapport… tu sais, on avait parlé des défauts et des mœurs de la cour, et ça m’a fait penser à ça parce qu’on parle de Notre-Dame et on parle de tout ce qui est défaut, en mode l’histoire et tout… ça m’a fait penser à ça.>"
105,208,Charogne,C8,Luce,1,1,,1.0,,,,,,,,,,,,,,,,,1.0,,,,"Luce< : Du coup, c’est une hyperbole ou pas ?>"
106,210,Charogne,C8,Flora,1,1,,,,,,,1.0,,,,,,,,1.0,,,,,,,,"Flora< : Mets-la comme une hyperbole, on verra quand on passera à l’oral.>"
107,212,Charogne,C8,Julie,1,1,,1.0,,,,,,,,,,,,1.0,,,,,,,,,Julie< : Mais c’est pas ça une hyperbole…>
108,214,Charogne,C8,Luce,1,1,,,,,,1.0,,,,,,,1.0,,,,,,,,,,Luce<: C’est quand on exagère…>
109,216,Charogne,C8,Flora,1,1,,,,,,,1.0,,,,,,,,,,,,,1.0,,,"Flora< : Attends, c’est quoi la phrase ?>"
110,218,Charogne,C8,Luce,1,1,,,1.0,,,,,,,,,,1.0,,,,,,,,,,Luce< : « Qui vous mangera de baisers. »>
111,220,Charogne,C8,Flora,1,1,1.0,,,,,,,,,,,,1.0,,,,,,,,,,"Flora< : Genre, les insectes, ils vont la manger de baisers…>"
112,222,Charogne,C8,Romane ,1,1,1.0,,,,,,,,,,,,1.0,,,,,,,,,,"Romane :<En fait, ils vont l’enlever, mais avec des baisers pour rendre ça…>"
113,224,Charogne,C8,Romane,1,1,,1.0,,,,,,,,,,,1.0,,,,,,,,,,"Romane<Ah mais si, c’est une figure de style quand tu…>"
114,226,Charogne,C8,Luce,1,1,,1.0,,,,,,,,,,,1.0,,,,,,,,,,Luce< : Une métaphore.>
115,228,Charogne,C8,Romane,1,1,,1.0,,,,,,,,,,,,1.0,,,,,,,,,"Romane< : Mais non, il y a une figure de style, c’est la litote ou l’euphémisme. C’est l’euphémisme.>"
116,230,Charogne,C8,Flora,1,1,,1.0,,,,,,,,,,,,1.0,,,,,,,,,Flora< : Mais non…>
117,232,Charogne,C8,Romane,1,1,,,,,,1.0,,,,,,,,1.0,,,,,,,,,"Romane< : Mais si, c’est quand tu atténues quelque chose de pas bien. Et la litote, c’est…>"
118,234,Charogne,C8,Julie,1,1,,,,,,1.0,,,,,,,1.0,,,,,,,,,,"Julie< : Oui, c’est l’euphémisme parce que…>"
119,236,Charogne,C8,Romane,1,1,,,,,,1.0,,,,,,,1.0,,,,,,,,,,"Romane< : La litote, c’est quand tu… Voilà : « Les poux d’une jeune beauté partaient pour l’autre monde… », « mourraient... », en gros, ils meurent.>"
120,238,Charogne,C8,Julie,1,1,,,,,,,,,,1.0,,,,,,,,,,1.0,,,Julie< : Et tu as fait ça dans ton bac ?>
121,240,Charogne,C8,Romane,1,1,,,,,,,,,,1.0,,,1.0,,,,,,,,,,"Romane< : non, j’avais pas mis d’euphémisme.>"
122,242,Charogne,C8,Luce,1,1,,,,,,,1.0,,,,,,1.0,,,,,,,,,,"Luce< : Je mets « euphémisme », du coup…>"
123,244,Charogne,C8,Flora,1,1,,,,,,,1.0,,,,,1.0,,,,,,,,,,,Flora< : Oui.>
124,246,Charogne,C8,Romane ,1,1,,,,,,1.0,,,,,,,,,,,,,,1.0,,,"Romane :<« Euphémisme », ça veut dire quoi ?>Ça fait « euphoria »… Merci"
125,246,Charogne,C8,Romane ,1,1,,,,,,1.0,,,,,,,1.0,,,,,,,,,,"Romane : « Euphémisme », ça veut dire quoi ?<Ça fait « euphoria »… Merci>."
126,249,Charogne,C8,Romane,1,1,,,,,,,,1.0,,,,,,,,,,,1.0,,,,Romane<On voit quand c’est Julie et quand c’est moi qui écris… j’adore l’écriture de Julie.>
127,251,Charogne,C8,Romane,1,1,,,,,,,1.0,,,,,,,,,,,,1.0,,,,"Romane<Bon, du coup, est-ce qu’on met nos hypothèses ?>"
128,253,Charogne,C8,Julie,1,1,,,,,,,1.0,,,,,,1.0,,,,,,,,,,"Julie< : Oui, il faut les marquer.>"
129,255,Charogne,C8,Romane,1,1,,,1.0,,,,,,,,,,,,1.0,,,,,,,,"Romane< : Bon alors, du coup, on a dit, c’est une rupture amoureuse…>"
130,257,Charogne,C8,Luce,1,1,,,1.0,,,,,,,,,,1.0,,,,,,,,,,"Luce< : Et qu’il se venge, du coup…>"
131,259,Charogne,C8,Romane,1,1,,,1.0,,,,,,,,,,1.0,,,,,,,,,,Romane< : « Une rupture amoureuse »… il est coincé entre la colère et l’amour…>
132,261,Charogne,C8,Luce,1,1,,,1.0,,,,,,,,,1.0,,,,,,,,,,,"Luce< : Oui, voilà.>"
133,263,Charogne,C8,Romane,1,1,,,1.0,,,,,,,,,,1.0,,,,,,,,,,Romane< : « Il est partagé entre la colère et l’amour. »>
134,265,Charogne,C8,Flora ,1,1,,,,,,,1.0,,,,,,,,,,,,,1.0,,,Flora :<Qu’est-ce qu’on peut mettre d’autre ?>
135,267,Charogne,C8,Flora,1,1,,,1.0,,,,,,,,,,,,,,,,1.0,,,,"Flora<Qu’elle est moche. En fait, il veut faire la comparaison de la mocheté extérieure…>"
136,269,Charogne,C8,Romane,1,1,,,1.0,,,,,,,,,,1.0,,,,,,,,,,"Romane< : Oui, mais on va pas dire « mocheté ». On va mettre « la laideur ».>"
137,271,Charogne,C8,Flora,1,1,,,1.0,,,,,,,,,,1.0,,,,,,,,,,"Flora< : Oui, sa laideur. « Sa laideur extérieure comparée... », non. Attends, « laideur extérieure en opposition avec sa douceur interne. »>"
138,274,Charogne,C8,Romane,1,1,,,,,,1.0,,,,,,,,,,,1.0,,,,,,"Romane< : Hein ? C’est quoi les vanités, déjà ?>"
139,277,Charogne,C8,Romane,1,1,,,,,,1.0,,,,,,,,,,,1.0,,,,,,"Romane< : Elle a dit la préhistoire, là ?>"
140,279,Charogne,C8,Flora,1,1,,,,,,,1.0,,,,,,1.0,,,,,,,,,,"Flora< : Mais non, c’est sur ce qu’on a vu… ça fait depuis la préhistoire…>"
141,282,Charogne,C8,Romane,1,1,,,,,,,1.0,,,,,,,,,,,1.0,,,,,"Romane< : « Maitresse ». C’est pas sa femme, c’est sa maitresse.>"
142,284,Charogne,C8,Julie,1,1,,,,,,,1.0,,,,,,1.0,,,,,,,,,,Julie< : Et « sa laideur »… ?>
143,286,Charogne,C8,Flora,1,1,,,,,,,1.0,,,,,,1.0,,,,,,,,,,Flora< : « Externe ». « En opposition avec sa douceur interne. »>
144,288,Charogne,C8,Julie,1,1,,,,,,,1.0,,,,,,1.0,,,,,,,,,,Julie< : « Sa beauté intérieure. »>
145,290,Charogne,C8,Romane,1,1,,,,,,,1.0,,,,,,,,,,,,1.0,,,,"Romane< : Tu es pas obligée de marquer, on va se passer la feuille. C’est pour le groupe.>"
146,292,Charogne,C8,Julie,1,1,,,,,,,1.0,,,,,,,1.0,,,,,,,,,Julie< : On peut prendre plusieurs feuilles.>
147,294,Charogne,C8,Luce,1,1,,,,,,,1.0,,,,,,,1.0,,,,,,,,,"Luce< : Mais de toute façon, nos feuilles, il faudra les donner au machin.>"
148,296,Charogne,C8,Romane,1,1,,,,,,,1.0,,,,,,,1.0,,,,,,,,,"Romane< : Ben, on en donne qu’une, ça sert à rien d’en faire plusieurs. On est un groupe.>"
149,298,Charogne,C8,Flora,1,1,,,,,,,1.0,,,,,,,,,,,,,1.0,,,Flora< : Il faudra donner toutes les feuilles du groupe à la fin ?>
150,300,Charogne,C8,Romane,1,1,,,,,,,1.0,,,,,,1.0,,,,,,,,,,"Romane< : Non, juste une.>"
151,302,Charogne,C8,Julie,1,1,,,,,,,1.0,,,,,,,1.0,,,,,,,,,"Julie< : Non, elle a dit toutes.>"
152,304,Charogne,C8,Flora,1,1,,,,,,,1.0,,,,,,,,,,,,,1.0,,,Flora< : Et c’est noté ?>
153,307,Charogne,C8,Flora,1,1,,,,,,,,1.0,,,,,,,,,1.0,,,,,,"Flora< : Il faut prévenir, en fait…>"
154,309,Charogne,C8,Romane,1,1,,,,,,,1.0,,,,,,,,,1.0,,,,,,,"Romane< : Bon, vous recopierez après.>"
155,311,Charogne,C8,Julie,1,1,,,,,,,1.0,,,,,,1.0,,,,,,,,,,Julie< : « La laideur externe... »>
156,313,Charogne,C8,Romane,1,1,,,1.0,,,,,,,,,,1.0,,,,,,,,,,Romane< : « De sa maîtresse. » Et tu as dit quoi après ? « Par sa douceur extérieure » ?>
157,315,Charogne,C8,Flora,1,1,,,1.0,,,,,,,,,,,1.0,,,,,,,,,Flora< : Non : « En opposition à sa douceur interne. » Mais tu peux mettre « beauté interne ».>
158,317,Charogne,C8,Romane,1,1,,,1.0,,,,,,,,,1.0,,,,,,,,,,,"Romane< : Oui, de sa beauté interne.>"
159,319,Charogne,C8,Julie,1,1,,,1.0,,,,,,,,,,1.0,,,,,,,,,,Julie< : C’est la même chose.>
160,322,Charogne,C8,Flora,1,1,,,1.0,,,,,,,,,,1.0,,,,,,,,,,Flora< : « Sa douce beauté interne ».>
161,325,Charogne,C8,Romane,1,1,,,1.0,,,,,,,,,,,,,,,,1.0,,,,"Romane< : Ensuite, troisième hypothèse, elle est tout simplement morte, et il est très triste, il fait son deuil.>"
162,327,Charogne,C8,Luce,1,1,,,1.0,,,,,,,,,,1.0,,,,,,,,,,"Luce< : Oui, il est énervé, et du coup…>"
163,329,Charogne,C8,Romane,1,1,,,1.0,,,,,,,,,,1.0,,,,,,,,,,Romane<>
164,329,Charogne,C8,Romane,1,1,,,1.0,,,,,,,,,1.0,,,,,,,,,,,"Romane  :<Oui, voilà.>"
165,333,Charogne,C8,Flora,1,1,,,1.0,,,,,,,,,,1.0,,,,,,,,,,Flora< : C’est de la colère ?>
166,335,Charogne,C8,Romane,1,1,,,1.0,,,,,,,,,1.0,,,,,,,,,,,"Romane< : Oui, voilà, c’est ce que je dis.>"
167,337,Charogne,C8,Julie,1,1,,,1.0,,,,,,,,,,1.0,,,,,,,,,,Julie< : Comment il montre la tristesse du décès…>
168,339,Charogne,C8,Romane,1,1,,,1.0,,,,,,,,,,1.0,,,,,,,,,,Romane< : Du deuil…>
169,341,Charogne,C8,Julie ,1,1,,,1.0,,,,,,,,,1.0,,,,,,,,,,,"Julie :<Oui, voilà, du deuil de sa femme.>"
170,343,Charogne,C8,Julie,1,1,,,,,,,,1.0,,,,,,,,,,,,1.0,,,"Julie<Ah merde, je suis débile, moi…>"
171,345,Charogne,C8,Flora,1,1,,,,,,,,,,1.0,,,,,,1.0,,,,,,,Flora< : J’ai perdu mon bouton…>
172,347,Charogne,C8,Romane,1,1,,,,,,,,,,1.0,,,1.0,,,,,,,,,,Romane< : Tu sais que j’ai fait la même l’autre jour chez ma mamie…>
173,349,Charogne,C8,Luce,1,1,,,,,,,,,,1.0,,,1.0,,,,,,,,,,Luce< : Il y a pas de bouton de rechange dans les jeans…>
174,351,Charogne,C8,Romane,1,1,,,,,,,,,,1.0,,,1.0,,,,,,,,,,Romane< : On va pas avoir des boutons de rechange comme ça…>
175,353,Charogne,C8,Luce,1,1,,,,,,,,,,1.0,,,1.0,,,,,,,,,,"Luce< : Tu sais, pour les jeans, il y a des petits trucs avec les boutons…>"
