NProp,Ligne,Seance,Numero,NomEleve,Lycee,Poesie,C1,C2,C3,C3BIS,C4,C5,C6,C7,C8,C9,C10,E1,E2,E3,E4,E5,E6,E7,E8,E9,E10,E11,Text
1,3,Rêve 1 tps3,RBaud3,Elève,,1,,,,,,,1.0,,,,,,,,,,,,,,,,"Elève :<Attends écoute Marwann,>"
2,5,Rêve 1 tps3,RBaud3,Elève,,1,,,,,,,1.0,,,,,,,,,,,,1.0,,,,Elève :<on a travaillé sur le rêve je crois>(intervention enseignant)
3,8,Rêve 1 tps3,RBaud3,Elève,,1,,,,,,,,1.0,,,,,,,,,,1.0,,,,,Elève :<Il est un peu des groupes de bâtards>
4,10,Rêve 1 tps3,RBaud3,Elève,,1,,,1.0,,,,,,,,,,1.0,,,,,,,,,,"Elève:<du coup le poète vit un rêve, il explique un rêve qui revient en boucle quoi>"
5,13,Rêve 1 tps3,RBaud3,Elève,,1,,,1.0,,,,,,,,,,1.0,,,,,,,,,,"Elève:<le rêve ben il est pas tout à fait le même à chaque fois, voilà>"
6,15,Rêve 1 tps3,RBaud3,Elève,,1,,,,,1.0,,,,,,,,1.0,,,,,,,,,,"Elève :<ouais, comme n’importe quel des rêves>"
7,19,Rêve 1 tps3,RBaud3,Elève,,1,,,,,,,1.0,,,,,,,1.0,,,,,,,,,"Elève <: non c’est déjà beaucoup, oui oui, laisse tomber, si jamais ce qu’on a fait.>C’est exceptionnel"
8,19,Rêve 1 tps3,RBaud3,Elève,,1,,,,,,,,1.0,,,,,,,,,,,,,,,"Elève  : non c’est déjà beaucoup, oui oui, laisse tomber, si jamais ce qu’on a fait.<C’est exceptionnel>"
9,23,Rêve 1 tps3,RBaud3,Elève,,1,,,,,,,1.0,,,,,,,,,,,,,,,1.0,"Elève :<Vas-y Louis raconte nous, Louis lit nous ta feuille>"
10,25,Rêve 1 tps3,RBaud3,Elève,,1,,,1.0,,,,,,,,,,1.0,,,,,,,,,,Elève :<Alors on a travaillé sur l’amou>r
11,27,Rêve 1 tps3,RBaud3,Elève,,1,,,,,,,1.0,,,,,,,,,,,,,,,1.0,"Elève:<rires, lit nous ta feuille>"
12,29,Rêve 1 tps3,RBaud3,Elève,,1,,,,,,,1.0,,,,,,1.0,,,,,,,,,,"Elève :<ben l’amour…l’amour,>rires"
13,31,Rêve 1 tps3,RBaud3,Elève,,1,,,,,,,,1.0,,,,,1.0,,,,,,,,,,"Elève : rires,<ben on le sait>"
14,33,Rêve 1 tps3,RBaud3,Elève,,1,,,,,,,,,,1.0,,,,,,,,,,,,,Elève :<le masque sur le nez>
15,36,Rêve 1 tps3,RBaud3,Elève,,1,,,,,,,,1.0,,,,,,1.0,,,,,,,,,Elève :<non mais Louis tu saoules s’il te plaît>(inaudible 0 :47)
16,38,Rêve 1 tps3,RBaud3,Elève,,1,,,,,,,,,,1.0,,,,,,,,,,,,,"Elève :<on dit pas nanan, t’auras pas une mauvaise note si jamais l’enregistrement il est pas bon>"
17,40,Rêve 1 tps3,RBaud3,Elève,,1,,,,,,,,,,1.0,,,,,,,,,,,,,"Elève :<mais non mais juste mets ton masque normal, c’est pas marrant. Hein qu’est-ce qui fait ?>"
18,44,Rêve 1 tps3,RBaud3,Elève,,1,,,,,,,1.0,,,,,,,,,,,,,1.0,,,Elève:<du coup Louis t’as pas retenu des choses qu’ils ont dit et tout>
19,46,Rêve 1 tps3,RBaud3,Elève,,1,,,,,,,,1.0,,,,,,,,,,,,,1.0,,Elève <: j’ écoutais pas>
20,51,Rêve 1 tps3,RBaud3,Elève ,,1,,,,,,,,,,1.0,,,,,,,,,,,,,"Elève :<mets ton masque quand même, alors>"
21,53,Rêve 1 tps3,RBaud3,Elève,,1,,,,,,,,,,1.0,,,,,,,,,,,,,Elève <: je suis en gros manque d’esprit d’arrêter l’enregistrement>
22,57,Rêve 1 tps3,RBaud3,Elève,,1,,,,,,,,,,1.0,,,,,,,,,,,,,"Elève : rires, (inaudible 1 :14<) je ter pour faire un clap de synchronisation (il claque dans ses mains)>"
23,60,Rêve 1 tps3,RBaud3,Elève,,1,,,,,,,,,,1.0,,,,,,,,,,,,,Elève :<je fais un clap de synchronisation>
24,62,Rêve 1 tps3,RBaud3,Elève,,1,,,,,,,1.0,,,,,,,,,,,,1.0,,,,"Elève :<du coup je vous lis, ce qu’on a fait nous avec notre groupe>, alors la structure du poème, on a trouvé que les types de strophes c’était, il y avait deux quartains,, non deux quatrains"
25,62,Rêve 1 tps3,RBaud3,Elève,,1,,1.0,,,,,,,,,,,,,,,,,,,,,"Elève : du coup je vous lis, ce qu’on a fait nous avec notre groupe ,<alors la structure du poème, on a trouvé que les types de strophes c’était, il y avait deux quartains,, non deux quatrains>"
26,67,Rêve 1 tps3,RBaud3,Elève,,1,,1.0,,,,,,,,,,,1.0,,,,,,,,,,Elève:<et deux tercets>
27,69,Rêve 1 tps3,RBaud3,Elève,,1,,,,,,,,,,1.0,,,,,,,,,,,,,Elève :<Ah eh c’est madame quartain djadja>
28,71,Rêve 1 tps3,RBaud3,Elève,,1,,,,,,,,1.0,,,,,,,,,,,,1.0,,,Elève :<ça veut dire que…vous m ‘écoutez ?>
29,74,Rêve 1 tps3,RBaud3,Elève,,1,,1.0,,,,,,,,,,,1.0,,,,,,,,,,Elève :<ça veut dire que ce sont deux sonnets>
30,76,Rêve 1 tps3,RBaud3,Elève,,1,,1.0,,,,,,,,,,1.0,,,,,,,,,,,Elève :<ouais>
31,78,Rêve 1 tps3,RBaud3,Elève,,1,,1.0,,,,,,,,,,,,1.0,,,,,,,,,Elève :<non un sonnet tout court>
32,80,Rêve 1 tps3,RBaud3,Elève,,1,,,,,,1.0,,,,,,,,,,,,,,1.0,,,Elève:<c’est qui sonnet ?>
33,82,Rêve 1 tps3,RBaud3,Elève,,1,,,,,,,,1.0,,,,,,,,,,,,1.0,,,Elève:<bon ben tu y arrives ou euh>
34,84,Rêve 1 tps3,RBaud3,Elève,,1,,,,,,1.0,,,,,,,,,,,,,,1.0,,,Elève :<mais c’est qui sonnet ?>
35,86,Rêve 1 tps3,RBaud3,Elève,,1,,,,,,1.0,,,,,,,1.0,,,,,,,,,,"Elève:<c’est des vers, c’est douze syllabes c’est un alexandrin>"
36,88,Rêve 1 tps3,RBaud3,Elève,,1,,1.0,,,,,,,,,,,,,,1.0,,,,,,,"Elève :<la qualité des rimes elles sont toutes suffisantes, par exemple pénétrant et comprendre c’est pendant sauf pour blême et problème ( ) qui sont riches>"
37,90,Rêve 1 tps3,RBaud3,Elève,,1,,,,,,1.0,,,,,,,,,,,,,,1.0,,,Elève :<c’est quoi un blême ?>
38,92,Rêve 1 tps3,RBaud3,Elève,,1,,,,,,,,,,1.0,,,,,,,,,,,,,"Elève :<quoi t’as un blême avec moi, t’as un blême>"
39,96,Rêve 1 tps3,RBaud3,Elève,,1,,,,,,,,,,1.0,,,,,,,,,,,,,Elève:<t’as un grand front Juline !>
40,98,Rêve 1 tps3,RBaud3,Elève,,1,,,,,,,1.0,,,,,,,,,,,,,,1.0,,"Elève :<ouais du coup tu demanderas à la prof Marwann, voilà >!"
41,100,Rêve 1 tps3,RBaud3,Elève ,,1,,,,,1.0,,,,,,,,,,,,,,,1.0,,,Elève :<Madame c’est quoi un blême ?>
42,102,Rêve 1 tps3,RBaud3,Elèves,,1,,,,,,,,1.0,,,,,1.0,,,,,,,,,,Elèves :<mais attends>
43,104,Rêve 1 tps3,RBaud3,Elève,,1,,,,,,,,1.0,,,,,1.0,,,,,,,,,,Elève:<elle parle>
44,106,Rêve 1 tps3,RBaud3,Elève,,1,,,,,,1.0,,,,,,,,,,,,,,1.0,,,"Elève:<ah j’ai une question, j’ai une question>"
45,108,Rêve 1 tps3,RBaud3,Elève,,1,,1.0,,,,,,,,,,,1.0,,,,,,,,,,"Elève:<l’agencement des rimes, c’est euh dans les quatrains ce sont des rimes embrassées entre parenthèses ABBA,>"
46,110,Rêve 1 tps3,RBaud3,Elève,,1,,1.0,,,,,,,,,,1.0,,,,,,,,,,,Elève <: ABBA ok>
47,115,Rêve 1 tps3,RBaud3,Elève,,1,,,,,,,,1.0,,,,,,,,,,,,1.0,,,"Elève :<oui c’est bon là, je peux parler ?>"
48,117,Rêve 1 tps3,RBaud3,Elève,,1,,,,,,,1.0,,,,,,,,,,,,,,,1.0,"Elève :<oui, vous écoutez>(inaudible 2 :41)"
49,119,Rêve 1 tps3,RBaud3,Elève,,1,,,,,,,1.0,,,,,,,,,,,,1.0,,,,Elève :<moi j’ai travaillé sur la description de la femme>
50,121,Rêve 1 tps3,RBaud3,Elève,,1,,,,,,,,,,,,,,,,,,,,,,1.0,Elève:<d’accord>
51,124,Rêve 1 tps3,RBaud3,Elève,,1,,,1.0,,,,,,,,,,1.0,,,,,,,,,,"Elève :<donc on a trouvé comme : inconnue, même, ni tout à fait la même, ni tout à fait une autre, elle seule, brune, blonde ou rousse, regard>alors tout ça c’est ce qui définit la femme. Alors euh femme inconnue ben en fait ça veut que il la connaît pas"
52,124,Rêve 1 tps3,RBaud3,Elève,,1,1.0,,,,,,,,,,,,,,,,,,,,,,"Elève : donc on a trouvé comme : inconnue, même, ni tout à fait la même, ni tout à fait une autre, elle seule, brune, blonde ou rousse, regard<alors tout ça c’est ce qui définit la femme. Alors euh femme inconnue ben en fait ça veut que il la connaît pas>"
53,127,Rêve 1 tps3,RBaud3,Elève ,,1,1.0,,,,,,,,,,,1.0,,,,,,,,,,,Elève :<ouais tout simplement>
54,129,Rêve 1 tps3,RBaud3,Elève,,1,1.0,,,,,,,,,,,1.0,,,,,,,,,,,Elève :<c’est logique>
55,131,Rêve 1 tps3,RBaud3,Elève,,1,,,,,,,1.0,,,,,,,,,,,,,,,1.0,Elève :<vas-y Marwann pose ta question>
56,133,Rêve 1 tps3,RBaud3,Elève ,,1,1.0,,,,,,,,,,,,1.0,,,,,,,,,,"Elève :<même, ça veut dire que genre dans ses rêves, on voit que la femme elle ressent quelque chose pour lui, il l’aime, elle l’aime, qu’ils s’aiment. Ensuite, ni tout à fait la même, en fait on a pensé que à chaque fois dans ses rêves ben son apparence elle change, mais en fait ça change pas forcément parce que il y a que son physique, sinon elle l’aime toujours, voilà, euh…ben voilà et du coup son regard est sublime parce qu’en fait il le compare à un regard de statue et les statues ben c’est toujours beau, magnifique et tout>(inaudible 3 :48)"
57,136,Rêve 1 tps3,RBaud3,Elève ,,1,,1.0,,,,,,,,,,,,,,,,,,1.0,,,"Elève :<et on a aussi trouvé des, des…mince j’ai oublié le mot, y avait des comparaisons ( ) mais je sais plus>"
58,139,Rêve 1 tps3,RBaud3,Elève,,1,,,,,,,,,,1.0,,,,,,,,,,,,,Elève :<pah ! pah ! pah !>
59,141,Rêve 1 tps3,RBaud3,Elève,,1,,,,,,,,1.0,,,,,1.0,,,,,,,,,,Elève :<non mais c’est pas drôle Louis>
60,143,Rêve 1 tps3,RBaud3,Elève,,1,,,,,,,1.0,,,,,,,,,,,,,,,1.0,Elève :<et du coup tu… Marwann faut que tu demandes à>(inaudible brouhaha 4 :15)
61,145,Rêve 1 tps3,RBaud3,Elève,,1,,,,,,,1.0,,,,,,,,,,,,,,,1.0,Elève :<elle parle pas>
62,147,Rêve 1 tps3,RBaud3,Elève,,1,,,,,,,1.0,,,,,,,,,,,,,,,1.0,Elève :<Marwann faut que tu poses ta question à la prof>
63,149,Rêve 1 tps3,RBaud3,Elève,,1,,,,,,,,,,1.0,,,,,,,,,,,,,Elève <: Est-ce qu’elle peut prendre du miel ou pas ?>
64,151,Rêve 1 tps3,RBaud3,Elève,,1,,,,,,,1.0,,,,,,,,,,,,,1.0,,,"Elève :<on a trouvé plein de, de sorte de machins, tu vois là…ça s’appelle comment les allégories, les métaphores et aussi (inaudible 4 :28 à 4 :30) et on a trouvé plein de je ne sais plus comment ça s’appelle en fait on l’a pas trop dit, enfin.>"
65,153,Rêve 1 tps3,RBaud3,Elève,,1,,,,,,1.0,,,,,,,1.0,,,,,,,,,,Elève :<c’est euh : figure de style>
66,156,Rêve 1 tps3,RBaud3,Elève,,1,,,,,,,1.0,,,,,,,,,,,,1.0,,,,"Elève : (inaudible 4 :56<) là y a écrit j’aide ou je me suis fait aidé par quelqu’un>(brouhaha inaudible 4 :59) rires, non"
67,158,Rêve 1 tps3,RBaud3,Elève,,1,,,,,,1.0,,,,,,,,,,,,,,1.0,,,Elève <: j’ai une question non urgente>
68,160,Rêve 1 tps3,RBaud3,Elève ,,1,,,,,,,,,,1.0,,,,,,,,,,,,,Elève :<tu bégaies en ce moment ?>Rires
69,162,Rêve 1 tps3,RBaud3,Elève,,1,,,,,,,,,,1.0,,,,,,,,,,,,,"Elève :<non attends, en fait c’était vraiment toi qui avait crée une vidéo alors que je faisais une (inaudible) j’en reviens pas>"
70,164,Rêve 1 tps3,RBaud3,Elève,,1,,,,,,,,,,1.0,,,,,,,,,,,,,"Elève :<si vous voulez messieurs les chercheurs, vous tapez Juline passion sudoku sur insta, vous devriez la trouvez, sinon vous tapez juline.glb tiret du bas>"
71,167,Rêve 1 tps3,RBaud3,Elève,,1,,,,,,1.0,,,,,,,,,,,,,,1.0,,,"Elève:<non madame j’ai une question non urgente, mais j’ai une question>"
72,170,Rêve 1 tps3,RBaud3,Elève,,1,,,,,,1.0,,,,,,,,,,,,,,1.0,,,Elève :<c’est quoi un blême>
73,173,Rêve 1 tps3,RBaud3,Elève ,,1,,,,,,1.0,,,,,,,,,,,1.0,,,,,,"Elève :<ah blême c’est blanc, c’est blanc ah oui ok >! C’est bon on a terminé"
74,173,Rêve 1 tps3,RBaud3,Elève ,,1,,,,,,,1.0,,,,,,,,,,1.0,,,,,,"Elève : ah blême c’est blanc, c’est blanc ah oui ok  !<C’est bon on a terminé>"
