NProp,Ligne,Seance,Numero,NomEleve,Lycee,Poesie,C1,C2,C3,C3BIS,C4,C5,C6,C7,C8,C9,C10,E1,E2,E3,E4,E5,E6,E7,E8,E9,E10,E11,Text
1,1,Alchimie,A2,Manon G ,1,1,,,,,,,1.0,,,,,,,,,,,,,,,,Manon G : C’est Alchimie de la douleur qu’il<faut> ?
2,3,Alchimie,A2,Loïs,1,1,,,,,,,1.0,,,,,1.0,,,,,,,,,,,Loïs (Garçon) :<Oui>.
3,7,Alchimie,A2,Manon G ,1,1,,,,,,,1.0,,,,,,,,,,,,,1.0,,,Manon G : C’est normal que le texte soit très<court>…
4,10,Alchimie,A2,Loïs ,1,1,,,,,,,1.0,,,,,,,,,,,,,,,,Loïs : Oui. Qui s’occupe de<l’heure> ?
5,13,Alchimie,A2,Manon G ,1,1,,,,,,,1.0,,,,,,,,,,1.0,,,,,,"Manon G : Madame, on peut aller chercher des tablettes, si<besoin> ?"
6,17,Alchimie,A2,Loïs ,1,1,,,,,,,1.0,,,,,,1.0,,,,,,,,,,"Loïs : Prends des qui marchent, parce que si ça marche<pas>…"
7,21,Alchimie,A2,Armand ,1,1,,,,,,,1.0,,,,,,1.0,,,,,,,,,,"Armand : Bon, on est partis,<là>…"
8,25,Alchimie,A2,Lucie ,1,1,,1.0,,,,,,,,,,,,,,,,,1.0,,,,Lucie : Il y a deux<quatrains>…
9,28,Alchimie,A2,Loïs ,1,1,,1.0,,,,,,,,,,,1.0,,,,,,,,,,"Loïs : La première, il y a eu du « <ABBA> »…"
10,32,Alchimie,A2,Loïs ,1,1,,1.0,,,,,,,,,,,1.0,,,,,,,,,,"Loïs : Du coup, c’est la deuxième… Non, c’est rimes<croisées>…"
11,35,Alchimie,A2,Lucie ,1,1,,1.0,,,,,,,,,,,,1.0,,,,,,,,,Lucie :<Non>…
12,38,Alchimie,A2,Armand ,1,1,,1.0,,,,,,,,,,,1.0,,,,,,,,,,Armand : C’est<embrassées>…
13,41,Alchimie,A2,Lucie ,1,1,,1.0,,,,,,,,,,1.0,,,,,,,,,,,Lucie :<Embrassées>…
14,44,Alchimie,A2,Armand ,1,1,,1.0,,,,,,,,,,,,,,,,,,1.0,,,"Armand : L’autre, c’est<quoi> ?"
15,47,Alchimie,A2,Armand ,1,1,,1.0,,,,,,,,,,,1.0,,,,,,,,,,"Armand : En fait, c’est que du « <ABBA> »…"
16,50,Alchimie,A2,Loïs ,1,1,,1.0,,,,,,,,,,,1.0,,,,,,,,,,"Loïs : Il y a du « A »… Ensuite, pour les deux derniers trucs, il y a du « AA », « BB », et du « BAA ». Du coup, en fait, à la fois, c’est suivi et… non, c’est suivi. Du coup, c’est<suivi>."
17,53,Alchimie,A2,Armand ,1,1,,1.0,,,,,,,,,,,,,,,,,,1.0,,,Armand : Tu es<sûr> ?
18,55,Alchimie,A2,Loïs ,1,1,,,,,,1.0,,,,,,,1.0,,,,,,,,,,"Loïs : Oui, si c’est du « <AABB> »."
19,57,Alchimie,A2,Armand ,1,1,,1.0,,,,,,,,,,,,1.0,,,,,,,,,Armand : C’est « AAB-<ABB> »…
20,59,Alchimie,A2,Loïs ,1,1,,1.0,,,,,,,,,,1.0,,,,,,,,,,,"Loïs : Ah oui… j’avais pas vu, ça… attends. Donc c’est « <A> »…"
21,61,Alchimie,A2,Armand ,1,1,,1.0,,,,,,,,,,,,,,,,,,1.0,,,"Armand : Ça s’appelle un quatrain,<ça> ?"
22,64,Alchimie,A2,Manon G ,1,1,,1.0,,,,,,,,,,1.0,,,,,,,,,,,Manon G :<Oui>.
23,67,Alchimie,A2,Armand ,1,1,,1.0,,,,,,,,,,,1.0,,,,,,,,,,Armand : Donc il y a deux<quatrains>…
24,70,Alchimie,A2,Loïs ,1,1,,1.0,,,,,,,,,,,,,,,,,,1.0,,,"Loïs : Attends, les deux premiers, c’est des<quatrains> ?"
25,73,Alchimie,A2,Lucie ,1,1,,1.0,,,,,,,,,,1.0,,,,,,,,,,,Lucie :<Oui>.
26,76,Alchimie,A2,Armand ,1,1,,1.0,,,,,,,,,,,1.0,,,,,,,,,,"Armand : Et l’autre, c’est des<tiercets>… ça se dit comme ça"
27,76,Alchimie,A2,Armand ,1,1,,,,,,1.0,,,,,,,,,,,,,,1.0,,,"Armand : Et l’autre, c’est des tiercets … ça se dit comme<ça> ?"
28,81,Alchimie,A2,Lucie ,1,1,,,,,,1.0,,,,,,1.0,,,,,,,,,,,"Lucie : Oui, c’est<ça>."
29,84,Alchimie,A2,Armand ,1,1,,,,,,1.0,1.0,,,,,,,,,,,,,1.0,,,"Armand : C’est « tiercet », comme<ça> ?"
30,87,Alchimie,A2,Lucie ,1,1,,,,,,1.0,,,,,,1.0,,,,,,,,,,,Lucie :<Oui>.
31,90,Alchimie,A2,Loïs ,1,1,,,,,,1.0,1.0,,,,,,,,,,,,,1.0,,,Loïs : C’est « <tiercet> » ?
32,93,Alchimie,A2,Armand ,1,1,,,,,,1.0,,,,,,1.0,,,,,,,,,,,Armand : Je crois que c’est « <tiercet> »…
33,95,Alchimie,A2,Loïs ,1,1,,,,,,,1.0,,,,,,1.0,,,,,,,,,,"Loïs : Attends, je vais regarder dans la<feuille>…"
34,98,Alchimie,A2,Armand ,1,1,,,,,,1.0,,,,,,,,,,,,,,1.0,,,Armand : Je sais<pas>…
35,101,Alchimie,A2,Lucie ,1,1,,,,,,1.0,,,,,,1.0,,,,,,,,,,,"Lucie : Si, c’est « <tiercet> »…"
36,104,Alchimie,A2,Loïs ,1,1,,,,,,1.0,1.0,,,,,,,1.0,,,,,,,,,"Loïs : Je suis en train de regarder… « tercet », pas « <tiercet> »…"
37,108,Alchimie,A2,Armand ,1,1,,,,,,,,1.0,,,,1.0,,,,,,,,,,,Armand : Autant pour<moi>.
38,111,Alchimie,A2,Loïs ,1,1,,,,,,,,1.0,,,,,,,,,,,,,,1.0,"Loïs : Non, c’est pas<grave>. Ensuite…"
39,113,Alchimie,A2,Lucie ,1,1,,,,,,1.0,,,,,,,,,,,,,,1.0,,,"Lucie : Tercet, tu l’écris<comment> ?"
40,116,Alchimie,A2,Loïs ,1,1,,,,,,1.0,1.0,,,,,,1.0,,,,,,,,,,"Loïs :<TERCET>. Attends, il faut compter… « L’un t’éclaire avec son ardeur... », huit."
41,116,Alchimie,A2,Loïs ,1,1,,1.0,,,,,,,,,,,,,,,,,1.0,,,,"Loïs : TERCET .<Attends, il faut compter… « L’un t’éclaire avec son ardeur... », huit.>"
42,121,Alchimie,A2,Armand ,1,1,,1.0,,,,,,,,,,1.0,,,,,,,,,,,Armand :<Huit>.
43,124,Alchimie,A2,Loïs ,1,1,,,,1.0,,,,,,,,,1.0,,,,,,,,,,"Loïs : « L’autre en toi met son deuil,<Nature>... »"
44,126,Alchimie,A2,Lucie ,1,1,,1.0,,,,,,,,,,,,,,,,,1.0,,,,Lucie : Il y a le lexique de la<mort>…
45,128,Alchimie,A2,Loïs ,1,1,,1.0,,,,,,,,,,,,,,1.0,,,,,,,Loïs : Huit…<octosyllabes>.
46,131,Alchimie,A2,Armand ,1,1,,1.0,,,,,,,,,,,,1.0,,,,,,,,,Armand : J’en compte neuf pour les<deux>…
47,134,Alchimie,A2,Loïs ,1,1,,1.0,,,,,,,,,,,,1.0,,,,,,,,,Loïs : Je pense pour tout<octosyllabe>…
48,137,Alchimie,A2,Armand ,1,1,,1.0,,,,,,,,,,,,1.0,,,,,,,,,"Armand : Non, parce que… « L’autre en toi met son deuil,<Nature>... »"
49,140,Alchimie,A2,Loïs ,1,1,,1.0,,,,,,,,,,,,1.0,,,,,,,,,Loïs :<Huit>…
50,142,Alchimie,A2,Armand ,1,1,,1.0,,,,,,,,,,1.0,,,,,,,,,,,"Armand : Ah oui, « <L’autre>... »"
51,145,Alchimie,A2,Loïs ,1,1,,1.0,,,,,,,,,,,,1.0,,,,,,,,,"Loïs : Non, c’est « l’autr’en toi met son deuil,<Nature>... »"
52,148,Alchimie,A2,Armand ,1,1,,1.0,,,,,,,,,,1.0,,,1.0,,,,,,,,"Armand : Oui, c’est ça. Donc ce sont des<octosyllabes>."
53,151,Alchimie,A2,Loïs ,1,1,,1.0,,,,,,,,,,1.0,,,1.0,,,,,,,,"Loïs : Voilà. Oui, c’est octosyllabe<partout>… « Je bâtis de grands sarcophages… » Attends, et les rimes… il faut voir les trucs féminines…"
54,151,Alchimie,A2,Loïs ,1,1,,1.0,,,,,,,1.0,,,,,,,,,,1.0,,,,"Loïs : Voilà. Oui, c’est octosyllabe partout …<« Je bâtis de grands sarcophages… » Attends, et les rimes… il faut voir les trucs féminines…>"
55,158,Alchimie,A2,Lucie ,1,1,,,,,,1.0,,,,,,,1.0,,,,,,,,,,Lucie : C’est quand c’est le « e »<muet>…
56,161,Alchimie,A2,Loïs ,1,1,,,,,,1.0,,,,,,,1.0,,,,,,,,,,Loïs : C’est quand ça se termine par un « e »<muet>…
57,164,Alchimie,A2,Manon G ,1,1,,1.0,,,,,,,,,,,1.0,,,,,,,,,,"Manon G : La première, c’est masculin, la deuxième, c’est… deux et<trois>…"
58,167,Alchimie,A2,Loïs ,1,1,,1.0,,,,,,,,,,,,,,,,,,1.0,,,"Loïs : Est-ce que « nuages », « rivages », « sarcophages », c’est des « e »<muets> ?"
59,170,Alchimie,A2,Lucie ,1,1,,1.0,,,,,,,,,,,1.0,,,,,,,,,,"Lucie : Oui, parce que tu dis pas « <nuageu> »… Il y a le lexique de la mort, je sais pas si vous m’avez entendue"
60,170,Alchimie,A2,Lucie ,1,1,,1.0,,,,,,1.0,,,,,,,,,,,1.0,,,,"Lucie : Oui, parce que tu dis pas «  nuageu  »… Il y a le lexique de la mort, je sais pas si vous m’avez<entendue>…"
61,174,Alchimie,A2,Loïs ,1,1,,1.0,,,,,,,,,,,1.0,,,,,,,,,,Loïs : Champ lexical de la<mort>…
62,178,Alchimie,A2,Loïs ,1,1,,,,,,,1.0,,,,,1.0,,,,,,,,,,,"Loïs : Oui, vas-y, on<l’écrit>…"
63,181,Alchimie,A2,Lucie ,1,1,,1.0,,,,,,,,,,,1.0,,,,,,,,,,"Lucie : Il y a « deuil », « sépulture », « paradis », « enfer », « cadavre », « <sarcophages> »…"
64,183,Alchimie,A2,Armand ,1,1,,1.0,,,,,,,,,,,,,,1.0,,,,1.0,,,"Armand : Est-ce que « assiste... », du coup, c’est<féminine> ?"
65,186,Alchimie,A2,Manon G ,1,1,,1.0,,,,,,,,,,,1.0,,,,,,,,,,Manon G :<Oui>…
66,188,Alchimie,A2,Armand ,1,1,,1.0,,,,,,,,,,,1.0,,,,,,,,,,"Armand : « Alchimistes » aussi,<alors>…"
67,190,Alchimie,A2,Loïs ,1,1,,1.0,,,,,,,,,,,1.0,,,,,,,,,,"Loïs : Oui. « Alchimistes » aussi, du<coup>…"
68,193,Alchimie,A2,Armand ,1,1,,1.0,,,,,,,,,,,,,,,,,,1.0,,,"Armand : Et masculin, c’est<pour>…"
69,196,Alchimie,A2,Lucie ,1,1,,1.0,,,,,,,,,,,,,,1.0,,,,1.0,,,"Lucie : « Célestes », ça fait partie du champ lexical de la<mort>… ?"
70,198,Alchimie,A2,Loïs ,1,1,,1.0,,,,,,,,,,,,,,,,,,1.0,,,Loïs : Je sais pas<trop>…
71,201,Alchimie,A2,Lucie ,1,1,,,,,,1.0,,,,,,,,,,,,,,1.0,,,"Lucie : « Célestes », c’est pas genre un<mot>… ?"
72,203,Alchimie,A2,Armand ,1,1,,,,,,1.0,,,,,,,,1.0,,,,,,,,,"Armand : Mais non, quand c’est céleste, c’est que ça vient des<cieux>…"
73,205,Alchimie,A2,Manon G ,1,1,,,,,,1.0,,,,,,1.0,,,,,,,,,,,Manon G :<Oui>.
74,208,Alchimie,A2,Lucie ,1,1,,1.0,,,,,,,,,,,,1.0,,,,,,,,,"Lucie : Eh ben, c’est un truc avec la<mort>…"
75,210,Alchimie,A2,Loïs ,1,1,,1.0,,,,,,,,,,1.0,,,,,,,,,,,Loïs :<Oui>.
76,213,Alchimie,A2,Lucie ,1,1,,1.0,,,,,,,,,,,,,,,,,,1.0,,,"Lucie : Il y avait quoi, comme champ lexical de la<mort>… ?"
77,215,Alchimie,A2,Armand ,1,1,,1.0,,,,,,,,,,,1.0,,,,,,,,,,"Armand : Des métaux,<aussi>…"
78,217,Alchimie,A2,Lucie ,1,1,,1.0,,,,,,,,,,,,,,1.0,,,,,,,"Lucie : « Deuil », « sépulture », « <paradis> »…"
79,219,Alchimie,A2,Loïs ,1,1,,1.0,,,,,,,,,,,1.0,,,,,,,,,,Loïs : « <Enfer> »…
80,221,Alchimie,A2,Lucie ,1,1,,1.0,,,,,,,,,,,1.0,,,,,,,,,,"Lucie : « Enfer », « cadavre », « <sarcophages> »…"
81,225,Alchimie,A2,Lucie ,1,1,,1.0,,,,,,,,,,,,,,,,,,1.0,,,Lucie : Tu as dit quoi ? Le champ lexical de<quoi> ?
82,227,Alchimie,A2,Armand ,1,1,,1.0,,,,,,,,,,,1.0,,,,,,,,,,Armand : Des<métaux>…
83,231,Alchimie,A2,Armand ,1,1,,1.0,,,,,,,,,,,1.0,,,,,,,,,,Armand : Regarde : « <fer> »…
84,233,Alchimie,A2,Loïs ,1,1,,1.0,,,,,,,,,,,1.0,,,,,,,,,,Loïs : « <Alchimistes> »…
85,235,Alchimie,A2,Armand ,1,1,,,,,,1.0,,,,,,,1.0,,,,,,,1.0,,,"Armand : Midas, c’est pas quelqu’un en<or>… ?"
86,237,Alchimie,A2,Loïs ,1,1,,,,,,1.0,,,,,,,1.0,,,,,,,,,,"Loïs : Si, quand il touchait des objets, ils se transformaient en<or>… « Alchimistes », aussi… tu sais, l’alchimie, avec… changer la boue en or"
87,237,Alchimie,A2,Loïs ,1,1,1.0,,,,1.0,,,,,,,,1.0,,,,,,,,,,"Loïs : Si, quand il touchait des objets, ils se transformaient en or … « Alchimistes », aussi… tu sais, l’alchimie, avec… changer la boue en<or>. Dans le champ lexical des métaux"
88,243,Alchimie,A2,Armand ,1,1,,,,1.0,,,,,,,,,1.0,,,,,,,,,,Armand : « Par toi je change l’or en<fer>... »
89,245,Alchimie,A2,Lucie ,1,1,,1.0,,,,,,,,,,,,,,,,,,1.0,,,"Lucie : Et c’est le champ lexical de quoi que tu as trouvé,<Loïs> ?"
90,247,Alchimie,A2,Loïs ,1,1,,1.0,,,,,,,,,,,1.0,,,,,,,,,,"Loïs : Des métaux, avec « or », « fer », « Midas », « <alchimistes> ». Aussi, il y a un oxymore ou une antithèse… je sais pas comment… « Et le paradis en enfer... » Mais je pense que c’est"
91,247,Alchimie,A2,Loïs ,1,1,,1.0,,,,,,,,,,,,,,,,,1.0,,,,"Loïs : Des métaux, avec « or », « fer », « Midas », «  alchimistes  ». Aussi, il y a un oxymore ou une antithèse… je sais pas comment… « Et le paradis en enfer... » Mais je pense que<c’est>…"
92,252,Alchimie,A2,Lucie ,1,1,,1.0,,,,,,,,,,,1.0,,,,,,,,,,Lucie : Une<antithèse>…
93,255,Alchimie,A2,Loïs ,1,1,,1.0,,,,,,,,,,1.0,,,,,,,,,,,"Loïs : Oui, je pense que c’est une<antithèse>…"
94,258,Alchimie,A2,Armand ,1,1,,1.0,,,,,,,,,,,,,,,,,,1.0,,,Armand : Où<ça> ?
95,261,Alchimie,A2,Loïs ,1,1,,1.0,,,,,,,,,,,1.0,,,,,,,,,,Loïs : « Et le paradis en<enfer>. »
96,264,Alchimie,A2,Armand ,1,1,,1.0,,,,,,,,,,,1.0,,,,,,,,,,"Armand : C’est quel vers ? Ah oui. Donc ça, c’est un<antithèse>…"
97,267,Alchimie,A2,Loïs ,1,1,,1.0,,,,,,,,,,,1.0,,,,,,,,,,"Loïs : Mais là, par contre, il y a un oxymore, « un cadavre<cher> »…"
98,270,Alchimie,A2,Lucie ,1,1,,,,,,,,,,,,,,,,,,,,1.0,,,Lucie : Tu as dit<quoi> ?
99,272,Alchimie,A2,Loïs ,1,1,,,,,,1.0,,,,,,,1.0,,,,,,,1.0,,,"Loïs : Oxymore, non ? Je sais<pas>…"
100,274,Alchimie,A2,Armand ,1,1,,,,,,1.0,,,,,,,1.0,,,,,,,1.0,,,Armand : Je sais pas trop ce que c’est un<oxymore>…
101,276,Alchimie,A2,Loïs ,1,1,,,,,,,1.0,,,,,,,,,,,,,1.0,,,Loïs : On a jusqu’à quelle<heure> ?
102,278,Alchimie,A2,Lucie ,1,1,,,,,,,1.0,,,,,,1.0,,,,,,,,,,Lucie : On a commencé à<17>…
103,280,Alchimie,A2,Armand ,1,1,,,,,,,1.0,,,,,,1.0,,,,,,,,,,"Armand : En fait, c’est trente minutes, en<gros>…"
104,282,Alchimie,A2,Lucie ,1,1,,,,,,,1.0,,,,,1.0,,,,,,,,,,,"Lucie : Oui, trente<minutes>."
105,284,Alchimie,A2,Loïs ,1,1,,,,,,,1.0,,,,,1.0,,,,,,,,,,,Loïs :<OK>.
106,286,Alchimie,A2,Armand ,1,1,,1.0,,,,,,,,,,,1.0,,,,,,,,,,"Armand : L’antithèse, c’est « paradis en<enfer> »… Est-ce qu’on peut dire aussi que c’est un oxymore, ou pas"
107,286,Alchimie,A2,Armand ,1,1,,1.0,,,,,,,,,,,,,,,,,,1.0,,,"Armand : L’antithèse, c’est « paradis en enfer  »… Est-ce qu’on peut dire aussi que c’est un oxymore, ou<pas> ?"
108,289,Alchimie,A2,Manon G ,1,1,,1.0,,,,,,,,,,,,,,,,,,1.0,,,Manon G :<Où> ?
109,292,Alchimie,A2,Armand ,1,1,,1.0,,,,,,,,,,,1.0,,,,,,,,,,Armand : « Paradis en<enfer> ».
110,296,Alchimie,A2,Loïs ,1,1,,,,,,1.0,,,,,,,,,,,1.0,,,1.0,,,"Loïs : D’accord, OK. Et quand il y a un<objectif>, souvent, non"
111,301,Alchimie,A2,Armand ,1,1,,1.0,,,,,,,,,,,1.0,,,,1.0,,,,,,Armand : « Un cadavre<cher> »…
112,305,Alchimie,A2,Loïs ,1,1,,1.0,,,,,,,,,,,,,1.0,,,,,,,,Loïs : C’est une oxymore…<OK>. Ça s’écrit avec un «  i
113,305,Alchimie,A2,Loïs ,1,1,,,,,,1.0,,,,,,,,,,,,,,1.0,,,Loïs : C’est une oxymore… OK . Ça s’écrit avec un « <i> » ?
114,309,Alchimie,A2,Lucie ,1,1,,,,,,1.0,,,,,,,1.0,,,,,,,,,,Lucie : « <Y> ». Il faut voir le temps des verbes
115,309,Alchimie,A2,Lucie ,1,1,,1.0,,,,,,,1.0,,,,,,,,,,1.0,,,,Lucie : «  Y  ». Il faut voir le temps des<verbes>…
116,313,Alchimie,A2,Armand ,1,1,,1.0,,,,,,,,,,,,,,1.0,,,,1.0,,,"Armand : Est-ce que « de grands sarcophages », c’est une<oxymore> ?"
117,316,Alchimie,A2,Manon G ,1,1,,1.0,,,,,,,,,,,1.0,,,,,,,,,,Manon G :<Non>.
118,318,Alchimie,A2,Loïs ,1,1,,1.0,,,,,,,,,,,1.0,,,,,,,,,,"Loïs : Ils peuvent être grands, c’est un<adjectif>…"
119,321,Alchimie,A2,Armand ,1,1,,1.0,,,,,,,,,,,,,,,,,,1.0,,,"Armand : Pourquoi « de grands sarcophages »,<alors> ?"
120,323,Alchimie,A2,Manon G ,1,1,,1.0,,,,,,,,,,,1.0,,,,,,,,,,Manon G : C’est des grands<cercueils>…
121,326,Alchimie,A2,Loïs ,1,1,,1.0,,,,,,,,,,,1.0,,,,,,,,,,Loïs : C’est pour<décrire>…
122,329,Alchimie,A2,Manon G ,1,1,,1.0,,,,,,,,,,,1.0,,,,,,,,,,Manon G : C’est juste une<description>…
123,332,Alchimie,A2,Loïs ,1,1,,,,,,,1.0,,,,,,,,,,,,1.0,,,,"Loïs : OK. Attendez, il faut… alors, qu’est-ce qu’il y a<d’autre> ?"
124,335,Alchimie,A2,Manon G ,1,1,,1.0,,,,,,,,,,,,,,,,,,1.0,,,"Manon G : Est-ce que « vie », au quatrième vers, vous le mettriez dans le champ lexical de la<mort> ?"
125,338,Alchimie,A2,Loïs ,1,1,,1.0,,,,,,,,,,,1.0,,,,,,,,,,"Loïs :<Non>. Par contre, on pourrait faire… je pense qu’il y a le champ lexical, aussi, des dieux, parce que tu as « célestes », et « Hermès », et Hermès, c’est le messager des dieux"
126,338,Alchimie,A2,Loïs ,1,1,,1.0,,,,,,,,,,,,,,,,,1.0,,,,"Loïs : Non . Par contre, on pourrait faire… je pense qu’il y a le champ lexical, aussi, des dieux, parce que tu as « célestes », et « Hermès », et Hermès, c’est le messager des<dieux>."
127,342,Alchimie,A2,Armand ,1,1,,1.0,,,,,,,,,,,1.0,,,,,,,,,,"A: Midas aussi, parce que c’est la mythologie… dans la mythologie<grecque>…"
128,344,Alchimie,A2,Lucie ,1,1,,,,,,,1.0,,,,,,,,,,,,,1.0,,,Lucie : Donc il faut<mettre>…
129,346,Alchimie,A2,Armand ,1,1,,1.0,,,,,,,,,,,1.0,,,,,,,,,,Armand : « <Célestes> »…
130,349,Alchimie,A2,Loïs ,1,1,,,,,,,1.0,,,,,,1.0,,,,,,,,,,Loïs : Donc le champ lexical de<la>…
131,352,Alchimie,A2,Manon G ,1,1,,1.0,,,,,,,,,,,1.0,,,,,,,,,,"Manon G : De la mythologie,<oui>…"
132,354,Alchimie,A2,Armand ,1,1,,1.0,,,,,,,,,,,1.0,,,,,,,,,,"Armand : « Paradis », c’est aussi la mythologie,<non>… ?"
133,357,Alchimie,A2,Loïs ,1,1,,1.0,,,,,,,,,,1.0,,,,,,,,1.0,,,Loïs : Oui. Je sais<pas>…
134,361,Alchimie,A2,Armand ,1,1,,1.0,,,,,1.0,,,,,,1.0,,,,,,,,,,"Armand : « Paradis » et « enfer », tu peux les rentrer<dedans>…"
135,366,Alchimie,A2,Armand ,1,1,,,,,,,1.0,,,,,,,,,,,,,1.0,,,Armand : Tu as dit quoi ? Champ lexical<de>…
136,368,Alchimie,A2,Loïs ,1,1,,1.0,,,,,,,,,,,1.0,,,,,,,,,,"Loïs : De la mythologie. « Hermès », « célestes », « vie » et « mort »… non, « paradis » et « enfer », pardon… Si, oui, parce que « paradis », c’est… « paradis », c’est un peu comme l’Olympe des dieux et l’enfer, c’est là où il y a<Hadès>…"
137,370,Alchimie,A2,Armand ,1,1,,,,,,,,1.0,,,,,,,,,,,,,,,Armand : Je vois que tu t’y<connais>…
138,372,Alchimie,A2,Loïs ,1,1,,,,,,,,1.0,,,,,1.0,,,,,,,,,,"Loïs : Oui. Non, vraiment, j’avais un livre sur ça quand j’étais petit, je me<rappelle>…"
139,374,Alchimie,A2,Manon G ,1,1,,1.0,,,,,,,,,,,1.0,,,,,,,,,,Manon G : C’est la<mythologie>…
140,376,Alchimie,A2,Loïs ,1,1,,1.0,,,,,,,,,,,1.0,,,,,,,,,,"Loïs : Oui, genre « <célestes> »…"
141,378,Alchimie,A2,Manon G ,1,1,,,,,1.0,,,,,,,,,,,,,,,1.0,,,Manon G : C’est<où> ?
142,381,Alchimie,A2,Lucie ,1,1,,,,,,,1.0,,,,,,,,,,,,,1.0,,,Lucie : Tu as mis<quoi> ?
143,384,Alchimie,A2,Armand ,1,1,,1.0,,,,,,,,,,,1.0,,,,,,,,,,"Armand : Il y a « <suaire> »… « Suaire », ça veut dire quoi ? Je me demandais… « suaire des nuages"
144,384,Alchimie,A2,Armand ,1,1,,,,,,1.0,,,,,,,,,,,,,,1.0,,,"Armand : Il y a «  suaire  »… « Suaire », ça veut dire quoi ? Je me demandais… « suaire des<nuages> »…"
145,389,Alchimie,A2,Loïs ,1,1,,1.0,,,,,1.0,,,,,,,,,,,,,1.0,,,"Loïs : « Dans le suaire des nuages »… je sais pas, on a une tablette, on va<chercher>…"
146,392,Alchimie,A2,Armand ,1,1,,1.0,,,,,,,,,,,1.0,,,,,,,1.0,,,"Armand : C’est peut-être un oxymore, du coup… enfin, une<antithèse>…"
147,396,Alchimie,A2,Loïs ,1,1,,1.0,,,,,,,,,,,1.0,,,,,,,,,,Loïs : « Dans le suaire des nuages »…<possible>.
148,398,Alchimie,A2,Armand ,1,1,,1.0,,,,,,,,,,,,,,,,,,1.0,,,Armand : Ça dépend ce que ça veut dire « <suaire> »…
149,400,Alchimie,A2,Loïs ,1,1,,1.0,,,,,,,,,,,,,,,,,,1.0,,,"Loïs : C’est quoi, ça ?<OK>."
150,402,Alchimie,A2,Lucie ,1,1,,1.0,,,,,,,,,,,,,,,,,1.0,,,,"Lucie : Ah, et le poème, c’est un<sonnet>."
151,405,Alchimie,A2,Loïs ,1,1,,1.0,,,,,,,,,,,,,,,,,,1.0,,,Loïs :<Pourquoi> ?
152,408,Alchimie,A2,Lucie ,1,1,,,,,,1.0,,,,,,,1.0,,,,,,,,,,Lucie : Parce que la prof l’a<dit>.
153,411,Alchimie,A2,Loïs ,1,1,,1.0,,,,,,,,,,,1.0,,,,,,,,,,"Loïs : Ah oui, ça fait, quatre, quatre, trois,<trois>…"
154,413,Alchimie,A2,Armand ,1,1,,1.0,,,,,,,,,,,,,1.0,,,,,,,,"Armand : Oui, c’est un<sonnet>."
155,417,Alchimie,A2,Loïs ,1,1,,,,,,1.0,,,,,,,1.0,,,,,,,,,,"Loïs : Suaire, c’est un<linceul>."
156,419,Alchimie,A2,Armand ,1,1,,,,,,1.0,,,,,,,,,,,,,,1.0,,,"Armand : Ça veut dire quoi, un<linceul> ?"
157,421,Alchimie,A2,Loïs ,1,1,,,,,,1.0,,,,,,,1.0,,,,,,,,,,"Loïs : Un linceul, c’est le drap dans lequel tu mets les<morts>."
158,424,Alchimie,A2,Lucie ,1,1,,1.0,,,,,,,,,,,,,,1.0,,,1.0,,,,Lucie : Tous les verbes sont au<présent>.
159,427,Alchimie,A2,Loïs ,1,1,,,,,,1.0,,,,,,,,,,1.0,,,,,,,"Loïs : « Suaire : morceau de tissu dans lequel on met un mort après son trépas et avec lequel il est<enterré>... » Donc en gros, les nuages sont associés au monde des morts, genre"
160,427,Alchimie,A2,Loïs ,1,1,1.0,,,,,,,,,,,,1.0,,,,,,,,,,"Loïs : « Suaire : morceau de tissu dans lequel on met un mort après son trépas et avec lequel il est enterré ... » Donc en gros, les nuages sont associés au monde des morts,<genre>. Du coup, c’est une antithèse aussi, non"
161,433,Alchimie,A2,Armand ,1,1,,1.0,,,,,,,,,,,,,,,,,,1.0,,,"Armand : Oui… non, je sais<pas>."
162,436,Alchimie,A2,Loïs ,1,1,,1.0,,,,,,,,,,,,1.0,,,,,,,,,"Loïs : Ah non, mais attends, c’est « dans le suaire des nuages ». C’est pas, en vrai, une<métaphore> ?"
163,438,Alchimie,A2,Armand ,1,1,,1.0,,,,,,,,,,,,,,,,,,1.0,,,Armand : Je sais<pas>.
164,441,Alchimie,A2,Loïs ,1,1,,1.0,,,,,,,,,,,1.0,,,,,,,,,,"Loïs : Si, une métaphore, genre, on dit comme<si>…"
165,444,Alchimie,A2,Manon G ,1,1,,1.0,,,,,,,,,,,,,,1.0,,,,,,,Manon G : « Je<bâtis>... »
166,447,Alchimie,A2,Armand ,1,1,,1.0,,,,,,,,,,,1.0,,,,,,,,,,"Armand : Tu cherches quoi ? « Je bâtis », c’est du<présent>…"
167,450,Alchimie,A2,Manon G ,1,1,,1.0,,,,,,,,,,1.0,,,,,,,,,,,Manon G :<Oui>.
168,453,Alchimie,A2,Armand ,1,1,,1.0,,,,,,,,,,,1.0,,,,,,,,,,"Armand : Là, il y a que du présent dans le<texte>…"
169,455,Alchimie,A2,Manon G ,1,1,,1.0,,,,,,,,,,,,1.0,,,,,,,,,"Manon G : Non. « Intimidas », c’est pas du<présent>…"
170,458,Alchimie,A2,Armand ,1,1,,1.0,,,,,,,,,,1.0,,,,,,,,,,,"Armand : Ah oui, c’est<du>… Je vais me taire, sinon, à l’enregistrement, ils vont se moquer de moi… vous moquez pas"
171,458,Alchimie,A2,Armand ,1,1,,,,,,,,1.0,,,,,,,,,,,,,,,"Armand : Ah oui, c’est du … Je vais me taire, sinon, à l’enregistrement, ils vont se moquer de moi… vous moquez<pas>…"
172,462,Alchimie,A2,Loïs ,1,1,,1.0,,,,,,,,,,,1.0,,,,,,,,,,"Loïs : En gros, je pense que c’est une métaphore « dans le suaire des nuages », parce qu’il compare les nuages à un linceul dans lequel on met les<morts>."
173,465,Alchimie,A2,Armand ,1,1,,1.0,,,,,,,,,,,1.0,,,,,,,,,,"Armand : Mais oui, donc ça fait un rapport avec le paradis… « nuages », « <paradis> »… Attends, je vais voir, si vous voulez"
174,465,Alchimie,A2,Armand ,1,1,,,,,,,1.0,,,,,,,,,1.0,,,,,,,"Armand : Mais oui, donc ça fait un rapport avec le paradis… « nuages », «  paradis  »… Attends, je vais voir, si vous<voulez>…"
175,470,Alchimie,A2,Loïs ,1,1,,,,,,,1.0,,,,,,,,,,,,,1.0,,,Loïs : Tu vas voir<quoi> ?
176,473,Alchimie,A2,Manon G ,1,1,,1.0,,,,,,,,,,,1.0,,,,,,,,,,Manon G : Sur le truc des<conjugaisons>…
177,475,Alchimie,A2,Loïs ,1,1,,1.0,,,,,,,,,,,,,,,,,,1.0,,,Loïs :<Quoi> ?
178,478,Alchimie,A2,Manon G ,1,1,,1.0,,,,,,,,,,,1.0,,,,,,,,,,Manon G : « <Intimidas> ».
179,481,Alchimie,A2,Loïs ,1,1,,,,,,,1.0,,,,,,,,1.0,,,,,,,,"Loïs : Moi, je pense qu’il y a une métaphore… Mets « métaphore » au cas où. « Dans le suaire des nuages », parce qu’il compare les nuages à un linceul dans lequel on met les<morts>. Il cherche quoi, là, Armand"
180,481,Alchimie,A2,Loïs ,1,1,,,,,,,1.0,,,,,,,,,,,,,,,,"Loïs : Moi, je pense qu’il y a une métaphore… Mets « métaphore » au cas où. « Dans le suaire des nuages », parce qu’il compare les nuages à un linceul dans lequel on met les morts . Il cherche quoi, là,<Armand> ?"
181,485,Alchimie,A2,Manon G ,1,1,,,,,,,1.0,,,,,,1.0,,,,,,,,,,Manon G : « Intimidas ». Mais je suis en train de le<chercher>…
182,488,Alchimie,A2,Loïs ,1,1,,1.0,,,,,,,,,,,,,,,,,,1.0,,,"Loïs : Mais déjà, c’est<où> ?"
183,491,Alchimie,A2,Manon G ,1,1,,1.0,,,,,,,,,,,1.0,,,,,,,,,,Manon G : C’est du passé<simple>.
184,494,Alchimie,A2,Loïs ,1,1,,1.0,,,,,,,,,,1.0,,,,,,,,,,,"Loïs : Mais oui, c’est ça. C’est du<passé>."
185,497,Alchimie,A2,Manon G ,1,1,,1.0,,,,,,,,,,1.0,,,,,,,,,,,"Manon G : Armand, c’est du passé<simple>…"
186,500,Alchimie,A2,Loïs ,1,1,,,,,,,,,1.0,,,,,,,,,,1.0,,,,"Loïs : Aussi, je pense qu’il faut comprendre le sens du texte pour pouvoir faire les mouvements… les quatre mouvements… pourquoi les quatre ? Je sais pas. Pour faire les<mouvements>…"
187,503,Alchimie,A2,Armand ,1,1,,1.0,,,,,,,,,,,,,,1.0,,,,,,,"Armand : Déjà, il y a du présent<et>…"
188,506,Alchimie,A2,Loïs ,1,1,,,,,,,,1.0,,,,,,,,1.0,,,,,,,"Loïs : Vous mettez tous de la couleur, je suis le seul au crayon à<papier>…"
189,508,Alchimie,A2,Armand ,1,1,,,,,,,1.0,,,,,,,,,,,,,1.0,,,"Armand : Tu fais<quoi> ? « Bâtis », c’est du présent. « Je bâtis, tu bâtis la maison"
190,508,Alchimie,A2,Armand ,1,1,,1.0,,,,,,,,,,,1.0,,,,,,,,,,"Armand : Tu fais quoi  ? « Bâtis », c’est du présent. « Je bâtis, tu bâtis la<maison>... »"
191,513,Alchimie,A2,Manon G ,1,1,,1.0,,,,,,,,,,,1.0,,,,,,,,,,"Manon G : « Nous bâtissons, vous<bâtissez>... »"
192,516,Alchimie,A2,Loïs ,1,1,,1.0,,,,,,,,,,,1.0,,,,,,,1.0,,,"Loïs : Oui. Vous pensez qu’on peut mettre que c’est un discours ancré, vu qu’il y a « je », « tu », « me », « <toi> »…"
193,520,Alchimie,A2,Armand ,1,1,,1.0,,,,,,,,,,,,1.0,,,,,,,,,"Armand : « Tu », du coup, c’est pas<ancré>…"
194,523,Alchimie,A2,Manon G ,1,1,,1.0,,,,,,,,,,1.0,,,,,,,,,,,Manon G : Ben<non>.
195,526,Alchimie,A2,Loïs ,1,1,,1.0,,,,,,,,,,,,1.0,,,,,,,,,"Loïs : Si, « <tu> »…"
196,529,Alchimie,A2,Armand ,1,1,,1.0,,,,,,,,,,,,1.0,,,,,,,,,Armand :<Non>.
197,532,Alchimie,A2,Loïs ,1,1,,1.0,,,,,,,,,,,,1.0,,,,,,,,,"Loïs : Si : « Tu me... », c’est du discours<ancré>..."
198,534,Alchimie,A2,Lucie ,1,1,,1.0,,,,,,,,,,1.0,,,,,,,,,,,Lucie : Il a<raison>.
199,536,Alchimie,A2,Armand ,1,1,,,,,,1.0,,,,,,,,,,,,,,1.0,,,"Armand : Oui, mais est-ce qu’on peut le dire dans un poème ? C’est pas sûr, c’est pas un<texte>."
200,538,Alchimie,A2,Lucie ,1,1,,,,,,1.0,,,,,,1.0,,,,,,,,1.0,,,"Lucie : Non, c’est pas<sûr>."
201,540,Alchimie,A2,Armand ,1,1,,,,,,1.0,,,,,,,,,,,,,,1.0,,,Armand : On peut dire que le poème est<ancré> ?
202,542,Alchimie,A2,Lucie ,1,1,,,,,,1.0,,,,,,,1.0,,,,,,,,,,Lucie : C’est un<énoncé>.
203,544,Alchimie,A2,Loïs ,1,1,,1.0,,,,,,,,,,,1.0,,,,,,,,,,Loïs : Il y a quand même une présence de l’émetteur et du récepteur… du<récepteur> ?
204,546,Alchimie,A2,Manon G ,1,1,,1.0,,,,,,,,,,,1.0,,,,,,,,,,"Manon G : Oui, parce qu’il dit « <tu> »."
205,549,Alchimie,A2,Loïs ,1,1,,,,,,1.0,,,,,,,,,,,,,,1.0,,,Loïs : Vous êtes sûrs ? Je vais<demander>.
206,552,Alchimie,A2,Armand ,1,1,,,,,,,1.0,,,,,,,,,1.0,,,,,,,Armand : J’ai envie de le couper en plusieurs petits… parce que s’il faut tout<envoyer>…
207,555,Alchimie,A2,Lucie ,1,1,,,,,,,1.0,,,,,,1.0,,,,,,,,,,Lucie : Tu<enverras>…
208,558,Alchimie,A2,Loïs ,1,1,,,,,,,1.0,,,,,,,1.0,,,,,,,,,"Loïs : Mais si, il y a une tablette… avec<Apple>… Madame, j’ai une question… Est-ce que, même si c’est un poème, on peut dire que l’énoncé, il est ancré, parce qu’il y a la présence de l’émetteur et du récepteur"
209,558,Alchimie,A2,Loïs ,1,1,,,,,,1.0,,,,,,,,,,,,,,1.0,,,"Loïs : Mais si, il y a une tablette… avec Apple … Madame, j’ai une question… Est-ce que, même si c’est un poème, on peut dire que l’énoncé, il est ancré, parce qu’il y a la présence de l’émetteur et du<récepteur> ?"
210,563,Alchimie,A2,Loïs ,1,1,,1.0,,,,,,,,,,,,,,,1.0,,,,,,"Loïs : Oui, il dit : « Tu<me>... »"
211,566,Alchimie,A2,Loïs ,1,1,,1.0,,,,,,,,,,,1.0,,,,,,,,,,"Loïs : Emetteur… et même, je pense, il y a des… c’est des déictiques ? Oui, c’est ça, déictiques… Même, il y a des modélisateurs… et même, les temps verbaux au présent de l’indicatif pour<l’énonciation>…"
212,569,Alchimie,A2,Armand ,1,1,,,,,,,1.0,,,,,,1.0,,,,,,,,,,"Armand : On l’a mis,<ça> ? Du coup, ça veut bien dire"
213,569,Alchimie,A2,Armand ,1,1,,1.0,,,,,,,,,,,1.0,,,,,,,,,,"Armand : On l’a mis, ça  ? Du coup, ça veut bien<dire>…"
214,574,Alchimie,A2,Loïs ,1,1,,1.0,,,,,,,,,,,1.0,,,,,,,,,,"Loïs : Que le discours est ancré, c’est<ça>."
215,577,Alchimie,A2,Manon G ,1,1,,1.0,,,,,,,,,,,1.0,,,,,,,,,,"Manon G : Donc en énoncé ancré, il y<a>…"
216,579,Alchimie,A2,Loïs ,1,1,,1.0,,,,,,,,,,,1.0,,,,,,,,,,"Loïs : « Je », pour l’émetteur… « <me> »…"
217,581,Alchimie,A2,Armand ,1,1,,1.0,,,,,,,,,,,,,,,,,,1.0,,,"Armand : Il y a « tu », du<coup> ?"
218,584,Alchimie,A2,Loïs ,1,1,,1.0,,,,,,,,,,,1.0,,,,,,,,,,"Loïs : Ça, c’est pour le récepteur. Il y a « <t>’ »."
219,592,Alchimie,A2,Armand ,1,1,,,,,,,1.0,,,,,,1.0,,,,,,,,,,Armand : On va pas tous les<mettre>…
220,595,Alchimie,A2,Loïs ,1,1,,1.0,,,,,,,,,,,1.0,,,,,,,,,,"Loïs : Il y a « toi »,<aussi>…"
221,598,Alchimie,A2,Armand ,1,1,,1.0,,,,,,,,,,,1.0,,,,,,,,,,"Armand : Donc récepteur, il y a « tu », il y a « <toi> »…"
222,601,Alchimie,A2,Lucie ,1,1,,1.0,,,,,,,,,,,1.0,,,,,,,,,,Lucie : Il y a « <t>’ »…
223,605,Alchimie,A2,Loïs ,1,1,,1.0,,,,,,,,,,,,,,,1.0,,,,,,"Loïs : Déjà, on peut mettre, dans les temps, il y a le présent de<l’indicatif>…"
224,607,Alchimie,A2,Manon G ,1,1,,,,,,,1.0,,,,,,1.0,,,,,,,,,,Manon G : Je l’ai<mis>.
225,610,Alchimie,A2,Loïs ,1,1,,,,,,1.0,,,,,,,,,,1.0,,,,,,,"Loïs : Et dans les modélisateurs, souvent, c’est des adjectifs qui sont pas subjectifs, mais qui sont… je sais plus, j’ai perdu le mot… si, ils sont subjectifs à<l’auteur>… par exemple, on peut mettre : « Le plus triste des alchimistes », ou"
226,610,Alchimie,A2,Loïs ,1,1,,1.0,,,,,,,,,,,,,,,,,,,,,"Loïs : Et dans les modélisateurs, souvent, c’est des adjectifs qui sont pas subjectifs, mais qui sont… je sais plus, j’ai perdu le mot… si, ils sont subjectifs à l’auteur … par exemple, on peut mettre : « Le plus triste des alchimistes »,<ou>…"
227,613,Alchimie,A2,Lucie ,1,1,,1.0,,,,,,,,,,,,,,,,,,1.0,,,Lucie : Comment<ça> ?
228,615,Alchimie,A2,Armand ,1,1,,1.0,,,,,,,,,,,1.0,,,,,,,,,,"Armand : « Grands », tu vois, c’est<subjectif>."
229,617,Alchimie,A2,Loïs ,1,1,,,,,,1.0,,,,,,,1.0,,,,,,,,,,"Loïs : Les modélisateurs, c’est des adjectifs qui sont subjectifs à l’auteur… c’est l’auteur qui donne un peu son avis,<genre>."
230,620,Alchimie,A2,Armand ,1,1,,1.0,,,,,,,,,,,,1.0,,,,,,,,,"Armand : Mais « grand », ça rentre pas<dedans>…"
231,623,Alchimie,A2,Manon G ,1,1,,1.0,,,,,,,,,,1.0,,,,,,,,,,,Manon G : Tu peux pas le<mettre>.
232,625,Alchimie,A2,Loïs ,1,1,,1.0,,,,,,,,,,,1.0,,,,,,,,,,Loïs : « <Triste> »…
233,627,Alchimie,A2,Armand ,1,1,,1.0,,,,,,,,,,,,1.0,,,,,,,,,Armand : Même<pas>.
234,630,Alchimie,A2,Loïs ,1,1,,1.0,,,,,,,,,,,,,,,,,,1.0,,,Loïs :<Pourquoi> ?
235,633,Alchimie,A2,Manon G ,1,1,1.0,,,,,,,,,,,,1.0,,,,,,,,,,Manon G : Parce qu’il dit pas ce qu’il<ressent>.
236,635,Alchimie,A2,Loïs ,1,1,1.0,,,,,,,,,,,,,1.0,,,,,,,,,"Loïs : Mais est-ce qu’on est sûrs que l’alchimiste est triste ? Non, c’est l’avis de<l’auteur>."
237,637,Alchimie,A2,Lucie ,1,1,1.0,,,,,,,,,,,,1.0,,,,,,,,,,"Lucie : Oui, parce que l’histoire est triste, ça parle de<mort>…"
238,640,Alchimie,A2,Manon G ,1,1,1.0,,,,,,,,,,,1.0,,,,,,,,,,,Manon G : C’est<vrai>.
239,643,Alchimie,A2,Loïs ,1,1,,1.0,,,,,,,,,,,1.0,,,,,,,,,,"Loïs : Moi, je dis, il y a un<modélisateur>."
240,646,Alchimie,A2,Armand ,1,1,,,,,,,1.0,,,,,,,,,,,,1.0,,,,"Armand : Déjà, il faut essayer de trouver les mouvements… c’est un peu le<but>…"
241,649,Alchimie,A2,Lucie ,1,1,,,,,,,1.0,,,,,,1.0,,,,,,,,,,"Lucie : Parce que là, on a fait<l’étude>…"
242,652,Alchimie,A2,Loïs ,1,1,1.0,,,,,,,,,,,,,,,,,,1.0,,,,"Loïs : Alors, attendez… déjà, dans le premier quatrain, il oppose deux trucs. Il dit qu’il y en a un qui « éclaire avec son ardeur », et qu’il y en a un qui « met en deuil, Nature »… et qui dit « <sépulture> »…"
243,654,Alchimie,A2,Lucie ,1,1,1.0,,,,,,,,,,,,,1.0,,,,,,,,,"Lucie : Non, il y en a un qui meurt parce que, du coup, il y a une sépulture, et il y en a un qui va vivre dans la<lumière>…"
244,657,Alchimie,A2,Loïs ,1,1,1.0,,,,,,,,,,,,1.0,,,,,,,,,,"Loïs : Ça oppose deux trucs, ça oppose la mort et la vie. Il y en a un qui « éclaire avec son ardeur », la vie, et l’autre « met son<deuil> »…"
245,660,Alchimie,A2,Manon G ,1,1,1.0,,,,,,,,,,,,,,1.0,,,,,,,,Manon G : Donc il y a l’opposition de la vie et de la<mort>.
246,663,Alchimie,A2,Armand ,1,1,,,,,,,1.0,,,,,,,1.0,,,,,,,,,"Armand : Mais du coup, c’est pas les<mouvements>…"
247,666,Alchimie,A2,Loïs ,1,1,1.0,,,,,,,,,,,,,1.0,,,,,,,,,"Loïs : Si, opposition de la vie et de la<mort>…"
248,669,Alchimie,A2,Armand ,1,1,,,,,,,1.0,,,,,,1.0,,,,,,,,,,Armand : Et le<deuxième>…
249,672,Alchimie,A2,Loïs ,1,1,,1.0,,,,,,,,,,,1.0,,,,,,,,,,"Loïs : Peut-être que c’est un autre mouvement… Pour moi, le deuxième quatrain et le tercet, ils vont ensemble parce que ça se<suit>…"
250,674,Alchimie,A2,Armand ,1,1,,1.0,,,,,,,,,,,,,,,,,,1.0,,,Armand : De<quoi> ?
251,676,Alchimie,A2,Lucie ,1,1,,1.0,,,,,,,,,,,1.0,,,,,,,,,,Lucie :<Le deuxième quatrain.>
252,678,Alchimie,A2,Manon G ,1,1,,1.0,,,,,,,,,,,1.0,,,,,,,,,,
253,679,Alchimie,A2,Armand ,1,1,,1.0,,,,,,,,,,,,,,,,,,1.0,,,
254,680,Alchimie,A2,Loïs ,1,1,,1.0,,,,,,,,,,,,1.0,,,,,,,,,
255,681,Alchimie,A2,Armand ,1,1,1.0,,,,,,,,,,,,1.0,,,,,,,,,,"Armand : Oui, pardon. Regarde, celui-ci aussi, ça parle que de la mort. Et « célestes<rivages> »…"
256,683,Alchimie,A2,Loïs ,1,1,,1.0,,,,,,,,,,,1.0,,,,,,,1.0,,,"Loïs : Alors, soit il y en a trois, soit il y en a deux… les trois derniers vont peut-être ensemble… je sais<pas>…"
257,687,Alchimie,A2,Armand ,1,1,1.0,,,,,,,,,,,,1.0,,,,,,,,,,"Armand : Regarde, « cadavre », ça revient sur la<mort>…"
258,690,Alchimie,A2,Loïs ,1,1,,1.0,,,,,,,,,,,,1.0,,,,,,,,,Loïs : Mais tu peux pas faire un mouvement avec deux trucs qui sont pas<accolés>…
259,692,Alchimie,A2,Armand ,1,1,,,,,,1.0,,,,,,,,1.0,,,,,,,,,"Armand : Oui, mais c’est pas pareil, c’est un<poème>."
260,694,Alchimie,A2,Manon G ,1,1,,,,,,1.0,,,,,,,,1.0,,,,,,,,,"Manon G : Mais si, parce que les mouvements suivent,<normalement>…"
261,697,Alchimie,A2,Lucie ,1,1,,,,,,1.0,,,,,,,1.0,,,,,,,,,,"Lucie : Il y a une suite logique, dans un<mouvement>…"
262,700,Alchimie,A2,Loïs ,1,1,,,,,,1.0,,,,,,,1.0,,,,,,,,,,Loïs : Une suite<chronologique>…
263,703,Alchimie,A2,Armand ,1,1,,,,,,1.0,,,,,,,,,1.0,,,,,,,,Armand : Pas<forcément>.
264,706,Alchimie,A2,Manon G ,1,1,,,,,,1.0,,,,,,,1.0,,,,,,,,,,"Manon G : Un certain mouvement, un autre, et après, tu reviens sur le<premier>…"
265,708,Alchimie,A2,Armand ,1,1,,1.0,,,,,,,,,,,,,,,,,,1.0,,,"Armand : Est-ce que c’est possible que, pour un mouvement, on peut avoir ce premier quatrain avec ce<tercet> ?"
266,712,Alchimie,A2,Loïs ,1,1,,1.0,,,,,,,,,,,,,,,1.0,,,,,,"Loïs : Oui, ça, on l’a déjà<mis>."
267,716,Alchimie,A2,Armand ,1,1,,,,,,,1.0,,,,,,,,,,1.0,,,,,,"Armand : C’est ça, le cours sur le<sonnet> ?"
268,719,Alchimie,A2,Manon G ,1,1,,,,,,,1.0,,,,,,,,,1.0,,,,,,,Manon G : On arrive aux trente<minutes>.
269,721,Alchimie,A2,Loïs ,1,1,,,,,,,1.0,,,,,,1.0,,,,,,,,,,"Loïs : Il faut commencer à écrire,<genre>."
270,724,Alchimie,A2,Manon G ,1,1,1.0,,,,,,,,,,,,,,,,,,1.0,,,,"Manon G : Dans le premier tercet, il y a un peu une déclaration d’amour parce qu’il dit : « Par toi, je change l’or en fer et le paradis en enfer »… c’est pas une déclaration d’amour,<mais>…"
271,726,Alchimie,A2,Armand ,1,1,1.0,,,,,,,,,,,1.0,,,,,,,,1.0,,,"Armand : Oui, mais pour<qui> ?"
272,730,Alchimie,A2,Manon G ,1,1,1.0,,,,,,,,,,,,1.0,,,,,,,,,,Manon G : On peut pas<savoir>...
273,733,Alchimie,A2,Armand ,1,1,1.0,,,,,,,,,,,,1.0,,,,,,,,,,Armand : On sait pas à qui il<parle>…
274,736,Alchimie,A2,Manon G ,1,1,,1.0,,,,,,,,,,,1.0,,,,,,,,,,"Manon G : Oui, mais au « tu », au « <toi> »…"
275,739,Alchimie,A2,Armand ,1,1,,,1.0,,,,,,,,,,1.0,,,,,,,,,,"Armand : En fait, peut-être que, depuis le début, il parle pas de la vie, mais de<l’amour>…"
276,742,Alchimie,A2,Loïs ,1,1,,,1.0,,,,,,,,,,1.0,,,,,,,,,,Loïs : Ou de la<mort>…
277,744,Alchimie,A2,Armand ,1,1,1.0,,,,,,,,,,,,1.0,,,,,,,,,,"Alchimie de la douleurArmand : Regarde : . La douleur, tu souffres quand tu<es>…"
278,747,Alchimie,A2,Manon G ,1,1,,,1.0,,,,,,,,,,1.0,,,,,,,,,,Manon G : Tu es blessé par<quelqu’un>…
279,749,Alchimie,A2,Armand ,1,1,,,1.0,,,,,,,,,,1.0,,,,,,,,,,"Armand : Voilà. Blessé dans ton cœur , quoi… oui, c’est<ça>."
280,751,Alchimie,A2,Loïs ,1,1,1.0,,,,,,,,,,,,1.0,,,,,,,,,,"Loïs : Pour moi, il parle de la<mort>…"
281,754,Alchimie,A2,Armand ,1,1,1.0,,,,,,,,,,,,,1.0,,,,,,,,,"Armand : Mais pas beaucoup. À part « cadavre cher », c’est tout… « <sarcophages> »…"
282,757,Alchimie,A2,Loïs ,1,1,,1.0,,,,,,,,,,,,,,,,,1.0,,,,"Loïs : Ah, mais ça, du coup… attends, il y a deux quatrains, et ça, c’est un sixain… les deux tercets, c’est un<sixain>."
283,759,Alchimie,A2,Armand ,1,1,,,,,,1.0,,,,,,,,,,,,,,1.0,,,Armand : Un<sixain> ?
284,762,Alchimie,A2,Loïs ,1,1,,,,,,1.0,,,,,,,1.0,,,,,,,,,,"Loïs : Oui, c’est marqué dans le<cours>."
285,765,Alchimie,A2,Armand ,1,1,,,,,,1.0,,,,,,,,,,,,,,1.0,,,Armand :<Pourquoi> ?
286,768,Alchimie,A2,Loïs ,1,1,,1.0,,,,,,,,,,,1.0,,,,,,,,,,"Loïs : Parce qu’ils sont reliés par la rime, tu vois, c’est pour ça, c’est pas suivi ou<quoi>…"
287,771,Alchimie,A2,Armand ,1,1,,1.0,,,,,,,,,,,,1.0,,,,,,,,,"Armand : Ils sont pas reliés, c’est « AAB », « <ABB> »…"
288,773,Alchimie,A2,Loïs ,1,1,,1.0,,,,,,,,,,,,1.0,,,,,,,,,"Loïs : Oui, mais justement, la rime de la fin du premier tercet va avec la rime du… bref, les rimes se suivent,<quoi>."
289,775,Alchimie,A2,Manon G ,1,1,1.0,,,,,,,,,,,,,1.0,,,,,,,,,"Manon G : Mais du coup, on peut pas dire que c’est une déclaration d’amour parce qu’il dit « changer le paradis en enfer »… changer l’enfer en<paradis>…"
290,777,Alchimie,A2,Loïs ,1,1,1.0,,,,,,,,,,,,1.0,,,,,,,,,,"Loïs : Regarde, il est souffrant : Alchimie de la douleur, ça va être le<titre>… là : « ABBA », « ABBA », ce qu’on a trouvé… « CCD », « EDD »… ce qu’on a trouvé"
291,777,Alchimie,A2,Loïs ,1,1,,1.0,,,,,,,,,,,1.0,,,,,,,,,,"Loïs : Regarde, il est souffrant : Alchimie de la douleur, ça va être le titre … là : « ABBA », « ABBA », ce qu’on a trouvé… « CCD », « EDD »… ce qu’on a<trouvé>…"
292,782,Alchimie,A2,Armand ,1,1,,1.0,,,,,,,,,,,1.0,,,,,,,,,,"Armand : Non, on aurait dû avoir « <CDC> »…"
293,785,Alchimie,A2,Loïs ,1,1,,1.0,,,,,,,,,,,,,1.0,,,,,,,,"Loïs : C’est pas grave, ça peut changer, mais dans l’idée, c’est<ça>…"
294,788,Alchimie,A2,Manon G ,1,1,,1.0,,,,,,,,,,,,,,,,,,1.0,,,"Manon G : Du coup, vous pensez que<c’est>…"
295,791,Alchimie,A2,Armand ,1,1,,1.0,,,,,,,,,,,,,,,1.0,,,,,,"Armand : Non, pas du tout. C’est vrai qu’il y en<a>…"
296,794,Alchimie,A2,Lucie ,1,1,,1.0,,,,,,,,,,,,,,,1.0,,,,,,"Lucie : Oui, c’est beaucoup de ponctuation<faible>…"
297,798,Alchimie,A2,Manon G ,1,1,,1.0,,,,,,,,,,,,,,,1.0,,,,,,"Manon G : Oui, mais à la<fin>…"
298,801,Alchimie,A2,Armand ,1,1,,1.0,,,,,,,,,,,,,,,1.0,,,,,,Armand : Des points<d’exclamation>…
299,804,Alchimie,A2,Manon G ,1,1,,1.0,,,,,,,,,,,1.0,,,,1.0,,,,,,"Manon G : Oui, mais quand on passe du premier quatrain jusqu’à la fin, c’est que des ponctuations<faibles>…"
300,807,Alchimie,A2,Lucie ,1,1,,1.0,,,,,,,,,,,1.0,,,,1.0,,,,,,Lucie : C’est juste dans le premier qu’il y a de la ponctuation<forte>…
301,814,Alchimie,A2,Manon G ,1,1,1.0,,,,,,,,,,,,,,,,1.0,,,1.0,,,
302,816,Alchimie,A2,Manon G ,1,1,1.0,,,,,,,,,,,,,,,,,,,1.0,,,"Manon G : Mais on sait pas à qui il parle, donc on sait pas à qui il peut<s’adresser>…"
303,820,Alchimie,A2,Loïs ,1,1,1.0,,,,,,,,,,,,,,,,1.0,,,1.0,,,Loïs : À la<Nature> ?
304,825,Alchimie,A2,Loïs ,1,1,,,,,1.0,,,,,,,,,,,,1.0,,,,,,Loïs : C’est le messager des<dieux>.
305,829,Alchimie,A2,Armand ,1,1,1.0,,,,,,,,,,,,,,,,1.0,,,,,,Armand : Donc il s’adresse aux<dieux>…
306,833,Alchimie,A2,Manon G ,1,1,1.0,,,,,,,,,,,,,,,,1.0,,,,,,"Manon G : Si, du coup, il écrit un poème pour une personne dont il était amoureux et qui l’a<déçu>…"
307,836,Alchimie,A2,Loïs ,1,1,1.0,,,,,,,,,,,,1.0,,,,1.0,,,,,,"Loïs : Ah, et Hermès l’aide à<écrire>…"
308,841,Alchimie,A2,Loïs ,1,1,,,1.0,,,,,,,,,,1.0,,,,1.0,,,,,,"Loïs : OK, j’ai une idée. Moi, je pense, il change son amour en douleur avec l’alchimie. C’est pour ça qu’il dit : « Je change l’or en fer ». Tu passes d’un truc qui est bien à un truc moins bien. « Et le paradis en enfer », tu passes du truc que tout le monde veut au truc que tu redoutes. Du coup, il change son amour en douleur, et il le met en mots grâce à<Hermès>."
309,843,Alchimie,A2,Armand ,1,1,1.0,,,,,,,,,,,,,1.0,,,,,,1.0,,,Armand : C’est pas sûr que c’est Hermès qui<l’aide>…
310,847,Alchimie,A2,Loïs ,1,1,,,1.0,,,,,,,,,,,1.0,,,,,,,,,"Loïs : Si, il<dit>…"
311,849,Alchimie,A2,Armand ,1,1,,,1.0,,,,,,,,,,,1.0,,,,,,,,,"Armand : Non, justement, dans ce poème-là, il demande de<l’aide>…"
312,851,Alchimie,A2,Manon G ,1,1,,,1.0,,,,,,,,,,,1.0,,,,,,,,,Manon G : Il l’aide à<écrire>.
313,853,Alchimie,A2,Loïs ,1,1,,,1.0,,,,,,,,,1.0,,,,,,,,,,,"Loïs : Oui, pour<écrire>."
314,855,Alchimie,A2,Armand ,1,1,,,1.0,,,,,,,,,,1.0,,,,,,,1.0,,,"Armand : Mais est-ce que ça, c’est la lettre qu’il va « envoyer » à Hermès, ou c’est Hermès qui l’a aidé à<l’écrire>."
315,857,Alchimie,A2,Loïs ,1,1,1.0,,,,,,,,,,,,1.0,,,,,,,,,,"Loïs : Et peut-être que même la fin : « Je découvre un cadavre cher »… peut-être que c’est son amour qui est mort, « Et sur les célestes rivages », donc vers les cieux, il bâtit de grands sarcophages pour ses<sentiments>."
316,859,Alchimie,A2,Manon G ,1,1,,,1.0,,,,,,,,,,1.0,,,,,,,,,,"Manon G : Et genre, il emmène tous ses sentiments dans un grand<cercueil>…"
317,860,Alchimie,A2,Loïs ,1,1,,,,1.0,,,,,,,,,1.0,,,,,,,,,,
318,864,Alchimie,A2,Loïs ,1,1,,,,,,,1.0,,,,,,,,,,1.0,,,,,,Loïs : Bien sûr que<oui> !
319,866,Alchimie,A2,Manon G ,1,1,,,,,,,,1.0,,,,,,,,,,,,,,,Manon G : On est trop<forts> !
320,868,Alchimie,A2,Armand ,1,1,,,,,,,1.0,,,,,,,,,,,,,,,,"Armand : Par contre, non, pas ça. Il faut pas se jeter des fleurs avant d’avoir<fini>."
321,870,Alchimie,A2,Loïs ,1,1,,,,,,,,,,1.0,,,,,,,,,,,,,Loïs : Il y a pas quelqu’un qui a une feuille à me<prêter> ?
322,873,Alchimie,A2,Armand ,1,1,,,,,,,,,,1.0,,,,,,,,,,,,,Armand : Tu as un cahier avec des carreaux et des<feuilles>…
323,875,Alchimie,A2,Lucie ,1,1,,,,,,,,,,1.0,,,,,,,,,,,,,"Lucie : Mais Loïs, il écrit jamais sur son<cahier>."
324,877,Alchimie,A2,Loïs ,1,1,,,,,,,,,,1.0,,,,,,,,,,,,,"Loïs : Si,<j’écris>…"
325,879,Alchimie,A2,Manon G ,1,1,,,,,,,,,,1.0,,,,,,,,,,,,,"Manon G : En fait, depuis qu’il a acheté ça, il fait qu’avec<ça>…"
326,881,Alchimie,A2,Loïs ,1,1,,,,,,,,,,1.0,,,,,,,,,,,,,"Loïs : Non, attendez… Au pire, vas-y, j’écris sur mon<cahier>."
327,883,Alchimie,A2,Armand ,1,1,,,,,,,1.0,,,,,,,,,,,,,,,,Armand : On n’a plus qu’une minute<trente>…
328,885,Alchimie,A2,Manon G ,1,1,,,,,,,1.0,,,,,,,,,,,,,1.0,,,"Manon G : Du coup, on met quoi pour les trois dernières<strophes> ?"
329,887,Alchimie,A2,Loïs ,1,1,,,,,,,1.0,,,,,,1.0,,,,,,,,,,"Alchimie de la douleurLoïs : Alors, moi, je pense, déjà, on marque le titre : . Donc premier<mouvement>"
330,889,Alchimie,A2,Manon G ,1,1,,,,,,,1.0,,,,,,,,,,,,,1.0,,,Manon G : Qu’est-ce que tu<mets> ?
331,892,Alchimie,A2,Loïs ,1,1,,,,,,,1.0,,,,,,1.0,,,,,,,,,,Loïs : Premier<mouvement>.
332,894,Alchimie,A2,Manon G ,1,1,,,,,,,1.0,,,,,,1.0,,,,,,,,,,"Manon G : Mais le premier mouvement,<c’est>…"
333,896,Alchimie,A2,Loïs ,1,1,,,,,,,1.0,,,,,,1.0,,,,,,,,,,Loïs : De la ligne un à<quatre>…
334,899,Alchimie,A2,Manon G ,1,1,1.0,,,,,,1.0,,,,,,1.0,,,,,,,,,,"Manon G : Oui, c’est l’opposition de la vie et de la mort, et il parle à la<Nature>."
335,903,Alchimie,A2,Loïs ,1,1,1.0,,,,,,,,,,,,1.0,,,,,,,1.0,,,"Loïs : Et si la vie et la mort, c’était pas l’opposition de l’amour et de la<douleur> ?"
336,907,Alchimie,A2,Armand ,1,1,1.0,,,,,,,,,,,1.0,,,,,,,,,,,Armand : C’est ce que je<disais>.
337,910,Alchimie,A2,Lucie ,1,1,1.0,,,,,,,,,,,1.0,,,,,,,,,,,"Lucie : Oui, c’est ce qu’on dit depuis tout à<l’heure>."
338,913,Alchimie,A2,Loïs ,1,1,,,,,,,1.0,,,,,,,,,,,,,1.0,,,"Loïs : OK, pardon, excusez-moi. Alors, premier mouvement, on marque<quoi> ?"
339,916,Alchimie,A2,Lucie ,1,1,1.0,,,,,,1.0,,,,,,1.0,,,,,,,,,,"Lucie : Opposition entre la vie et la mort, ce qui correspond à l’opposition entre l’amour et la<haine>."
340,920,Alchimie,A2,Loïs ,1,1,1.0,,,,,,,,,,,,,1.0,,,,,,,,,"Loïs : Pas la haine, la<douleur>."
341,923,Alchimie,A2,Lucie ,1,1,1.0,,,,,,,,,,,,,1.0,,,,,,,,,Lucie : Mais tu as toujours un peu de<haine>.
342,926,Alchimie,A2,Armand ,1,1,1.0,,,,,,,,,,,,,1.0,,,,,,,,,"Armand : Non. Mais là, il exprime pas sa<haine>."
343,929,Alchimie,A2,Loïs ,1,1,1.0,,,,,,,,,,,1.0,,,,,,,,,,,"Loïs : Oui, il exprime pas sa haine, il est pas dans la<haine>. Opposition"
344,929,Alchimie,A2,Loïs ,1,1,,,,,,,1.0,,,,,,,,1.0,,,,,,,,"Loïs : Oui, il exprime pas sa haine, il est pas dans la haine .<Opposition>…"
345,933,Alchimie,A2,Lucie ,1,1,,,,,,,1.0,,,,,,1.0,,,,,,,,,,Lucie : … de la vie et de la mort qui<fait>…
346,936,Alchimie,A2,Loïs ,1,1,,,,,,,1.0,,,,,,1.0,,,,,,,,,,"Loïs : … qui traduit… je pense, c’est<bien>."
347,939,Alchimie,A2,Armand ,1,1,,,,,,,1.0,,,,,,,,,,,,,1.0,,,"Armand : Du coup, on dit de la vie et de la<mort> ?"
348,942,Alchimie,A2,Loïs ,1,1,,,,,,,1.0,,,,,,,,1.0,,,,,,,,"Loïs :<Oui>. Qui traduit l’opposition de l’amour et de la douleur. Peut-être que notre titre de mouvement est grand, mais bon, c’est pas grave… Alors, donc là, déjà, on met quoi"
349,942,Alchimie,A2,Loïs ,1,1,,,,,,,1.0,,,,,,,,,,,,,1.0,,,"Loïs : Oui . Qui traduit l’opposition de l’amour et de la douleur. Peut-être que notre titre de mouvement est grand, mais bon, c’est pas grave… Alors, donc là, déjà, on met<quoi> ?"
350,945,Alchimie,A2,Armand ,1,1,,,,,,,1.0,,,,,,,,,,,,,1.0,,,Armand : Qui<traduit> ?
351,948,Alchimie,A2,Lucie ,1,1,,,,,,,1.0,,,,,,1.0,,,,,,,,,,Lucie : L’opposition entre l’amour et la<douleur>.
352,951,Alchimie,A2,Loïs ,1,1,,1.0,,,,,,,1.0,,,,,,,,,,1.0,,,,"Loïs : Attendez, il fallait pas mettre le premier mouvement, il fallait plutôt expliquer le texte, genre mettre qu’il y a des<octosyllabes>…"
353,953,Alchimie,A2,Manon G ,1,1,,,,,,,1.0,,,,,,,1.0,,,,,,,,,"Manon G : On l’a compris. Donc quand on va l’expliquer à l’oral, on l’aura<compris>…"
354,955,Alchimie,A2,Loïs ,1,1,,,,,,,1.0,,,,,1.0,,,,,,,,,,,"Loïs : Oui, au<pire>…"
355,958,Alchimie,A2,Armand ,1,1,,,,,,,1.0,,,,,,,,,1.0,,,,,,,Armand : De l’amour et de la<douleur>.
356,960,Alchimie,A2,Loïs ,1,1,,,,,,,1.0,,,,,,1.0,,,,,,,,,,"Loïs : Au pire, au début, on met… J’ai une idée : on met « octosyllabes » sur tout le<texte>…"
357,962,Alchimie,A2,Armand ,1,1,,,,,,,1.0,,,,,,,1.0,,,,,,,,,"Armand : Non, mais ça, il faut pas le mettre. Là, pour l’instant, on travaille les<mouvements>."
358,965,Alchimie,A2,Loïs ,1,1,,,,,,,1.0,,,,,,1.0,,,,,,,,,,"Loïs : Oui, au pire, on<verra>…"
359,968,Alchimie,A2,Armand ,1,1,,,,,,,1.0,,,,,,1.0,,,,,,,,,,"Armand : Là, on l’a un peu<fait>…"
360,971,Alchimie,A2,Loïs ,1,1,,,,,,,1.0,,,,,,1.0,,,,,,,,,,"Loïs : Oui, maintenant, on explique<juste>…"
361,974,Alchimie,A2,Armand ,1,1,,,,,,,1.0,,,,,,1.0,,,,,,,,,,"Armand : Là, on fait les<mouvements>."
362,977,Alchimie,A2,Loïs ,1,1,,,,,,,1.0,,,,,,1.0,,,,,,,,,,"Loïs : Ah, on marque chacun des<mouvements>…"
363,980,Alchimie,A2,Manon G ,1,1,,1.0,,,,,,,,,,,1.0,,,,,,,,,,Manon G : Il y a que deux<mouvements>…
364,982,Alchimie,A2,Armand ,1,1,,1.0,,,,,,,,,,1.0,,,,,,,,,,,Armand :<Oui>.
365,984,Alchimie,A2,Loïs ,1,1,,1.0,,,,,,,,,,,,1.0,,,,,,,,,Loïs :<Non>…
366,986,Alchimie,A2,Lucie ,1,1,,1.0,,,,,,,,,,,1.0,,,,,,,,,,"Lucie : Ça, c’est le premier<mouvement>…"
367,988,Alchimie,A2,Loïs ,1,1,1.0,,,,,,,,,,,,,1.0,,,,,,,,,"Loïs : Non, pour moi, il y a trois mouvements : un, les deux, là, ils sont ensemble, parce qu’il dit qu’il veut mettre ses sentiments en mots… les tropismes… Non, c’est pas les tropismes, mais c’est pas grave… Et le dernier, c’est qu’il dit que, vraiment, là, ces sentiments sont<morts>…"
368,991,Alchimie,A2,Manon G ,1,1,,1.0,,,,,,,,,,1.0,,,,,,,,,,,"Manon G : OK, donc il y a trois<mouvements>."
369,993,Alchimie,A2,Loïs ,1,1,,1.0,,,,,,,,,,1.0,,,,,,,,,,,"Loïs : Oui, trois<mouvements>."
370,995,Alchimie,A2,Manon G ,1,1,,,,,,,1.0,,1.0,,,,1.0,,,,,,,,,,"Manon G : Donc quand tu feras ton commentaire sur ça, tu mettras trois grandes<parties>…"
371,998,Alchimie,A2,Loïs ,1,1,,,,,,,1.0,,,,,1.0,,,,,,,,,,,Loïs : Oui. Tu<peux>…
372,1001,Alchimie,A2,Manon G ,1,1,,,,,,,1.0,,,,,1.0,,,,,,,,,,,Manon G :<Oui>…
373,1004,Alchimie,A2,Loïs ,1,1,,,,,,,,,1.0,,,,1.0,,,,,,,,,,Loïs : Si c’est lui qui tombe au<bac>…
374,1007,Alchimie,A2,Manon G ,1,1,,,,,,,,,1.0,,,,,1.0,,,,,,,,,Manon G : Il tombera<pas>…
375,1009,Alchimie,A2,Loïs ,1,1,,,,,,,,,1.0,,,,,,,,,,,1.0,,,Loïs : Je sais<pas>…
376,1012,Alchimie,A2,Manon G ,1,1,,,,,,,,,1.0,,,,1.0,,,,,,,,,,Manon G : C’est un texte qui peut tomber au bac<blanc>…
377,1015,Alchimie,A2,Loïs ,1,1,,,,,,,,,1.0,,,1.0,,,,,,,,,,,Loïs : Mais<oui>.
378,1018,Alchimie,A2,Lucie ,1,1,,,,,,,,,1.0,,,,1.0,,,,,,,,,,Lucie : Il fait partie des 24<textes>…
379,1021,Alchimie,A2,Loïs ,1,1,,,,,,,,,1.0,,,,,1.0,,,,,,,,,"Loïs : Non, il y en a plus que 14 ou 18… je sais<plus>."
380,1024,Alchimie,A2,Lucie ,1,1,1.0,,,,,,,,,,,,,,,,,,1.0,,,,"Lucie : Le deuxième mouvement, c’est la mise en mots de sa<douleur>…"
381,1028,Alchimie,A2,Armand ,1,1,,,,,,1.0,,,,,,,,,,,1.0,,,,,,Armand : Je l’ai lu quelque<part>…
382,1032,Alchimie,A2,Loïs ,1,1,,,,,,1.0,,,,,,,,,,,1.0,,,,,,Loïs :<Concetto>.
383,1036,Alchimie,A2,Manon G ,1,1,,,,,,,1.0,,,,,,,,,,,,,1.0,,,"Manon G : Loïs, je suis pas sûre, est-ce que, comme deuxième mouvement, si on met la mise en mots de sa<douleur>…"
384,1039,Alchimie,A2,Lucie ,1,1,,,,,,,1.0,,,,,,,,,,,,,1.0,,,Lucie : La mise en<quoi> ?
385,1044,Alchimie,A2,Armand ,1,1,,,,,,,,1.0,,,,,,,,,1.0,,,,,,"Armand : Nous, on a<trouvé>."
386,1047,Alchimie,A2,Loïs ,1,1,1.0,,,,,,,,,,,,,,,,1.0,,,,,,Loïs : C’est ses sentiments qui sont<morts>.
387,1051,Alchimie,A2,Armand ,1,1,,,,,,,,,,1.0,,,,,,,1.0,,,,,,Armand : Il travaille à la<morgue>…
388,1054,Alchimie,A2,Armand ,1,1,,,,,,,,,,1.0,,,,,,,1.0,,,,,,Armand : Il gagne des<sous>…
389,1056,Alchimie,A2,Loïs ,1,1,,,,,,,1.0,,,,,,,,,,,,1.0,,,,"Loïs : Troisième mouvement, on<dit>…"
390,1059,Alchimie,A2,Armand ,1,1,1.0,,,,,,,,,,,,1.0,,,,,,,,,,"Armand : Libération de l’esprit, en gros, c’est<ça>…"
391,1062,Alchimie,A2,Lucie ,1,1,1.0,,,,,,,,,,,,1.0,,,,,,,,,,"Lucie : L’enterrement de ses sentiments, et donc la libération de son<cœur>."
392,1065,Alchimie,A2,Armand ,1,1,1.0,,,,,,,,,,,,1.0,,,,,,,,,,"Armand : Voilà, il se libère, il met tout ça de<côté>."
393,1068,Alchimie,A2,Lucie ,1,1,,,,,,,1.0,,,,,,,,,,,,,1.0,,,Lucie : Donc on met quoi ? Enterrement de sa<douleur>…
394,1070,Alchimie,A2,Armand ,1,1,1.0,,,,,,,,,,,,1.0,,,,,,,,,,Armand : Il<l’enfouit>.
395,1073,Alchimie,A2,Loïs ,1,1,1.0,,,,,,,,,,,,1.0,,,,,,,,,,Loïs : Mort de ses sentiments ? Non. Enterrement de ses<sentiments>.
396,1075,Alchimie,A2,Lucie ,1,1,,,,,,,1.0,,,,,,1.0,,,,,,,,,,Lucie : Enterrement de ses sentiments parce qu’il les<enterre>.
397,1078,Alchimie,A2,Loïs ,1,1,,,,,,,1.0,,,,,,,,,,,,,1.0,,,"Loïs : Enterrement de ses sentiments… Et du coup, c’est moi qui devrai parler devant tout le<monde> ?"
398,1081,Alchimie,A2,Armand ,1,1,,,,,,,1.0,,,,,,1.0,,,,,,,,,,"Armand : Oui. Ça va, tu as<compris>…"
399,1084,Alchimie,A2,Loïs ,1,1,,,,,,,1.0,,,,,1.0,,,,,,,,,,,Loïs :<Oui>.
400,1087,Alchimie,A2,Manon G ,1,1,,,,,,,1.0,,,,,1.0,,,,,,,,,,,Manon G : Enterrement de ses<sentiments>…
401,1090,Alchimie,A2,Armand ,1,1,,,1.0,,,,,,,,,1.0,,,,,,,,,,,"Armand : Du coup, il se libère le<cœur>…"
402,1092,Alchimie,A2,Manon G ,1,1,,,,,,,1.0,,,,,1.0,,,,,,,,,,,Manon G : Libération de l’esprit et du<cœur>.
403,1096,Alchimie,A2,Manon G ,1,1,,,,,,,1.0,,,,,,,,,,,,,1.0,,,"Manon G : Madame, est-ce qu’on peut aider le<rapporteur> ?"
404,1099,Alchimie,A2,Loïs ,1,1,,,,,,,1.0,,,,,,,,,,,,1.0,1.0,,,"Loïs : Il faut faire l’axe de lecture, maintenant. C’est une grande question qui est<posée>… ?"
405,1103,Alchimie,A2,Manon G ,1,1,,,,,,,1.0,,,,,,1.0,,,,,,,,,,"Manon G : Oui. En quoi peut-on montrer… non, attendez, je réfléchis, après, je vous<dis>…"
406,1106,Alchimie,A2,Loïs ,1,1,,,,,,,1.0,,,,,,1.0,,,,,,,,,,Loïs : Il faut pas utiliser les « comment » et tout<ça>… ?
407,1108,Alchimie,A2,Manon G ,1,1,,,,,,,1.0,,,,,,,1.0,,,,,,,,,"Manon G : Non, en<quoi>…"
408,1111,Alchimie,A2,Armand ,1,1,,,,,,,1.0,,,,,,1.0,,,,,,,,,,Armand : Dans quelle<mesure>…
409,1114,Alchimie,A2,Loïs ,1,1,,,,,,,1.0,,,,,,1.0,,,,,,,,,,"Loïs : Il se libère de ses sentiments… En quoi l’auteur se libère de… voilà, là, il faut trouver le mot… grâce à la<poésie>…"
410,1117,Alchimie,A2,Lucie ,1,1,,,,,,,1.0,,,,,,1.0,,,,,,,,,,Lucie : Il se libère de ses sentiments dans la<poésie>.
411,1120,Alchimie,A2,Loïs ,1,1,,,,,,,1.0,,,,,,1.0,,,,,,,,,,Loïs : De sa<douleur>.
412,1123,Alchimie,A2,Armand ,1,1,,,,,,,1.0,,,,,,1.0,,,,,,,,,,Armand : De quelle<mesure>…
413,1126,Alchimie,A2,Loïs ,1,1,,,,,,,1.0,,,,,,,1.0,,,,,,,,,"Loïs : Dans quelle mesure… Non, dans quelle mesure, ça veut dire qu’il y a un côté, c’est oui, et il y a un côté, il y arrive<pas>…"
414,1128,Alchimie,A2,Armand ,1,1,1.0,,,,,,,,,,,,1.0,,,,,,,,,,"Armand : Il y a un côté où il y arrive pas, vu qu’il demande de l’aide à Hermès… Sans Hermès, il aurait jamais<réussi>."
415,1131,Alchimie,A2,Loïs ,1,1,,,,,,,1.0,,,,,,1.0,,,,,,,,,,"Loïs : Oui, mais moi, je pense que dans « dans quelle mesure », il y a un oui et il y a un non… Alors que le « en quoi », c’est plus une<discussion>…"
416,1135,Alchimie,A2,Loïs ,1,1,,,,,,,1.0,,,,,,1.0,,,,,,,1.0,,,"Loïs : En quoi l’auteur se libère, c’est<ça> ?"
417,1138,Alchimie,A2,Armand ,1,1,,,,,,,1.0,,,,,1.0,,,,,,,,,,,Armand :<Oui>.
418,1141,Alchimie,A2,Loïs ,1,1,,,,,,,1.0,,,,,,,,,,,,,1.0,,,Loïs : De sa douleur ou de ses sentiments… on met<quoi> ?
419,1144,Alchimie,A2,Manon G ,1,1,1.0,,,,,,1.0,,,,,,1.0,,,,,,,,,,"Manon G : De la douleur de ses sentiments… mais c’est vrai, parce que tu peux avoir des sentiments en étant heureux, mais là, il a des sentiments en étant<triste>…"
420,1148,Alchimie,A2,Armand ,1,1,,,,,,,1.0,,,,,,1.0,,,,,,,,,,"Armand : Ou juste de la douleur, comme ça, ça reprend le<titre>…"
421,1151,Alchimie,A2,Loïs ,1,1,,,,,,,1.0,,,,,1.0,,,,,,,,,,,"L: Oui, on met juste : de la douleur. Et après, on<écrit>…"
422,1154,Alchimie,A2,Armand ,1,1,,,,,,,1.0,,,,,,,,,,,,,1.0,,,"Armand : Elle va l’écrire au tableau… Madame, si on a fini, est-ce qu’on éteint<l’enregistrement> ?"
423,1157,Alchimie,A2,Loïs ,1,1,,,,,,,1.0,,1.0,,,,,,,,,,1.0,,,,"Loïs : Attends, on les a, les mouvements, le problème, c’est qu’il faut lier l’étude linéaire aux<mouvements>."
424,1159,Alchimie,A2,Armand ,1,1,,,,,,,1.0,,,,,,1.0,,,,,,,,,,"Armand : C’est pas compliqué, ce qu’on a trouvé là, ça va dans le premier<mouvement>."
425,1162,Alchimie,A2,Loïs ,1,1,,,,,,,1.0,,,,,,1.0,,,,,,,,,,"Loïs : Oui, mais il faut mettre les champs lexicaux et tout ça… le discours ancré qui s’adresse à Hermès et<tout>…"
426,1165,Alchimie,A2,Manon G ,1,1,,,,,,,1.0,,,,,,,,,,,,,1.0,,,"Manon G : Quand on a notre axe de lecture, on doit l’écrire au<tableau> ?"
427,1169,Alchimie,A2,Loïs ,1,1,,,,,,,1.0,,,,,,1.0,,,,,,,,,,Loïs : Se libère de sa douleur grâce à<l’écriture>…
428,1171,Alchimie,A2,Manon G ,1,1,,,,,,,1.0,,,,,,1.0,,,,,,,,,,"Manon G : En fait, normalement, on a juste à faire dans chaque partie… c’est pas compliqué, c’est<bon>…"
429,1173,Alchimie,A2,Loïs ,1,1,,,,,,,,1.0,,,,,,,,,,,,,,,Loïs : On a géré…<merci>.
430,1176,Alchimie,A2,Manon G ,1,1,,,,,,,,1.0,,,,,,,,,,,,,,,Manon G : Oh là<là>…
431,1178,Alchimie,A2,Loïs ,1,1,,,,,,,,1.0,,,,,,,,,,,,,,,"Loïs : Arrête de critiquer, tu ferais les mêmes<fautes>… Non, Manon, tu t’arrêtes là"
432,1178,Alchimie,A2,Loïs ,1,1,,,,,,,1.0,,,,,,,1.0,,,,,,,,,"Loïs : Arrête de critiquer, tu ferais les mêmes fautes … Non, Manon, tu t’arrêtes<là>…"
433,1182,Alchimie,A2,Armand ,1,1,,,,,,,1.0,,,,,,,,,,,,,1.0,,,"Armand : Qu’est-ce qu’il y a,<Lucie> ?"
434,1185,Alchimie,A2,Loïs ,1,1,,,,,,,1.0,,,,,,,,,,,,,,1.0,,"Loïs : On a dit, tu t’arrêtes là… t’inquiète. OK. Non, parce que la prof, elle est venue, elle a dit que c’était bien… juste comme<ça>."
435,1189,Alchimie,A2,Loïs ,1,1,,,,,,,1.0,,,,,,,,,,1.0,,,,,,"Loïs : OK, on n’ a pas trouvé la<clé>…"
436,1191,Alchimie,A2,Armand ,1,1,,,,,,,1.0,,,,,,,1.0,,,,,,,,,"Armand : Mais si, parce qu’elle nous a pas écoutés, en disant qu’il<enterre>…"
437,1194,Alchimie,A2,Armand ,1,1,,,,,,,1.0,,,,,,,1.0,,,,,,,,,"Armand : Moi, je dis, on a la clé. Je<pense>…"
438,1197,Alchimie,A2,Loïs ,1,1,1.0,,,,,,,,,,,,,,,,,,1.0,,,,"Loïs : Attends, il faut mettre en lien. Le volta, c’est ligne 9 : « Par toi, je change l’or en fer. » Donc on a le volta. Attendez, je le note. Volta : son amour devient de la douleur. Donc ça, on a le volta, je pense. Et ensuite le concetto, c’est la ligne 14, « je bâtis de grands sarcophages »… Ah, les sarcophages, ils sont dans des pyramides. Les pyramides, c’est comment ? C’est grand. Donc il enterre profondément ses<sentiments>."
439,1200,Alchimie,A2,Armand ,1,1,1.0,,,,,,,,,,,,,1.0,,,,,,,,,"Armand : C’est pas profond, une<pyramide>…"
440,1203,Alchimie,A2,Loïs ,1,1,,,1.0,,,,1.0,,,,,,,1.0,,,,,,,,,"Loïs : Il y a des archéologues, je sais pas ça fait combien de temps ils sont sur les pyramides, ils trouvent toujours pas la salle secrète. Toutankhamon… pardon. Il enterre profondément ses sentiments. J’ai mis : il enterre profondément ses sentiments comme un<pharaon>…"
441,1205,Alchimie,A2,Armand ,1,1,,,,,,,,,,1.0,,,,,,,,,,,,,Armand : J’ai plus que<3> %…
442,1207,Alchimie,A2,Loïs ,1,1,,,,,,,,,,1.0,,,,,,,,,,,,,"Loïs : Mais tu rentres chez toi, tu pourras rebrancher ton<téléphone>…"
443,1209,Alchimie,A2,Armand ,1,1,,,,,,,,,,1.0,,,,,,,,,,,,,"Armand : Là, il tient jusqu’à ce<soir>…"
444,1212,Alchimie,A2,Armand ,1,1,,,,,,,,,,1.0,,,,,,,,,,,,,"Armand : Oui. J’ai pas envie de courir, cet après-<midi>…"
445,1214,Alchimie,A2,Manon G ,1,1,,,,,,,1.0,,,,,,,,,,1.0,,,,,,"Manon G : Madame, on a notre<clé>."
446,1216,Alchimie,A2,Loïs ,1,1,,,,,,,1.0,,,,,,,,,,,,,1.0,,,"Loïs : Madame, on a une<clé>…"
447,1222,Alchimie,A2,Armand ,1,1,,,,,,,,,,1.0,,,,,,,,,,,,,"Armand : Il est où, Pierre ? C’est Passe-<Partout>…"
448,1224,Alchimie,A2,Loïs ,1,1,,,,,,,,,,1.0,,,,,,,,,,,,,"Loïs : Pierre, il est tout petit… Mais c’est pas la clé de ton scooter ? Elle est où, la clé de ton scooter ? Elle était pas comme ça,<avant>…"
449,1226,Alchimie,A2,Armand ,1,1,,,,,,,,,,1.0,,,,,,,,,,,,,Armand : J’ai changé de<scoot>.
450,1228,Alchimie,A2,Loïs ,1,1,,,,,,,,,,1.0,,,,,,,,,,,,,"Loïs : Ah d’accord, il y avait marqué « Vespa »,<avant>…"
451,1231,Alchimie,A2,Manon G ,1,1,,,,,,,1.0,,,,,,,,,,1.0,,,,,,Manon G : On a notre<clé>.
452,1234,Alchimie,A2,Loïs ,1,1,1.0,,,,,,,,,,,,,,,,1.0,,,,,,"Loïs : On pense qu’on a notre volta, aussi. Là, genre, comme il dit qu’il change l’or en fer, il change l’amour qu’il avait et ses sentiments en<douleur>."
453,1238,Alchimie,A2,Manon G ,1,1,1.0,,,,,,,,,,,,1.0,,,,,,,,,,Manon G : La beauté de<l’amour>…
454,1241,Alchimie,A2,Loïs ,1,1,1.0,,,,,,,,,,,,1.0,,,,,,,,,,"Loïs : Et la chute, il bâtit de grands sarcophages, c’est qu’il enterre ses sentiments, donc il s’en débarrasse, et il associe le fait d’enterrer ses sentiments à une pyramide… et une pyramide, genre, il y a des salles<secrètes>…"
455,1245,Alchimie,A2,Manon G ,1,1,,,1.0,,,,,,,,,,,,,,1.0,,,,,,"Manon G : C’est là où il met toute sa douleur. Tous ses sentiments, il les met<dedans>."
456,1247,Alchimie,A2,Manon G ,1,1,,,,,,,,1.0,,,,,,,,,,,,1.0,,,"Manon G : On a la moitié de la clé, ou on l’a totalement, là,<madame> ?"
457,1250,Alchimie,A2,Loïs ,1,1,,,,,,,,1.0,,,,,,,,,,,,1.0,,,"Loïs : OK. Alors, OK, Google, qu’est-ce qu’une<pyramide>… ?"
458,1252,Alchimie,A2,Manon G ,1,1,,,,,,,,1.0,,,,,,,,,1.0,,,,,,"Manon G : Ça saoule, on voulait trouver la clé,<nous>…"
459,1255,Alchimie,A2,Armand ,1,1,1.0,,,,,,,,,,,,,,,,1.0,,,,,,"Armand : Est-ce que c’est pas tout ce qu’il a construit depuis le début ? Petit à petit, un auteur construit sa pyramide… Et plus il est jeune, il commence à construire sa pyramide, et plus ça<va>…"
460,1260,Alchimie,A2,Armand ,1,1,1.0,,,,,,,,,,,,,,,,1.0,,,,,,Armand : Il construit petit à petit la pyramide avec ses<poèmes>…
461,1264,Alchimie,A2,Lucie ,1,1,,,,,,,,1.0,,,,,,,,,,,,,,,Lucie : On était pas<loin>…
462,1267,Alchimie,A2,Lucie ,1,1,1.0,,,,,,,,,,,,,,,,1.0,,,,,,"Lucie : Donc c’est avec tous les poèmes qu’il écrit, ça donnera un super beau<truc>…"
463,1271,Alchimie,A2,Loïs ,1,1,,,,,,,,1.0,,,,,,,,,,,,,,,"Loïs : On était un peu loin, mais pas trop non<plus>."
464,1274,Alchimie,A2,Lucie ,1,1,,,,,,,1.0,,,,,,,,1.0,,,,,,,,"Lucie : Là, on a fini, du<coup>."
