NProp,Ligne,Seance,Numero,NomEleve,Lycee,Poesie,C1,C2,C3,C3BIS,C4,C5,C6,C7,C8,C9,C10,E1,E2,E3,E4,E5,E6,E7,E8,E9,E10,E11,Text
2,,Hadrien,H1,Lalie,1,,,,,,,,1.0,,,,,,,,,,,,,1.0,,,
3,,Hadrien,H1,Thomas,1,,,,,,,,1.0,,,,,,,,,,,,1.0,,,,
4,,Hadrien,H1,Lalie,1,,,,,,,,,1.0,,,,,,,,,,,,,1.0,,
5,,Hadrien,H1,Thomas,1,,,,,,,,1.0,,,,,,1.0,,,,,,,,,,
6,,Hadrien,H1,Lalie,1,,,,,,,,,1.0,,,,1.0,,,,,,,,,,,
7,,Hadrien,H1,Thomas,1,,,,,,,,1.0,,,,,1.0,,,,,,,,,,,
8,,Hadrien,H1,Lalie,1,,,,,,,,1.0,,,,,,,,,,,,1.0,,,,
9,,Hadrien,H1,Thomas,1,,,,,,,,1.0,,,,,,1.0,,,,,,,,,,
10,,Hadrien,H1,Ugo,1,,,,,,,,1.0,,,,,1.0,,,,,,,,,,,
11,,Hadrien,H1,Thomas,1,,,,,,,,1.0,,,,,,,,,,,,,1.0,,,
12,,Hadrien,H1,Kaena,1,,,,,,,,1.0,,,,,,,,,,,,,,,,
14,,Hadrien,H1,Kaena,1,,,,,,,,1.0,,,,,,,,,,,,,1.0,,,
16,,Hadrien,H1,Thomas,1,,,,,,,,1.0,,,,,,,1.0,,,,,,,,,
18,,Hadrien,H1,Thomas,1,,,,,,,,1.0,,,,,,,,,,,,,,,,
19,,Hadrien,H1,Thomas,1,,1.0,,,,,,,,,,,,,,,,,,1.0,,,,
20,,Hadrien,H1,Thomas,1,,,,,,,,1.0,,,,,,,,,,,,,1.0,,,
21,,Hadrien,H1,Ugo,1,,,,,,,,1.0,,,,,,,,,,,,,,,,
22,,Hadrien,H1,Thomas,1,,,,,,,,1.0,,,,,,,,,,,,,1.0,,,
23,,Hadrien,H1,Ugo,1,,,,1.0,,,,,,,,,,1.0,,,,,,,,,,
24,,Hadrien,H1,Thomas,1,,1.0,,,,,,,,,,,,1.0,,,,,,,,,,
25,,Hadrien,H1,Ugo,1,,1.0,,,,,,,,,,,1.0,,,,,,,,,,,
26,,Hadrien,H1,Thomas,1,,1.0,,,,,,,,,,,1.0,,,,,,,,,,,
29,,Hadrien,H1,Thomas,1,,,,,,,,1.0,,,,,,,,,,,,,1.0,,,
30,,Hadrien,H1,Lalie,1,,,,,1.0,,,,,,,,,,,,,,,1.0,,,,
31,,Hadrien,H1,Lalie,1,,,,,,,,1.0,,,,,,,,,,,,,,,,
32,,Hadrien,H1,Lalie,1,,,,,,,,,1.0,,,,,,,,,,,,,,,
33,,Hadrien,H1,Lalie,1,,1.0,,,,,,,,,,,,,,,,,,,,,,
34,,Hadrien,H1,Lalie,1,,,,,,,,1.0,,,,,,,,,,,,,1.0,,,
35,,Hadrien,H1,Thomas,1,,1.0,,,,,,,,,,,1.0,,,,,,,,,,,
37,,Hadrien,H1,Thomas,1,,,,,,,,1.0,,,,,,,,,,,,,1.0,,,
38,,Hadrien,H1,Kaena,1,,,,1.0,,,,,,,,,,,,,,,,1.0,,,,
39,,Hadrien,H1,Thomas,1,,,,,,,,1.0,,,,,,,,,,,,,1.0,,,
41,,Hadrien,H1,Thomas,1,,,,,,,,,,,1.0,,,,,,,,,,,,,
43,,Hadrien,H1,Thomas,1,,,,,,,,1.0,,,,,,,,,,,,,,,,
45,,Hadrien,H1,Thomas,1,,,,,,,,1.0,,,,,,,,,,,,,1.0,,,
47,,Hadrien,H1,Thomas,1,,,,,,,,1.0,,,,,,,,,,,,,1.0,,,
49,,Hadrien,H1,Thomas,1,,,,,,,,,,,1.0,,,,,,,,,,,,,
53,,Hadrien,H1,Lalie,1,,,,,,,,1.0,,,,,,,,,,1.0,,,,,,
54,,Hadrien,H1,Kaena,1,,,,,,,,1.0,,,,,,1.0,,,,,,,,,,
55,,Hadrien,H1,Lalie,1,,,,,,,,1.0,,,,,,1.0,,,,,,,,,,
56,,Hadrien,H1,Kaena,1,,,,,,,,1.0,,,,,,,,1.0,,,,,,,,
58,,Hadrien,H1,Lalie,1,,,,,,,,1.0,,,,,,,,,,,,,1.0,,,
59,,Hadrien,H1,Ugo,1,,,,,,,,1.0,,,,,,,,,,,,,1.0,,,
60,,Hadrien,H1,Lalie,1,,,,,,,,1.0,,,,,,,,,,,,,1.0,,,
61,,Hadrien,H1,Ugo,1,,,,,,,,1.0,,,,,,,1.0,,,,,,,,,
62,,Hadrien,H1,Lalie,1,,,,,,,,1.0,,,,,1.0,,,,,,,,,,,
63,,Hadrien,H1,Thomas,1,,,,,,,,1.0,,,,,,1.0,,,,,,,,,,
64,,Hadrien,H1,Kaena,1,,,,,,,,1.0,,,,,,,1.0,,,,,,,,,
65,,Hadrien,H1,Thomas,1,,,,,,,,1.0,,,,,,,,,,,,,1.0,,,
66,,Hadrien,H1,Lalie,1,,,,,,,,,1.0,,,,,,,,,,,,1.0,,,
68,,Hadrien,H1,Lalie,1,,,,1.0,,,,,,,,,,,,,,,,,1.0,,,
69,,Hadrien,H1,Lalie,1,,,,,,,,,1.0,,,,,,,,,,,,1.0,,,
70,,Hadrien,H1,Thomas,1,,,,,,1.0,,,,,,,,1.0,,,,,,,,,,
71,,Hadrien,H1,Ugo,1,,,,,,1.0,,,,,,,1.0,,,,,,,,,,,
72,,Hadrien,H1,Lalie,1,,,,,,,,1.0,,,,,,,,,,,,,1.0,,,
74,,Hadrien,H1,Lalie,1,,,,,,1.0,,,,,,,,,,,,,,,1.0,,,
75,,Hadrien,H1,Kaena,1,,,,,,,,1.0,,,,,,,,,,,,,1.0,,,
76,,Hadrien,H1,Lalie,1,,,,,,,,1.0,,,,,,1.0,,,,,,,,,,
77,,Hadrien,H1,Ugo,1,,,,1.0,,,,,,,,,,,,,,,,1.0,,,,
78,,Hadrien,H1,Lalie,1,,,,,,,,1.0,,,,,,,1.0,,,,,,,,,
82,,Hadrien,H1,Lalie,1,,,,,,,,,1.0,,,,,,,,,,,,1.0,,,
83,,Hadrien,H1,Thomas,1,,,,,,,,1.0,,,,,,,,,,,,,,,,
85,,Hadrien,H1,Thomas,1,,,,1.0,,,,,,,,,,1.0,,,,,,,,,,
86,,Hadrien,H1,Kaena,1,,,,,,,,,,,,,,,,,,,,,1.0,,,
87,,Hadrien,H1,Thomas,1,,,,,,,,1.0,,,,,,,,,,,,,1.0,,,
88,,Hadrien,H1,Lalie,1,,,,,,,,1.0,,,,,,1.0,,,,,,,,,,
89,,Hadrien,H1,Lalie,1,,,,1.0,,,,,,,,,,1.0,,,,,,,,,,
90,,Hadrien,H1,Thomas,1,,,,1.0,,,,,,,,,1.0,,,,,,,,,,,
91,,Hadrien,H1,Thomas,1,,1.0,,,,,,,,,,,,1.0,,,,,,,,,,
92,,Hadrien,H1,Lalie,1,,,,,,,,1.0,,,,,1.0,,,,,,,,,,,
93,,Hadrien,H1,Kaena,1,,,,,,,,1.0,,,,,,,,,,,,,1.0,,,
94,,Hadrien,H1,Lalie,1,,,,,,,,1.0,,,,,,,1.0,,,,,,,,,
95,,Hadrien,H1,Lalie,1,,,,,,,,1.0,,,,,,1.0,,,,,,,,,,
96,,Hadrien,H1,Thomas,1,,,,,,,,1.0,,,,,,,,,,,,,1.0,,,
99,,Hadrien,H1,Thomas,1,,,,,,,,1.0,,,,,,,,,,,,,1.0,,,
101,,Hadrien,H1,Thomas,1,,,,,,,,1.0,,,,,,,,,,,,,1.0,,,
102,,Hadrien,H1,Lalie,1,,,,,,,,1.0,,,,,1.0,,,,,,,,,,,
103,,Hadrien,H1,Thomas,1,,,,,,,,1.0,,,,,,,,,,,,,1.0,,,
104,,Hadrien,H1,Ugo,1,,,,,,,,1.0,,,,,1.0,,,,,,,,,,,
