NProp,Ligne,Seance,Numero,NomEleve,Lycee,Poesie,C1,C2,C3,C3BIS,C4,C5,C6,C7,C8,C9,C10,E1,E2,E3,E4,E5,E6,E7,E8,E9,E10,E11,Text
1,2,Hadrien,H2,Maïlie ,1,,,,,,,,,,,1.0,,,,,,,,,,,,,"Maïlie :<Bonjour, monsieur, madame>."
2,4,Hadrien,H2,Maïlie ,1,,,,,,,,1.0,,,,,,,,,,,,,1.0,,,"Maïlie :<On l’a fait, cette feuille ?>"
3,6,Hadrien,H2,Clara ,1,,,,,,,,1.0,,,,,,1.0,,,,,,,,,,"Clara :<Moi, j'ai écrit là-dessus.>"
4,8,Hadrien,H2,Barthélemy ,1,,,,,,,,1.0,,,,,,1.0,,,,,,,,,,Barthélemy :<Tu donneras la feuille avec. Les gens qui veulent les infos…>
5,10,Hadrien,H2,Clara ,1,,,,,,,,,1.0,,,,,,,,,,,,1.0,,,Clara :<J’espère… j’espère que c'est pas noté.>
6,12,Hadrien,H2,Barthélemy ,1,,,,,,,,,1.0,,,,,,,,,,,,1.0,,,Barthélemy :<Non. Je sais pas… j’espère pas non plus.>Rien ne va…
7,14,Hadrien,H2,Clara ,1,,,,,,,,,,,1.0,,,,,,,,,,,,,"Clara :<Il y a quelqu'un qui m’appelle, j’aime trop… c'est pas grave>. « Mise en commun dans le groupe avec les mots et phrases en vue de la recherche de l’axe de lecture… Que peut-on penser d’Hadrien ? » Je sais pas lire… «  de son projet d’écriture... »"
8,14,Hadrien,H2,Clara ,1,,,,,,,,1.0,,,,,,,,,,,,,,,,"Clara : Il y a quelqu'un qui m’appelle, j’aime trop… c'est pas grave .<« Mise en commun dans le groupe avec les mots et phrases en vue de la recherche de l’axe de lecture… Que peut-on penser d’Hadrien ? » Je sais pas lire… «  de son projet d’écriture... »>"
9,17,Hadrien,H2,Barthélemy ,1,,,,,,,,,,,1.0,,,,,,,,,,,,,Barthélemy :<Content pour lui…>
10,19,Hadrien,H2,Clara ,1,,,,,,,,1.0,1.0,,,,1.0,,,,,,,,,,,Clara :<Je pense qu’on a tous écrit la même chose…>
11,21,Hadrien,H2,Barthélemy ,1,,,,,,,,1.0,,,,,,,,,,,,,1.0,,,Barthélemy :<C’est-à-dire ?>
12,23,Hadrien,H2,Clara ,1,,,,,,,,1.0,,,,,1.0,,,,,,,,,,,"Clara :<Les mots, là, je pense qu’on a retenu à peu près les mêmes trucs.>"
13,25,Hadrien,H2,Barthélemy ,1,,,,,,,,1.0,1.0,,,,,1.0,,,,,,,,,,"Barthélemy :<Moi, j'ai écrit qu’un truc, genre, parce que c'est le seul machin qui m’a vraiment marqué. Enfin, du texte.>"
14,27,Hadrien,H2,Clara ,1,,,,,,,,,1.0,,,,,1.0,,,,,,,,,,"Clara :<Il durait trois heures, aussi…>"
15,29,Hadrien,H2,Manon ,1,,,,,,,,1.0,,,,,,1.0,,,,,,,,,,"Manon :<Moi, j'ai mis les deux.>"
16,32,Hadrien,H2,Manon ,1,,,,,,,,1.0,,,,,,,,,,,,,1.0,,,Manon :<Tu avais marqué quoi comme mots ?>
17,34,Hadrien,H2,Maïlie ,1,,,,,,,,1.0,,,,,,1.0,,,,,,,,,,"Maïlie :<Moi, j'ai marqué : « … un mal-être…. »>"
18,36,Hadrien,H2,Maïlie ,1,,,,1.0,,,,,,,,,,1.0,,,,,,,,,,Maïlie :<C’est philosophique>.
19,39,Hadrien,H2,Manon ,1,,,,,,,,1.0,,,,,,,,,,,,,1.0,,,"Manon :<Et tu l’as choisi pour une raison particulière, ou pas ?>"
20,41,Hadrien,H2,Maïlie ,1,,,,1.0,,,,,,,,,,1.0,,,,,,,,,,Maïlie :<Philosophique>.
21,44,Hadrien,H2,Clara ,1,,,,,,,,,,,1.0,,,,,,,,,,,,,"Clara :<Ça doit être passionnant à regarder, ça…>"
22,46,Hadrien,H2,Barthélemy ,1,,,,,,,,,,,1.0,,,,,,,,,,,,,"Barthélemy :<Ils doivent bien s’amuser, les gens qui veulent les infos>. Pour le machin, sinon, j'ai écrit : il a 17 ans, il sait tout."
23,46,Hadrien,H2,Barthélemy ,1,,,,1.0,,,,1.0,,,,,,,,,,,,1.0,,,,"Barthélemy : Ils doivent bien s’amuser, les gens qui veulent les infos .<Pour le machin, sinon, j'ai écrit : il a 17 ans, il sait tout.>"
24,49,Hadrien,H2,Maïlie ,1,,,,,,,,1.0,,,,,,,,,,,,,1.0,,,"Maïlie :<OK, tu as écrit quoi, toi ?>"
25,51,Hadrien,H2,Clara ,1,,,,1.0,,,,,,,,,,1.0,,,,,,,,,,"Clara :<Moi, j'ai mis plein de trucs. Genre, j'ai mis « cette lettre », « souvenirs », « te raconter ma vie », « mes 17 ans », « à t’instruire, te choquer », « me définir et mieux me connaître avant de mourir ».>"
26,53,Hadrien,H2,Barthélemy ,1,,,,,,,,,1.0,,,,1.0,,,,,,,,,,,Barthélemy :<Trop beau.>
27,55,Hadrien,H2,Maïlie ,1,,,,,,,,,,,1.0,,,,,,,,,,,,,"Maïlie :<Ça sonne, on n’a pas la récré.>"
28,57,Hadrien,H2,Barthélemy ,1,,,,,,,,,,,1.0,,,,,,,,,,,,,"Barthélemy :<Ça, c'est méchant, par contre, c'est de la méchanceté gratuite.>"
29,59,Hadrien,H2,Maïlie ,1,,,,,,,,,,,1.0,,,,,,,,,,,,,Maïlie :<On peut pas boire un petit chocolat chaud…>
30,61,Hadrien,H2,Manon ,1,,,,1.0,,,,,,,,,,1.0,,,,,,,,,,"Manon :<Moi, j'ai mis « je tiens pourtant à t’instruire, à te choquer » et « cette éducation sévère, surveillée, trop protégée peut-être dont j’espère somme toute un grand bien pour toi-même et pour l’Etat ».>"
31,63,Hadrien,H2,Barthélemy ,1,,,,1.0,,,,,,,,,1.0,,,,,,,,,,,Barthélemy :<On est à peu près tous d'accord sur le fait qu’il veut l’instruire.>
32,65,Hadrien,H2,Clara ,1,,,,1.0,,,,,,,,,1.0,,,,,,,,,,,"Clara :<Oui, voilà.>"
33,67,Hadrien,H2,Barthélemy ,1,,,,1.0,,,,,,,,,,1.0,,,,,,,,,,"Barthélemy :<Au début, il veut l’instruire, et après il d’écrire sa biographie, genre, il change en plein milieu.>"
34,69,Hadrien,H2,Clara ,1,,1.0,,,,,,,,,,,,,,,,,,1.0,,,,"Clara :<Mais au début, en gros, genre, il dit : qu'est-ce que c'est le roman ?>"
35,71,Hadrien,H2,Barthélemy ,1,,,,,,,,1.0,,,,,,,,,,,,,1.0,,,"Barthélemy : Oui,<et du coup, c'est quoi, l’axe de lecture ? J'ai envie de dire, c'est quoi l’intérêt du truc d’Hadrien, quoi ? Vu que c'est ça la question principale…>"
36,73,Hadrien,H2,Clara ,1,,1.0,,,,,,,,,,,,1.0,,,,,,,,,,"Clara :<Ça pourrait être, genre, en quoi ce texte est un incipit de biographie ?>"
37,75,Hadrien,H2,Barthélemy ,1,,,,,,,,,,,1.0,,,,,,,,,,,,,"Barthélemy :<J’ai de la toux, en vrai.>"
38,77,Hadrien,H2,Clara ,1,,,,,,,,,,,1.0,,,,,,,,,,,,,Clara :<Prends de l’eau>.
39,79,Hadrien,H2,Barthélemy ,1,,,,,,,,,,,1.0,,,,,,,,,,,,,"Barthélemy :<J’essaye, rien n’est promis>. Mais j’avoue, en vrai, ça passe."
40,81,Hadrien,H2,Clara ,1,,,,,,,,,,,1.0,,,,,,,,,,,,,Clara :<C’est trop gênant… on dirait genre une maman qui filme son enfant…>
41,83,Hadrien,H2,Barthélemy ,1,,,,,,,,,,,1.0,,,,,,,,,,,,,Barthélemy :<On dirait ma mère avant de me projeter sur Whatsapp sans me demander…>
42,85,Hadrien,H2,Clara ,1,,,,,,,,1.0,,,,,,,,,,,,,1.0,,,"Clara :<Vous comprenez ce que j'ai dit ou pas, genre, la problématique ?>"
44,87,Hadrien,H2,Barthélemy ,1,,,,,,,,1.0,,,,,1.0,,,,,,,,,,,"Barthélemy : Moi, ça me va .<Que peut-on penser du personnage d’Hadrien >?"
45,90,Hadrien,H2,Barthélemy,1,,,,,,,,,1.0,,,,,,,,,,,,,,,"Barthélemy<Genre, je pense rien de lui, en fait, il écrit son livre, content pour lui, mais voilà.>"
46,92,Hadrien,H2,Clara ,1,,,,1.0,,,,,,,,,,,,,,,,1.0,,,,"Clara :<Qu’il est pas très proche de son fils, parce qu’il lui dit pas en face…>"
47,94,Hadrien,H2,Manon ,1,,,,,,,1.0,,,,,,,1.0,,,,,,,,,,Manon :<C’est son petit-fils.>
48,96,Hadrien,H2,Barthélemy ,1,,,,1.0,,,,,,,,,,1.0,,,,,,,,,,"Barthélemy :<J’ai cru que tu allais dire qu’il était pas très beau, j'étais en mode OK…>"
49,98,Hadrien,H2,Clara ,1,,,,1.0,,,,,,,,,1.0,,,,,,,,,,,"Clara :<Mais en plus, c'est vrai, parce que, au départ, il est en mode : oui, je suis moche…>"
50,100,Hadrien,H2,Barthélemy ,1,,,,1.0,,,,,,,,,,1.0,,,,,,,,,,"Barthélemy :<Je suis moche, je meurs, j'ai le cancer…>"
51,103,Hadrien,H2,Barthélemy ,1,,,,1.0,,,,1.0,,,,,,,1.0,,,,,,,,,"Barthélemy :<Moi, j'avais juste mis : c'est quoi le but de sa biographie ?>"
52,105,Hadrien,H2,Maïlie ,1,,,,,,,,1.0,,,,,,,,,,,,,1.0,,,"Maïlie :<Moi, j'avais rien mis.>"
53,107,Hadrien,H2,Barthélemy ,1,,,,,,,,,1.0,,,,,1.0,,,,,,,,,,Barthélemy :<Ça résout le problème>.
54,109,Hadrien,H2,Clara ,1,,,,,,,,,1.0,,,,,1.0,,,,,,,,,,"Clara :<Mais c'était complexe.>J'ai oublié une question : « Quelles sont les raisons du choix des mots, des phrases ? »"
55,109,Hadrien,H2,Clara ,1,,,,,,,,1.0,,,,,,,,,,,,,,,,"Clara : Mais c'était complexe.<J'ai oublié une question : « Quelles sont les raisons du choix des mots, des phrases ? »>"
56,112,Hadrien,H2,Barthélemy ,1,,,,,,,,1.0,,,,,,,,,,,,,,1.0,,"Barthélemy :<« C’est ce qu’on a dit tout à l'heure, tous les machins qu’on a écrits en bas.>"
57,114,Hadrien,H2,Clara ,1,,,,,,,,1.0,,,,,,,,,,,,,1.0,,,"Clara :<Du coup, on dit quoi du personnage d’Hadrien ?>"
58,116,Hadrien,H2,Barthélemy ,1,,,,1.0,,,,,,,,,,1.0,,,,,,,,,,"Barthélemy :<Genre, il a l’air d’avoir un peu des regrets dans la vie, genre : ton éducation est nulle, et moi je vais mourir bientôt>…"
59,118,Hadrien,H2,Barthélemy,1,,,,1.0,,,,,,,,,,,,,,,,,1.0,,,Barthélemy<Je ne sais pas.>
60,120,Hadrien,H2,Clara ,1,,,,1.0,,,,,,,,,1.0,,,,,,,,,,,Clara :<Hadrien a l’air d’avoir des regrets.>
61,122,Hadrien,H2,Manon ,1,,1.0,,,,,,,,,,,,1.0,,,,,,,,,,Manon <: Il est pessimiste envers lui-même… il se dégrade.>
62,124,Hadrien,H2,Maïlie ,1,,,,,,,,1.0,,,,,,,,,,,,,1.0,,,"Maïlie :<Attends, comment on dit ?>"
63,126,Hadrien,H2,Manon ,1,,,,1.0,,,,1.0,,,,,,1.0,,,,,,,,,,Manon :<Il se sous-estime.>
64,128,Hadrien,H2,Maïlie ,1,,,,1.0,,,,,,,,,1.0,,,,,,,,,,,Maïlie :<Merci>.
65,130,Hadrien,H2,Barthélemy ,1,,,,,,,,,,,1.0,,,,,,,,,,,,,"Barthélemy :<Adrien, tête de chien…>"
66,132,Hadrien,H2,Barthélemy ,1,,,,,,,,1.0,,,,,1.0,,,,,,,,,,,Barthélemy :<Donc on met : Hadrien se sous-estime>.
67,134,Hadrien,H2,Barthélemy,1,,,,1.0,,,,,,,,,,,,,,,,,,,,Barthélemy<C'est trop triste.>
68,136,Hadrien,H2,Clara ,1,,,,1.0,,,,,,,,,1.0,,,,,,,,,,,Clara :<C’est carrément triste>.
69,138,Hadrien,H2,Barthélemy ,1,,,,,,,1.0,,,,,,,,,,,,,1.0,,,,"Barthélemy :<A la fin, il va… attention aux spoilers.>"
70,140,Hadrien,H2,Clara ,1,,,,,,,1.0,,,,,,,1.0,,,,,,,,,,Clara :<C’est la prof qui l’a dit.>
71,142,Hadrien,H2,Barthélemy ,1,,,,,,,,,1.0,,,,,1.0,,,,,,,,,,"Barthélemy :<Elle nous a tout spoilé. Genre, j’aurais trop aimé, l'histoire où son mec se jette dans la rivière, mais elle a tout spoilé. Trop triste. Pourquoi on commence à lire par la fin, déjà…>"
72,144,Hadrien,H2,Manon ,1,,,,1.0,,,,1.0,,,,,,1.0,,,,,,,,,,Manon :<On peut aussi mettre qu’il a des regrets par rapport à certains actes qu’il a faits…>
73,146,Hadrien,H2,Clara ,1,,,,1.0,,,,,,,,,1.0,,,,,,,,,,,"Clara :<Oui, il a des regrets.>"
74,148,Hadrien,H2,Barthélemy ,1,,,,1.0,,,,,,,,,1.0,,,,,,,,,,,"Barthélemy :<D’accord, il a des regrets>. Il se connaît pas très bien, aussi, donc il aimerait bien se connaître. Je pense que c'est ça, aussi, une des idées principales."
75,148,Hadrien,H2,Barthélemy ,1,,,,1.0,,,,,,,,,,,,,,,,1.0,,,,"Barthélemy : D’accord, il a des regrets .<Il se connaît pas très bien, aussi, donc il aimerait bien se connaître. Je pense que c'est ça, aussi, une des idées principales.>"
76,151,Hadrien,H2,Manon ,1,,,,1.0,,,,,,,,,,,,,,,,,1.0,,,"Manon :<Mais, en vrai, est-ce qu’on arrive encore à se connaître…>"
77,153,Hadrien,H2,Barthélemy ,1,,,,,,,,,,,1.0,,,,,,,,,,,,,Barthélemy :<C’est beaucoup trop profond pour un cours de français en première…>
78,155,Hadrien,H2,Manon ,1,,,,,,,,,1.0,,,,,1.0,,,,,,,,,,"Manon :<Le pire, c'est qu’avec mon pote, tout à l'heure, on parlait de ça…>"
79,157,Hadrien,H2,Barthélemy ,1,,,,,,,,,,,1.0,,,,,,,,,,,,,Barthélemy :<Mon Dieu…>
80,159,Hadrien,H2,Clara ,1,,,,,,,,,,,1.0,,,,,,,,,,,,,"Clara :<Je fais ça, on me voit pas…>"
81,161,Hadrien,H2,Barthélemy ,1,,,,,,,,,,,1.0,,,,,,,,,,,,,"Barthélemy :<Tu existes pas, en fait. On t’a menti, tu es dans le coma, et tout ça, c'est un rêve…>"
82,163,Hadrien,H2,Clara ,1,,,,,,,,,,,1.0,,,,,,,,,,,,,Clara :<Trop bien.>
83,165,Hadrien,H2,Maïlie ,1,,,,,,,,1.0,,,,,,,,,,,,1.0,,,,Maïlie :<Il faut qu’on trouve une problématique>.
84,167,Hadrien,H2,Barthélemy ,1,,,,,,,,1.0,,,,,1.0,,,,,,,,,,,"Barthélemy : Oui, moi je dis, le truc de Clara, il était bien.<Si vous avez des propositions, proposez, évidemment.>"
85,169,Hadrien,H2,Maïlie ,1,,,,,,,,1.0,,,,,,,,,,,,,1.0,,,Maïlie :<J’ai pas… tu peux répéter ?>
86,171,Hadrien,H2,Barthélemy ,1,,,,,,,,1.0,,,,,,,,,,,,,,,1.0,"Barthélemy :<Le truc de Clara, il était bien, mais si vous avez des propositions…>"
87,173,Hadrien,H2,Clara ,1,,,,,,,,,1.0,,,,,1.0,,,,,,,,,,Clara <: C’est moi qui dis mon truc.>En quoi ce texte est l’incipit de la biographie… autobiographie
88,173,Hadrien,H2,Clara ,1,,1.0,,,,,,,,,,,,,,,,,,,,,,Clara  : C’est moi qui dis mon truc.<En quoi ce texte est l’incipit de la biographie… autobiographie>.
89,176,Hadrien,H2,Manon ,1,,,,,,,,1.0,,,,,,,,,,,,,1.0,,,"Manon :<L’incipit d’une autobiographie, c'est ça ?>"
90,178,Hadrien,H2,Clara ,1,,1.0,,,,,,,,,,,,,,1.0,,,,,,,,Clara :<En quoi ce texte est l’incipit d’une autobiographie.>
91,180,Hadrien,H2,Manon ,1,,1.0,,,,,,,,,,,1.0,,,,,,,,,,,Manon :<OK>.
92,182,Hadrien,H2,Barthélemy ,1,,,,,,,,,,,1.0,,,,,,,,,,,,,"Barthélemy :<Il y a des gens, ils vont regarder trente minutes de ça après pour étudier… genre, ils vont étudier quoi, en plus >?"
93,184,Hadrien,H2,Clara ,1,,,,,,,,,,,1.0,,,,,,,,,,,,,"Clara :<Moi, je veux trop faire ce métier. Imagine, tu es payé…>"
94,186,Hadrien,H2,Barthélemy ,1,,,,,,,,,,,1.0,,,,,,,,,,,,,"Barthélemy :<Pour regarder des enfants travailler, genre, ça fait dictateur en Corée du Nord…>"
95,188,Hadrien,H2,Maïlie ,1,,,,,,,,,,,1.0,,,,,,,,,,,,,"Maïlie :<Ça fait un peu bizarre… je vais regarder des enfants, aujourd'hui… c'est bizarre.>"
96,190,Hadrien,H2,Clara ,1,,,,,,,,1.0,,,,,,,,,,,,,1.0,,,"Clara :<C’est quoi le nom de la question, du coup ?>"
97,192,Hadrien,H2,Barthélemy ,1,,,,,,,,1.0,,,,,,1.0,,,,,,,,,,"Barthélemy :<C’est l’axe linéaire, genre…>"
98,194,Hadrien,H2,Clara ,1,,,,,,,,1.0,,,,,,,,,,,,,1.0,,,Clara :<L’axe littéraire ?>
99,196,Hadrien,H2,Barthélemy ,1,,,,,,,,1.0,,,,,,,1.0,,,,,,,,,Barthélemy :<Linéaire>.
100,198,Hadrien,H2,Clara ,1,,,,,,,,1.0,,,,,1.0,,,,,,,,,,,Clara :<OK>.
101,201,Hadrien,H2,Clara ,1,,,,,,,,1.0,1.0,,,,,,,,,,,,1.0,,,"Clara : Pourquoi vous regardez tous… ?<Je suis même pas sûre qu’on fasse le truc dans le bon ordre, mais tant pis…>"
102,203,Hadrien,H2,Barthélemy ,1,,,,,,,,1.0,,,,,,,,,,,,,1.0,,,"Barthélemy :<Genre, on a tout fait, là ?>"
103,205,Hadrien,H2,Clara ,1,,,,,,,,1.0,,,,,,,,,,,,,1.0,,,Clara <: Elle reprend qu’une seule feuille ?>
104,207,Hadrien,H2,Barthélemy ,1,,,,,,,,1.0,,,,,,,1.0,,,,,,,,,"Barthélemy :<Non, elle reprend tout, pour mieux étudier>."
105,209,Hadrien,H2,Clara ,1,,,,,,,,,,,1.0,,,,,,,,,,,,,"Clara :<M’étudier. J’aimerais bien que ce soit ??? qui m’étudie, si tu vois ce que je veux dire…>"
106,211,Hadrien,H2,Barthélemy ,1,,,,,,,,,,,1.0,,,,,,,,,,,,,"Barthélemy :<Qu’il t’étudie sous toutes tes coutures, c'est ça ?>"
107,213,Hadrien,H2,Clara ,1,,,,,,,,,,,1.0,,,,,,,,,,,,,"Clara :<Oui, en dessous de mes coutures>."
108,215,Hadrien,H2,Barthélemy ,1,,,,,,,,,,,1.0,,,,,,,,,,,,,Barthélemy :<Il va te découdre.>
109,217,Hadrien,H2,Manon ,1,,,,,,,,1.0,,,,,,,,,,,,,1.0,,,"Manon :<Clara, tout à l'heure, tu nous a pas expliqué pourquoi tu avais relevé ces mots-là ? Je sais pas pourquoi je l’ai pas fait non plus, d'ailleurs…>"
110,219,Hadrien,H2,Clara ,1,,,,,,,,1.0,,,,,,1.0,,,,,,,,,,"Clara :<En fait, j'ai juste écrit ça, mais je sais pas s’il faut lui offrir, ça… J’ai mis quel type de texte, c'est tout. Genre, j'ai relevé les trucs qui montrent le thème du roman, le but du roman et le type de texte. C'est tout.>"
111,221,Hadrien,H2,Manon ,1,,,,,,,,1.0,,,,,,,,,,,,,1.0,,,"Manon :<Mais la feuille, elle, elle va la ramasser ?>"
112,223,Hadrien,H2,Barthélemy ,1,,,,,,,,1.0,,,,,,1.0,,,,,,,,,,"Barthélemy :<Oui, elle va ramasser le truc sur lequel tu écris les questions, quoi.>"
113,227,Hadrien,H2,Barthélemy ,1,,,,,,,,1.0,,,,,,,,,,1.0,,,,,,Barthélemy :<Qui pour se sacrifier pour aller au tableau ?>
114,229,Hadrien,H2,Clara ,1,,,,,,,,1.0,,,,,,1.0,,,,,,,,,,Clara :<Moi>.
115,231,Hadrien,H2,Maïlie ,1,,,,,,,,1.0,,,,,,,,,,,,,1.0,,,"Maïlie :<Tu as un crayon, ou pas ?>"
116,233,Hadrien,H2,Clara ,1,,,,,,,,1.0,,,,,,1.0,,,,,,,,,,Clara :<Non>.
117,235,Hadrien,H2,Maïlie ,1,,,,,,,,1.0,,,,,,,,,,,,,1.0,,,"Maïlie :<Tu en veux un, ou pas ?>"
118,237,Hadrien,H2,Clara ,1,,,,,,,,1.0,,,,,,1.0,,,,,,,,,,"Clara :<Oui, je veux bien.>"
119,239,Hadrien,H2,Barthélemy ,1,,,,,,,,,,,1.0,,,,,,,,,,,,,Barthélemy <: Tu écris avec tes mains.>
120,241,Hadrien,H2,Maïlie ,1,,,,,,,,,,,1.0,,,,,,,,,,,,,"Maïlie :<Alors, j'ai un crayon noir ou un crayon bleu>."
121,243,Hadrien,H2,Clara ,1,,,,,,,,,,,1.0,,,,,,,,,,,,,"Clara :<Un noir, parce que je suis pas raciste.>"
122,245,Hadrien,H2,Manon ,1,,,,1.0,,,,,,,,,,,,,,,,1.0,,,,"Manon : Et<autrement, tes réponses, ça me fait penser un petit peu à ce que mon grand-père me racontait, l’éducation qu’il a eue, parce qu’il a perdu son papa très jeune, il avait 8 ans, et sa mère, c'est vrai qu’elle a donné une éducation…>"
123,247,Hadrien,H2,Barthélemy ,1,,,,,,,,,,,1.0,,,,,,,,,,,,,"Barthélemy :<Du coup, si c'est sa mère qui l’a éduqué…>"
124,249,Hadrien,H2,Manon ,1,,,,,,,,,,,1.0,,,,,,,,,,,,,"Manon :<Si, il a été à l’école, mais il y avait quand même qu’un salaire, c'était plus compliqué de lui donner une éducation quand même…>"
125,251,Hadrien,H2,Barthélemy ,1,,,,,,,,,1.0,,,,1.0,,,,,,,,,,,"Barthélemy :<Je vois. On a tous pris des trucs random, toi, tu as fait un truc trop profond, nous, on est : ah, ce me rappelle quand je comprends pas le cours de maths…>"
126,253,Hadrien,H2,Clara ,1,,,,,,,,,,,1.0,,,,,,,,,,,,,"Clara :<Mes chaussures, elles font trop de bruit>."
127,255,Hadrien,H2,Barthélemy ,1,,,,,,,,,,,1.0,,,,,,,,,,,,,"Barthélemy :<Ça m’a fait trop rire, tu es arrivée au tableau, tu as campé pendant deux secondes, et ensuite tu es partie>."
128,257,Hadrien,H2,Clara ,1,,,,,,,,,,,1.0,,,,,,,,,,,,,Clara :<Bonjour>.
129,259,Hadrien,H2,Maïlie ,1,,,,,,,,,,,1.0,,,,,,,,,,,,,"Maïlie :<Les gens, quand ils vont voir la vidéo, ils vont se dire…>"
130,261,Hadrien,H2,Clara ,1,,,,,,,,,,,1.0,,,,,,,,,,,,,"Clara :<C’était ma contribution. Par contre, comment on va envoyer ça ?>"
131,275,Hadrien,H2,Clara ,1,,,,,,,,,,,1.0,,,,,,,,,,,,,"Clara :<On va trop vite, on est trop intelligents.>"
