NProp,Ligne,Seance,Numero,NomEleve,Lycee,Poesie,C1,C2,C3,C3BIS,C4,C5,C6,C7,C8,C9,C10,E1,E2,E3,E4,E5,E6,E7,E8,E9,E10,E11,Text
1,5,Hadrien,H3,Titouan ,1,,,,,,,,1.0,,,,,,,,,,,,1.0,,,,"Titouan : On est des cassos… Du coup, on peut commencer par dire… Moi, je dis, on peut commencer par réfléchir à « que peut-on penser<d’Hadrien> ? »,"
2,7,Hadrien,H3,Titouan,1,,,,,,,,,1.0,,,,,,,,,,,,,,,"(Titouan) parce que ça, c’est<facile>…"
3,9,Hadrien,H3,Élisa ,1,,,,1.0,,,,,,,,,,,,,,,,1.0,,,,"Élisa : Il a de l’égo, mais au<fond>…"
4,11,Hadrien,H3,Titouan ,1,,,,1.0,,,,,,,,,,1.0,,,,,,,,,,"Titouan : Pour moi, tu vois, Hadrien, c’est un mec qui a de l’égo, tu vois. C’est un mec qui a de l’égo, parce que, en<fait>…"
5,13,Hadrien,H3,Camille T ,1,,,,1.0,,,,,,,,,,1.0,,,,,,,,,,"Camille T : Il a de l’égo, mais au fond, il est pas genre à se valoriser de fou et tout, parce qu’il met ses mauvais points<aussi>…"
6,15,Hadrien,H3,Titouan ,1,,,,1.0,,,,,,,,,,1.0,,,,,,,,,,"Titouan : Oui, c’est ça. En fait, c’est un peu un mélange… il se dit : quitte<à>…"
7,17,Hadrien,H3,Camille T ,1,,,,1.0,,,,,,,,,,1.0,,,,,,,,,,"Camille T : Quitte à être honnête, soyons-le pour de bon,<quoi>…"
8,19,Hadrien,H3,Titouan ,1,,,,1.0,,,,,,,,,,1.0,,,,,,,,,,"Titouan : Qu’il soit honnête. Mais par contre, honnête pour de bon, pas forcément, parce qu’il dit… il assume pas, il dit : « J’ai pas<menti>... »"
9,21,Hadrien,H3,Camille T ,1,,,,1.0,,,,,,,,,,1.0,,,,,,,,,,"Camille T : Oui, mais après, il dit qu’il a beau<avoir>…"
10,23,Hadrien,H3,Camille G ,1,,1.0,,,,,,,,,,,,1.0,,,,,,,,,,"Camille G : Il dit que, à la base, il avait écrit la vérité, mais qu’il a dû<réécrire>…"
11,25,Hadrien,H3,Camille T ,1,,1.0,,,,,,,,,,,,1.0,,,,,,,,,,"Camille T : Pour que ce soit quand même convenable, que, au fond, il a quand même été honnête, pour que, genre, tout le monde<puisse>…"
12,29,Hadrien,H3,Élisa ,1,,,,,,,,1.0,,,,,,1.0,,,,,,,,,,"Élisa : Donc on va mettre : Hadrien, on va<dire>…"
13,31,Hadrien,H3,Camille T ,1,,,,,,,1.0,,,,,,,,,,,,,,1.0,,,"Camille T : Hadrien, ça s’écrit avec un<H>…"
14,33,Hadrien,H3,Titouan ,1,,,,,,,,1.0,,,,,,,,1.0,,,,,,,,Titouan : Raconte ses actes… avoue ses<torts>.
15,35,Hadrien,H3,Camille T ,1,,,,1.0,,,,1.0,,,,,,1.0,,,,,,,,,,Camille T : On a qu’à dire parle à son petit-fils d’une manière honnête…<voilà>.
16,37,Hadrien,H3,Camille G ,1,,,,,,,,1.0,,,,,,1.0,,,,,,,,,,Camille G : S’adresse à son successeur… j’écris hyper<gros>…
17,39,Hadrien,H3,Camille T ,1,,,,1.0,,,,1.0,,,,,,1.0,,,,,,,,,,Camille T : C’est-à-dire sans… comment on dit ? Vous savez… s’adresse à son successeur en toute<sincérité>.
18,41,Hadrien,H3,Titouan ,1,,,,,,,,1.0,,,,,1.0,,,,,,,,,,,Titouan : En toute<sincérité>…
19,43,Hadrien,H3,Camille T ,1,,,,1.0,,,,,,,,,,1.0,,,,,,,,,,Camille T : Ou<presque>.
20,45,Hadrien,H3,Titouan ,1,,,,1.0,,,,,,,,,1.0,,,,,,,,,,,"Titouan : Oui, ou<presque>."
21,47,Hadrien,H3,Titouan ,1,,,,,,,,1.0,,,,,,,,,,,,1.0,,,,Titouan : Il faut mettre la<citation>…
22,49,Hadrien,H3,Camille T ,1,,,,,,,,1.0,,,,,,1.0,,,,,,,,,,"Camille T : Oui… Oui, mais ça fait<paraphrase>."
23,51,Hadrien,H3,Camille G ,1,,,,,,,,1.0,,,,,,,1.0,,,,,,,,,Camille G :<Non>…
24,53,Hadrien,H3,Titouan ,1,,,,,,,1.0,,,,,,,,1.0,,,,,,,,,"Titouan : Mais non, parce qu’on cite. la paraphrase c’est reformuler le<texte>…"
25,55,Hadrien,H3,Élisa ,1,,1.0,,,,,,1.0,,,,,,1.0,,,,,,,,,,"Élisa : Ah, « l’intérêt public et la décence m’ont forcé néanmoins à réarranger certains<faits>... »"
26,57,Hadrien,H3,Camille T ,1,,,,,,,,1.0,,,,,,1.0,,,,,,,,,,"Camille T : C’est ce que tu as mis, toi… On met juste « ligne six », et on se retourne pour réécrire, comme ça, tu<peux>…"
27,59,Hadrien,H3,Titouan ,1,,,,,,,,1.0,,,,,,1.0,,,,,,,,,,"Titouan : Tu mets « j’ai menti », et entre guillemets, tu compares les deux phrases… Tu mets : « J’y ai menti le moins possible », après tu mets : « réarranger certains<faits> »."
28,61,Hadrien,H3,Camille G ,1,,,,,,,,1.0,,,,,1.0,,,,,,,,,,,"Camille G : Oui, on mettra : « J’y ai<menti>... »"
29,63,Hadrien,H3,Élisa ,1,,,,,,,,1.0,,,,,,,,,,,,,1.0,,,"Élisa : Ligne cinq, du<coup> ?"
30,65,Hadrien,H3,Titouan ,1,,,,,,,,1.0,,,,,1.0,,,,,,,,,,,Titouan :<Oui>…
31,67,Hadrien,H3,Camille G ,1,,,,,,,,1.0,,,,,1.0,,,,,,,,,,,"Camille G : Hop,<blanco>."
32,69,Hadrien,H3,Titouan ,1,,,,,,,,1.0,,,,,1.0,,,,,,,,,,,"Titouan : « <Réarrangé>... » C’est la première fois qu’ils bossent, là-bas… J’ai l’impression que l’image"
33,69,Hadrien,H3,Titouan ,1,,,,,,,,,,,1.0,,,,,,,,,,,,,"Titouan : «  Réarrangé ... » C’est la première fois qu’ils bossent, là-bas… J’ai l’impression que<l’image>…"
34,72,Hadrien,H3,Élisa ,1,,,,,,,,,,,1.0,,,,,,,,,,,,,"Élisa : En fait, vu que je bouge, regarde, la lumière… Au pire, fermez le petit<volet>…"
35,74,Hadrien,H3,Camille G ,1,,,,,,,,,,,1.0,,,,,,,,,,,,,"Camille G : Là, comme ça, regarde, ça va<être>…"
36,76,Hadrien,H3,Élisa ,1,,,,,,,,,,,1.0,,,,,,,,,,,,,Élisa : Vous avez l’air con à<regarder>…
37,78,Hadrien,H3,Camille T ,1,,,,,,,,,,,1.0,,,,,,,,,,,,,Camille T : C’est pour que tu voies la<luminosité>.
38,80,Hadrien,H3,Titouan ,1,,1.0,,,,,,1.0,,,,,,,,,,,,1.0,,,,"Titouan : On peut mettre qu’Hadrien, il est face à la mort, il est face à la fatalité de la<mort>…"
39,82,Hadrien,H3,Camille T ,1,,,,,,,,1.0,,,,,,1.0,,,,,,,,,,"Camille T : Oui, et il n’a aucune… genre, il faut dire<que>…"
40,84,Hadrien,H3,Camille G ,1,,,,1.0,,,,1.0,,,,,,,,,1.0,,,,,,,"Camille G : Mais il faut aussi à dire que, à la base, il avait écrit la vérité, mais qu’il a été obligé de modifier à cause de… c’est quoi ? L’intérêt<public>."
41,86,Hadrien,H3,Titouan ,1,,,,,,,,1.0,,,,,1.0,,,,,,,,,,,"Titouan : C’est ce qu’on a<mis>… On peut mettre que comme il est face à la fatalité de la mort et qu’il peut rien y faire, tu vois, il veut mieux se connaître. Il sait qu’il a plus beaucoup de temps, que c’est pour ça"
42,86,Hadrien,H3,Titouan ,1,,,,1.0,,,,1.0,,,,,,1.0,,,,,,,,,,"Titouan : C’est ce qu’on a mis … On peut mettre que comme il est face à la fatalité de la mort et qu’il peut rien y faire, tu vois, il veut mieux se connaître. Il sait qu’il a plus beaucoup de temps, que c’est pour<ça>…"
43,89,Hadrien,H3,Camille T ,1,,,,1.0,,,,1.0,,,,,,,,,,,,1.0,,,,"Camille T : Oui, il faut dire aussi qu’il a aucune gêne. Genre, il<a>…"
44,91,Hadrien,H3,Titouan ,1,,1.0,,,,,,,,,,,,,,,,,,1.0,,,,"Titouan : Regarde, en fait, ça sert à rien. C’est un conseil parce qu’il dit que c’est un conseil à Marc-Aurèle, en disant que, toi, aussi, avant de mourir, apprends à te<connaître>…"
45,93,Hadrien,H3,Camille G ,1,,1.0,,,,,,,,,,,1.0,,,,,,,,,,,"Camille G : Oui, apprends à te connaître toi-<même>."
46,95,Hadrien,H3,Camille T ,1,,,,,,,,1.0,,,,,,,,,1.0,,,,,,,"Camille T : Et il faut dire qu’il a aucune gêne,<quoi>."
47,97,Hadrien,H3,Titouan ,1,,,,,,,,1.0,,,,,,,,,,,,1.0,,,,"Titouan : Ça, le bon côté comme le mauvais, ça reste dans le premier… tu vois, « toutes les vérités... » Il faut dire : conseille Marc-Aurèle, là,<explique>…"
48,99,Hadrien,H3,Camille T ,1,,1.0,,,,,,1.0,,,,,,,1.0,,,,,,,,,"Camille T : Mais non, il est à la fatalité de la mort, et après, c’est : on pourrait interpréter qu’il conseille Marc-<Aurèle>."
49,101,Hadrien,H3,Titouan ,1,,,,,,,,1.0,,,,,,1.0,,,,,,,,,,"Titouan : Au pire, « conseille Marc-Aurèle », ça peut être une phrase, on met une explication, et puis, là, en dessous, on met : « <explique> »…"
50,103,Hadrien,H3,Camille T ,1,,,,,,,,1.0,,,,,,1.0,,,,,,,,,,Camille T : Il faut mettre : « face à la<mort>... »
51,105,Hadrien,H3,Titouan ,1,,,,,,,,1.0,,,,,,1.0,,,,,,,,,,"Titouan : Entre guillemets, on peut mettre « fatale », souligner ça… « se recentre sur lui-<même> »."
52,107,Hadrien,H3,Élisa ,1,,,,,,,,1.0,,,,,,1.0,,,,,,,,,,Élisa : Et « Essaie de mieux se<connaître>... »
53,109,Hadrien,H3,Camille T ,1,,,,,,,,1.0,,,,,,,1.0,,,,,,,,,"Camille T : Non, se recentre sur lui-même, et là, on met la phrase : « pour mieux se connaître avant de<mourir>... »"
54,111,Hadrien,H3,Camille G ,1,,,,,,,,1.0,,,,,,,,,,,,,1.0,,,"Camille G : Si on met : « il décide de se recentrer sur lui-même », ça passe mieux, ou<pas> ?"
55,113,Hadrien,H3,Titouan ,1,,,,,,,,1.0,,,,,,1.0,,,,,,,,,,Titouan : C’est la même chose. Tu fais comme tu<veux>.
56,115,Hadrien,H3,Camille T ,1,,,,,,,,1.0,,,,,1.0,,,,,,,,,,,Camille T : Je mets ce que tu as mis : « décide<de>... »
57,117,Hadrien,H3,Titouan ,1,,,,,,,,1.0,,,,,1.0,,,,,,,,,,,Titouan : « Pour mieux se<connaître>... »
58,119,Hadrien,H3,Titouan,1,,,,,,,,1.0,,,1.0,,,,,,,,,,,,,(Titouan) Vous pensez qu’ils auront le texte avec<eux> ?
59,121,Hadrien,H3,Élisa ,1,,,,,,,,,,,1.0,,,,,,,,,,,,,"Élisa : Déjà, il faut qu’ils comprennent, les<pauvres>."
60,123,Hadrien,H3,Camille T ,1,,,,,,,,1.0,,,,,,,,,,,,,1.0,,,Camille T : Ligne<combien> ?
61,125,Hadrien,H3,Titouan ,1,,,,,,,,,1.0,,,,,,,,,,,,1.0,,,Titouan : Je sais pas comment ça va<rendre>…
62,127,Hadrien,H3,Camille G ,1,,,,,,,,,,,1.0,,,,,,,,,,,,,Camille G : Vous savez qu’on va presque pas nous<entendre>…
63,129,Hadrien,H3,Élisa ,1,,,,,,,,,,,1.0,,,,,,,,,,,,,Élisa : Je pense pas qu’on nous<entende>…
64,131,Hadrien,H3,Camille T ,1,,,,,,,,,,,1.0,,,,,,,,,,,,,"Camille T : Non, parce que si on réfléchit, des fois… genre, tu sais, quand on fait comme ça, des fois, on entend rien. Là, on va rien<entendre>."
65,133,Hadrien,H3,Camille,1,,,,,,,,1.0,,,,,,,,,,,,,1.0,,,"(Camille T) C’est à quelle ligne,<ça> ?"
66,135,Hadrien,H3,Élisa ,1,,,,,,,,1.0,,,,,,1.0,,,,,,,,,,Élisa :<Dernière>.
67,137,Hadrien,H3,Camille T ,1,,,,,,,,1.0,,,,,,1.0,,,,,,,,,,Camille T : Donc c’est la<quatorze>.
69,143,Hadrien,H3,Titouan ,1,,,,,,,,,,,1.0,,,,,,,,,,,,,"Titouan : Je sais pas, quand je tourne la tête… On est enregistrés, je vous<rappelle>… il conseille Marc- Aurèle"
70,143,Hadrien,H3,Titouan ,1,,,,,,,,1.0,,,,,1.0,,,,,,,,,,,"Titouan : Je sais pas, quand je tourne la tête… On est enregistrés, je vous rappelle … il conseille Marc-<Aurèle>…"
71,146,Hadrien,H3,Élisa ,1,,1.0,,,,,,1.0,,,,,,,,,,,,1.0,,,,"Élisa : Non, attendez, vous avez mis le passage « me juger » ? parce que « me juger », c’est<bien>."
72,148,Hadrien,H3,Titouan ,1,,,,,,,,1.0,,,,,1.0,,,,,,,,,,,"Titouan : Tu peux mettre ça, vas-y, tu peux le<rajouter>."
73,150,Hadrien,H3,Camille T ,1,,,,,,,,1.0,,,,,,,,,,,,,1.0,,,Camille T : C’est quelle<ligne> ?
74,151,Hadrien,H3,Élisa ,1,,,,,,,,1.0,,,,,,1.0,,,,,,,,,,Élisa :<Quatorze>.
75,152,Hadrien,H3,Camille T ,1,,,,,,,,1.0,,,,,,1.0,,,,,,,,,,
76,153,Hadrien,H3,Élisa ,1,,,,,,,,1.0,,,,,,,1.0,,,,,,,,,
77,154,Hadrien,H3,Élisa ,1,,,,,,,,,1.0,,,,,,,,,,,,,,,
78,155,Hadrien,H3,Titouan,1,,,,1.0,,,,1.0,,,,,,1.0,,,,,,,,,,
79,156,Hadrien,H3,Élisa ,1,,,,,,,,1.0,,,,,1.0,,,,,,,,,,,
80,157,Hadrien,H3,Titouan,1,,,,,,,,,,,1.0,,,,,,,,,,,,,
81,158,Hadrien,H3,Camille G ,1,,,,,,,,,,,1.0,,,,,,,,,,,,,
82,159,Hadrien,H3,Camille T ,1,,,,,,,,,,,1.0,,,,,,,,,,,,,
83,160,Hadrien,H3,Titouan,1,,,,,,,,,,,1.0,,,,,,,,,,,,,
84,172,Hadrien,H3,Camille T ,1,,,,,,,,,,,1.0,,,,,,,,,,,,,"Camille T : Il continue encore de le faire, genre, il est présent sur plein de trucs. Il fait un nouveau<truc>…"
85,174,Hadrien,H3,Camille G ,1,,,,,,,,,,,1.0,,,,,,,,,,,,,"Camille G : Oui, mais c’est nul. « In ze boîte », c’était bien, quand il y<avait>…"
86,176,Hadrien,H3,Titouan ,1,,,,,,,,,,,1.0,,,,,,,,,,,,,"Titouan : Les gosses, j’ai envie de les tuer… à part le truc de la<boîte>…"
87,178,Hadrien,H3,Camille T ,1,,,,,,,,1.0,,,,,,1.0,,,,,,,,,,"Camille T : Il faut mettre, genre, petite flèche, on peut interpréter qu’il… comment on a dit : il conseille Marc-Aurèle pour pas refaire les mêmes erreurs que<lui>."
88,180,Hadrien,H3,Camille,1,,,,,,,,,,,1.0,,,,,,,,,,,,,(Camille T) Je le voyais pas si<vieux>…
89,182,Hadrien,H3,Camille G ,1,,,,,,,,1.0,,,,,,1.0,,,,,,,,,,Camille G : On peut<penser>…
90,184,Hadrien,H3,Camille T ,1,,,,,,,,1.0,,,,,,1.0,,,,,,,,,,Camille T : On peut interpréter ou penser qu’il conseille Marc-<Aurèle>…
91,186,Hadrien,H3,Camille G ,1,,,,,,,1.0,,,,,,,,,,,,,,1.0,,,Camille G : Ça s’écrit comment « <Aurèle> » ?
92,188,Hadrien,H3,Camille T ,1,,,,,,,1.0,,,,,,,1.0,,,,,,,,,,"Camille T : Aurélien, je crois, mais sans le « <ien> »…"
93,190,Hadrien,H3,Élisa ,1,,,,,,,1.0,,,,,,,1.0,,,,,,,,,,"Élisa : Je croyais qu’Aurèle, c’était son nom de<famille>…"
94,192,Hadrien,H3,Camille T ,1,,,,,,,,1.0,,,,,,1.0,,,,,,,,,,Camille T : Qui conseille Marc-Aurèle à se connaître et à ne pas reproduire les mêmes erreurs que<lui>.
95,194,Hadrien,H3,Camille G ,1,,,,,,,,,1.0,,,,,,,,,,,,,,,Camille G : Il y a tellement de bruit dans la<salle>…
96,196,Hadrien,H3,Camille G ,1,,,,,,,,1.0,,,,,1.0,,,,,,,,,,,(Camille G) à se<connaître>…
97,198,Hadrien,H3,Camille T ,1,,,,,,,,1.0,,,,,,1.0,,,,,,,,,,Camille T : À bien se connaître et à ne pas refaire les mêmes<erreurs>…
98,200,Hadrien,H3,Élisa ,1,,,,,,,,1.0,,,,,1.0,,,,,,,,,,,"Élisa : Oui, ne pas reproduire les mêmes erreurs que<lui>."
99,202,Hadrien,H3,Titouan ,1,,,,,,,,1.0,,,,,,,,,,,,1.0,,,,"Titouan : Comme on a déjà des trucs sur Hadrien, on peut passer à la question de son projet<d’écriture>…"
100,204,Hadrien,H3,Camille T ,1,,,,,,,,1.0,1.0,,,,,,1.0,,,,,,,,,Camille T : Vas-y mollo…Tu as même pas mis ce qu’on a<dit>…
101,206,Hadrien,H3,Élisa ,1,,,,,,,,1.0,,,,,1.0,,,,,,,,,,,Élisa : « Ne pas reproduire les<mêmes>... »
102,208,Hadrien,H3,Titouan ,1,,,,,,,,1.0,,,,,,,1.0,,,,,,,,,"Titouan : Si, ça, je l’ai mis… « Ne pas reproduire les mêmes erreurs pour Marc-Aurèle... », c’est écrit<ça>."
103,210,Hadrien,H3,Titouan,1,,,,,,,,,,,1.0,,,,,,,,,,,,,(Titouan) Je suis trop rapide parce que je suis un<homme>…
104,212,Hadrien,H3,Camille G ,1,,,,,,,,,,,1.0,,,,,,,,,,,,,"Camille G : Alors, toi, ferme ta<gueule>."
105,214,Hadrien,H3,Camille T ,1,,,,,,,,,,,1.0,,,,,,,,,,,,,Camille T : Tu me<dégoûtes>.
106,216,Hadrien,H3,Titouan ,1,,,,,,,,,,,1.0,,,,,,,,,,,,,"Titouan : Vous voyez, en Suisse, nous, en France, on est maltraités par les<femmes>…"
107,218,Hadrien,H3,Camille T ,1,,,,,,,,,,,1.0,,,,,,,,,,,,,Camille T : N’importe<quoi>…
108,220,Hadrien,H3,Titouan ,1,,,,,,,,,,,1.0,,,,,,,,,,,,,Titouan : C’est de<l’humour>…
109,222,Hadrien,H3,Élisa ,1,,,,,,,,1.0,,,,,,,,1.0,,,,,,,,"Élisa : Qu’est-ce qu’on pense du personnage d’Hadrien ? Ça, on y a répondu. Quelles sont les raisons… Que peut-on penser ? Ça, c’est ce qu’on a<mis>."
110,225,Hadrien,H3,Élisa ,1,,,,,,,,1.0,,,,,,,,,,,,,1.0,,,"Élisa : On met quoi : quelles sont les raisons des choix des mots, des phrases, ou de son projet<d’écriture>… ?"
111,227,Hadrien,H3,Titouan ,1,,,,,,,,1.0,,,,,,1.0,,,,,,,,,,Titouan : On met juste « projet<d’écriture> ».
112,229,Hadrien,H3,Élisa ,1,,,,,,,,1.0,,,,,,,,,,,,,1.0,,,"Élisa : Et le projet d’écriture, il y a<quoi> ?"
113,230,Hadrien,H3,Titouan,1,,1.0,,,,,,1.0,,,,,,1.0,,,,,,,,,,
114,231,Hadrien,H3,Élisa ,1,,,,,,,,1.0,,,,,,,,,,,,,1.0,,,
115,232,Hadrien,H3,Titouan,1,,,,,,,,1.0,,,,,,1.0,,,,,,,,,,
116,233,Hadrien,H3,Camille T ,1,,,,,,,,1.0,,,,,,,1.0,,,,,,,,,
117,234,Hadrien,H3,Titouan,1,,,,,,,,1.0,,,,,,,1.0,,,,,,,,,
118,235,Hadrien,H3,Élisa ,1,,,,,,,,1.0,,,,,,,1.0,,,,,,,,,
119,236,Hadrien,H3,Titouan,1,,,,,,,,,1.0,,,,,1.0,,,,,,,,,,
120,237,Hadrien,H3,Camille T ,1,,,,1.0,,,,1.0,,,,,,,,,,,,1.0,,,,
121,238,Hadrien,H3,Titouan,1,,,,1.0,,,,,,,,,,,1.0,,,,,,,,,
122,249,Hadrien,H3,Camille T ,1,,,,1.0,,,,,,,,,,,1.0,,,,,,,,,"Camille T : Mais en réalité, il a rien écrit,<Hadrien>…"
123,251,Hadrien,H3,Titouan ,1,,,,1.0,,,,,,,,,1.0,,,,,,,,,,,Titouan : Je<sais>…
124,253,Hadrien,H3,Élisa ,1,,,,,,1.0,,,,,,,,1.0,,,,,,,,,,Élisa : C’est<Marguerite>…
125,256,Hadrien,H3,Titouan ,1,,,,,,,,1.0,,,,,,,1.0,,,,,,,,,"Titouan : C’est : pourquoi le personnage d’Hadrien se mettrait-il à<écrire>… Madame, vous pouvez venir s’il vous plaît ? Le projet d’écriture, c’est censé… on est d’accord que… en gros, le projet d’écriture, la question, là"
126,256,Hadrien,H3,Titouan ,1,,,,,,,,1.0,,,,,,,,,,,,,1.0,,,"Titouan : C’est : pourquoi le personnage d’Hadrien se mettrait-il à écrire … Madame, vous pouvez venir s’il vous plaît ? Le projet d’écriture, c’est censé… on est d’accord que… en gros, le projet d’écriture, la question,<là>…"
127,259,Hadrien,H3,Camille G ,1,,,,,,,,1.0,,,,,,,,,,,,,1.0,,,Camille G : C’est sur Marguerite ou sur<Hadrien> ?
128,261,Hadrien,H3,Camille T ,1,,1.0,,,,,,,,,,,,,,,,,,,1.0,,,Camille T : Pourquoi Marguerite Yourcenar a décidé de faire ça ou pourquoi Hadrien veut-il parler à<son>… ?
129,263,Hadrien,H3,Titouan ,1,,1.0,,,,,,,,,,,,1.0,,,,,,,,,,Titouan : C’est Hadrien parce que c’est Hadrien qui justifie dans le<texte>.
130,266,Hadrien,H3,Camille T ,1,,,,,,,,1.0,,,,,,,,,,,,,1.0,,,"Camille T : Donc là, il va falloir effacer tout le<tableau> ?"
131,269,Hadrien,H3,Camille G ,1,,,,,,,,1.0,,,,,,,,,,,,,1.0,,,"Camille G : Je pourrai aller écrire, s’il vous<plaît> ?"
132,271,Hadrien,H3,Camille T ,1,,,,,,,,1.0,,,,,,1.0,,,,,,,,,,"Camille T : Oui, si tu veux. Tu pourrais écrire un et moi je pourrai écrire<l’autre> ?"
133,273,Hadrien,H3,Camille G ,1,,,,,,,,1.0,,,,,1.0,,,,,,,,,,,Camille G :<Oui>.
134,275,Hadrien,H3,Camille T ,1,,,,,,,,1.0,,,,,1.0,,,,,,,,,,,Camille T : On va écrire toutes les deux. Projet d’écriture<Marguerite>…
135,277,Hadrien,H3,Titouan ,1,,1.0,,,,,,1.0,,,,,,1.0,,,,,,,,,,"Titouan : Ça, on peut évoquer que… tu vois, c’est des lettres fictives. Donc c’est peut-être que, Hadrien, dans la<réalité>…"
136,279,Hadrien,H3,Camille T ,1,,1.0,,,,,,,,,,,,1.0,,,,,,,,,,"Camille T : Elle aussi, elle veut vraiment faire passer un message. En gros, Hadrien, son intérêt à lui, c’est de faire passer un message à son petit-fils pour pas qu’il reproduise les mêmes erreurs, pour qu’il<connaisse>…"
137,281,Hadrien,H3,Camille G ,1,,,,,,,1.0,,,,,,,1.0,,,,,,,,,,"Camille G : Sauf que Marc-Aurèle, c’est son<fils>…"
138,284,Hadrien,H3,Camille T ,1,,,,,,,1.0,,,,,,,1.0,,,,,,,,,,"Camille T : Oui, c’est son petit-<fils>. Mais Marguerite Yourcenar, son projet, c’est de faire passer un message au monde entier"
139,284,Hadrien,H3,Camille T ,1,,,,1.0,,,,,,,,,,1.0,,,,,,,,,,"Camille T : Oui, c’est son petit- fils . Mais Marguerite Yourcenar, son projet, c’est de faire passer un message au monde<entier>…"
140,287,Hadrien,H3,Titouan ,1,,1.0,,,,,,,,,,,,1.0,,,,,,,,,,"Titouan : Parce que, tu vois, comme ça, elle dit : Hadrien, il dit la<vérité>…"
141,289,Hadrien,H3,Camille G ,1,,1.0,,,,,,,,,,,,1.0,,,,,,,,,,"Camille G : Elle fixe le personnage, elle aurait pu en créer<un>…"
142,291,Hadrien,H3,Titouan ,1,,1.0,,,,,,,,,,,,1.0,,,,,,,,,,"Titouan : Mais c’est aussi parce que, Hadrien, il dit la vérité, Hadrien, il a fait ci, il a fait ça… tu<vois>…"
143,293,Hadrien,H3,Camille T ,1,,1.0,,,,,,1.0,,,,,,,,1.0,,,,,,,,"Camille T : Alors, il faut mettre en premier le truc d’Hadrien, et comme ça, après, on peut dire : c’est pour ça que Marguerite Yourcenar a fait<ça>."
144,295,Hadrien,H3,Titouan ,1,,,,,,,,1.0,,,,,,,,,,,,,1.0,,,"Titouan : Il y a combien de temps ? quinze minutes…<treize>. Donc Hadrien, son projet, c’est de conseiller son petit- fils"
145,295,Hadrien,H3,Titouan ,1,,,,,,,,1.0,,,,,,1.0,,,,,,,,,,"Titouan : Il y a combien de temps ? quinze minutes… treize . Donc Hadrien, son projet, c’est de conseiller son petit-<fils>."
146,298,Hadrien,H3,Camille T ,1,,,,,,,,1.0,,,,,,1.0,,,,,,,,,,"Camille T : Oui, c’est de conseiller… de toute façon, on fait sans prise de notes… « conseiller Marc-Aurèle »… Et là, on met, genre : mieux se connaître et pas faire les mêmes erreurs que<lui>…"
147,300,Hadrien,H3,Titouan ,1,,,,1.0,,,,1.0,,,,,,1.0,,,,,,,,,,"Titouan : Juste pas faire les mêmes erreurs, parce que de pas se connaître, c’est pas une<erreur>…"
148,302,Hadrien,H3,Camille T ,1,,,,1.0,,,,1.0,,,,,,1.0,,,,,,,,,,"Camille T : Si, justement, il conseille de… c’est pas grave, ça revient au même. Et après, il y a aussi le fait de… merde… à être honnête. Il le conseille à être honnête, parce que c’est pour ça qu’il est<honnête>. Et moi j’avais pas compris que tu enregistrais, là, tout de suite, maintenant. J’ai cru que tu le mettais là au cas où"
149,302,Hadrien,H3,Camille T ,1,,,,,,,,,,,1.0,,,,,,,,,,,,,"Camille T : Si, justement, il conseille de… c’est pas grave, ça revient au même. Et après, il y a aussi le fait de… merde… à être honnête. Il le conseille à être honnête, parce que c’est pour ça qu’il est honnête . Et moi j’avais pas compris que tu enregistrais, là, tout de suite, maintenant. J’ai cru que tu le mettais là au cas<où>…"
150,305,Hadrien,H3,Camille G ,1,,,,,,,,,,,1.0,,,,,,,,,,,,,"Camille G : Non, j’enregistre<vraiment>…"
151,307,Hadrien,H3,Élisa ,1,,,,,,,,,,,1.0,,,,,,,,,,,,,"Élisa : « Au cas où », c’est trop<mignon>…"
152,310,Hadrien,H3,Camille G ,1,,,,,,,,,,,1.0,,,,,,,,,,,,,"Camille G : Non, « ui », moi, je le dis tout le<temps>…"
153,312,Hadrien,H3,Camille T ,1,,,,,,,,,,,1.0,,,,,,,,,,,,,"Camille T : Moi, je l’ai fait exprès « au cas<où> »…"
154,314,Hadrien,H3,Titouan ,1,,,,,,,,,,,1.0,,,,,,,,,,,,,Titouan : C’est comme ceux qui disent pas les S à la fin des<mots>…
155,317,Hadrien,H3,Camille G ,1,,,,,,,,,,,1.0,,,,,,,,,,,,,Camille G : Des<zaricots>…
156,319,Hadrien,H3,Titouan ,1,,,,,,,,,,,1.0,,,,,,,,,,,,,Titouan : Comme ceux qui disent « <anu> »…
157,321,Hadrien,H3,Élisa ,1,,,,,,,,,,,1.0,,,,,,,,,,,,,Élisa : « Un<anana> »…
158,323,Hadrien,H3,Titouan ,1,,,,,,,,,,,1.0,,,,,,,,,,,,,"Titouan : Voilà, « un<anana> »."
159,325,Hadrien,H3,Élisa ,1,,,,,,,,,,,1.0,,,,,,,,,,,,,Élisa : C’est vrai que c’est hyper<énervant>…
160,328,Hadrien,H3,Élisa ,1,,,,,,,,,,,1.0,,,,,,,,,,,,,Élisa : « Anu » sorti comme<exemple>…
161,330,Hadrien,H3,Titouan ,1,,,,,,,,,,,1.0,,,,,,,,,,,,,"Titouan : Si tu veux, c’est « péni » donc… je passe pour un con devant les Suisses,<là>…"
162,332,Hadrien,H3,Camille T ,1,,,,,,,,,,,1.0,,,,,,,,,,,,,"Camille T : Mais au moins, ils ont des tutos de<français>."
163,334,Hadrien,H3,Titouan ,1,,,,,,,,,,,1.0,,,,,,,,,,,,,"Titouan : Au moins, on est vrai, on dit la vérité<vraie>."
164,336,Hadrien,H3,Camille T ,1,,,,,,,,,,,1.0,,,,,,,,,,,,,Camille T : Comme<Hadrien>…
165,338,Hadrien,H3,Titouan ,1,,,,,,,,,,,1.0,,,,,,,,,,,,,"Titouan : En fait, je suis un empereur de<Rome>…"
166,340,Hadrien,H3,Élisa ,1,,,,,,,,1.0,,,,,,,,,,,,,1.0,,,Élisa : Allez… Il dit quoi le projet d’écriture<d’Hadrien> 
167,342,Hadrien,H3,Camille T ,1,,,,,,,,1.0,,,,,,1.0,,,,,,,,,,"Camille T : Le projet d’écriture d’Hadrien, c’est de mieux se connaître lui-même,<aussi>…"
168,345,Hadrien,H3,Camille T ,1,,,,,,,,1.0,,,,,,,1.0,,,,,,,,,"Camille T : Non, non… Écris-<le>."
169,348,Hadrien,H3,Camille T ,1,,,,,,,,1.0,,,,,,,1.0,,,,,,,,,"Camille T : Écris-le, ce que tu veux<dire>. Et un des trucs d’Hadrien aussi, c’est de mieux se connaître lui-même avant de mourir"
170,348,Hadrien,H3,Camille T ,1,,,,,,,,1.0,,,,,,,,,1.0,,,,,,,"Camille T : Écris-le, ce que tu veux dire . Et un des trucs d’Hadrien aussi, c’est de mieux se connaître lui-même avant de<mourir>."
171,351,Hadrien,H3,Titouan ,1,,,,,,,,,,,1.0,,,,,,,,,,,,,"Titouan : Nous, on balance des trucs, mon<gars>…"
172,353,Hadrien,H3,Camille G ,1,,,,,,,,,,,1.0,,,,,,,,,,,,,"Camille G : Comme les gens qui disent « péni » et « pénis », « anana » et « <ananas> »…"
173,357,Hadrien,H3,Camille T ,1,,,,,,,,1.0,,,,,,,,,,,1.0,,,,,"Camille T : Non, attendez un peu, madame, s’il vous plaît. Et là, après, il faut mettre Marguerite. Son projet, Marguerite, à elle, c’est de glorifier Hadrien… et passer un message national… enfin,<international>…"
174,359,Hadrien,H3,Titouan ,1,,,,,,,,1.0,,,,,,1.0,,,,,,,,,,Titouan : Et elle fait<passer>…
175,361,Hadrien,H3,Camille G ,1,,,,,,,,1.0,,,,,,,,,,,,,1.0,,,"Camille G : Je peux faire Marguerite, s’il te<plaît> ?"
176,365,Hadrien,H3,Camille T ,1,,,,,,,,1.0,,,,,,1.0,,,,,,,,,,Camille T : Toi tu fais<Marguerite>…
177,368,Hadrien,H3,Élisa ,1,,,,,,,,1.0,,,,,,,,,,,,,1.0,,,Élisa : Vous avez marqué quoi pour<Marguerite> ?
178,370,Hadrien,H3,Camille T ,1,,,,1.0,,,,1.0,,,,,,1.0,,,,,,,,,,"Camille T : Marguerite, elle veut glorifier Hadrien, et elle veut faire passer plusieurs<messages>…"
179,373,Hadrien,H3,Camille T ,1,,,,1.0,,,,1.0,,,,,,,,,,,,,,,,Camille T : Comme le fait Hadrien pour Marc-<Aurèle>.
180,376,Hadrien,H3,Camille G ,1,,,,,,,,1.0,,,,,1.0,,,,,,,,,,,"Camille G : Bon, je vais écrire au<tableau>…"
