NProp,Ligne,Seance,Numero,NomEleve,Lycee,Poesie,C1,C2,C3,C3BIS,C4,C5,C6,C7,C8,C9,C10,E1,E2,E3,E4,E5,E6,E7,E8,E9,E10,E11,Text
1,2,Rêve 2,R3,Timéo ,,1,,,,,,,1.0,,,,,,,,,,,,,1.0,,,"Timéo : Madame, en fait, ce qu’il faut, c'est réfléchir aux sons qu’on va<donner> ?"
2,5,Rêve 2,R3,Timéo ,,1,,,,,,,1.0,,,,,,,,,,1.0,,,,,,"Timéo : En fait, il y a quelqu'un qui va faire un quatrain<…>"
3,8,Rêve 2,R3,FF1,,1,,,,,,,1.0,,,,,,,,,,,,,1.0,,,"Fille 1 : Alors, vous voulez faire comment <?>"
4,10,Rêve 2,R3,Timéo ,,1,,,,,,,1.0,,,,,,1.0,,,,,,,,,,"Timéo : Moi, je fais celui-là.<>"
5,12,Rêve 2,R3,FF2,,1,,,,,,,1.0,,,,,,1.0,,,,,,,,,,Fille 2 : Je veux bien faire le<dernier>.
6,14,Rêve 2,R3,Timéo ,,1,,,,,,,1.0,,,,,,,,,,,,,,,1.0,"Timéo : Et toi, Clara, tu veux faire<lequel>?"
7,16,Rêve 2,R3,Clara ,,1,,,,,,,1.0,,,,,,1.0,,,,,,,,,,"Clara : Le premier, tu as choisi le deuxième<.>"
8,18,Rêve 2,R3,Timéo ,,1,,,,,,,1.0,,,,,,,,,,,,,1.0,,,Timéo : Tu as choisi le même <?>
9,20,Rêve 2,R3,Clara ,,1,,,,,,,1.0,,,,,,,,1.0,,,,,,,,"Clara : Après, n’importe<.>"
10,22,Rêve 2,R3,FF2,,1,,,,,,,1.0,,,,,,,,,,,,1.0,,,,Fille 2 : J’ai trouvé le ton que je vais donner<.>
11,24,Rêve 2,R3,Clara ,,1,,,,,,,1.0,,,,,,1.0,,,,,,,,,,"Clara : Mais en fait, il faut donner le même ton partout, je croi<s.>"
12,26,Rêve 2,R3,FF1,,1,,,,,,,1.0,,,,,,,,,,,,,1.0,,,"FF1 : Mais du coup, on choisit<comment> ?"
13,28,Rêve 2,R3,Clara ,,1,,,,,,,1.0,,,,,,,,,,,,,1.0,,,Clara : Je sais pas<.>
14,30,Rêve 2,R3,FF1,,1,,1.0,,,,,,,,,,,,,,,,,,1.0,,,"FF1 : Genre, est-ce qu’on laisse beaucoup de temps aux virgules <?>"
15,32,Rêve 2,R3,Clara ,,1,,1.0,,,,,,,,,,,,,1.0,,,,,,,,"Clara : Non, pas beaucou<p.>"
16,34,Rêve 2,R3,FF2,,1,,1.0,,,,,,,,,,,1.0,,,,,,,,,,"FF2 : Non, et encore, des fois, il faudra peut-être passer les virgule<s.>"
17,36,Rêve 2,R3,FF1,,1,,1.0,,,,,,,,,,,,1.0,,,,,,,,,"FF1 : Non, il faut pas en passer<.>"
18,38,Rêve 2,R3,FF2,,1,,1.0,,,,,,,,,,,,,,,,,,1.0,,,"FF2 : Comme elle disait, la prof<.>"
19,40,Rêve 2,R3,FF1,,1,,1.0,,,,,,,,,,,1.0,,,,,,,,,,"FF1 : La prof, elle en passait pas. J'ai regardé, elle en a pas passé<.>"
20,42,Rêve 2,R3,FF2,,1,,1.0,,,,,,,,,,,,1.0,,,,,,,,,"FF2 : A la fin, elle avait passé la virgule<.>"
21,44,Rêve 2,R3,Clara ,,1,,,,1.0,,,,,,,,,,,,,,,,1.0,,,Clara : « En pleurant » <?>
22,47,Rêve 2,R3,FF1,,1,,,,1.0,,,,,,,,,,,,,,,,1.0,,,FF1 : C’est où « en pleurant » <?>
23,49,Rêve 2,R3,FF2,,1,,,,1.0,,,,,,,,,1.0,,,,,,,,,,"FF2 : Là, elle a fait : « Elle seule les sait rafraîchir en pleurant <».>"
24,51,Rêve 2,R3,FF1,,1,,1.0,,,,,,,,,,,,1.0,,,,,,,,,"FF1 : Elle a fait quand même une petite paus<e,>"
25,53,Rêve 2,R3,FF1,,1,,,,1.0,,,,,,,,,,1.0,,,,,,,,,"(FF1) elle a fait : « Rafraîchir, en pleurant <»>."
26,55,Rêve 2,R3,Clara ,,1,,,,,,,1.0,,,,,,,,,,,,,1.0,,,"Clara : Du coup, on fait comment <?>"
27,57,Rêve 2,R3,FF1,,1,,,,,,,1.0,,,,,,,,1.0,,,,,,,,FF1 : On laisse du temps aux pauses<.>
28,59,Rêve 2,R3,FF2,,1,,,,,,1.0,,,,,,,,,,,,,1.0,,,,"FF2 : Après, sinon, on peut faire en ternaire, ou un truc comme ç<a.>Je crois que ça s’appelle un truc comme ça. C’est quand on coupe en trois ."
29,59,Rêve 2,R3,FF2,,1,,,,,,1.0,,,,,,,1.0,,,,,,,,,,"FF2 : Après, sinon, on peut faire en ternaire, ou un truc comme ç a. Je crois que ça s’appelle un truc comme ça. C’est quand on coupe en trois<.>"
30,62,Rêve 2,R3,Clara ,,1,,,,,,,1.0,,,,,,,,,,,,,1.0,,,"Clara : Il faudrait prendre un crayon et les séparer, non <?>"
31,64,Rêve 2,R3,FF2,,1,,,,1.0,,,,,,,,,1.0,,,,,,,,,,"FF2 : Par exemple, faire : « D’une femme inconnue, et que j’aime, et qui m’aime <».>"
32,66,Rêve 2,R3,Timéo ,,1,,,,,,,1.0,,,,,,,,,,,,,1.0,,,"Timéo : Ah oui, comme ça <?>"
33,68,Rêve 2,R3,FF2,,1,,,,,,,1.0,,,,,,1.0,,,,,,,,,,FF2 : Oui. C'est ce que la prof expliquait tout à l'heure<.>
34,70,Rêve 2,R3,Timéo ,,1,,,,,,,1.0,,,,,,1.0,,,,,,,,,,"Timéo : Oui, on peut faire comme ça<.>"
35,72,Rêve 2,R3,Clara ,,1,,,,1.0,,,,,,,,,,,,,,,,1.0,,,"Clara : « Je fais souvent/ ce rêve étrange/ et pénétrant », ça fait trois< ?>"
36,74,Rêve 2,R3,FF2,,1,,1.0,,,,,,,,,,,1.0,,,,,,,,,,"<FF2 : Oui, c'est parce que, en fait, Paul Verlain, il a dû aussi un peu… genre, ça va, son poème, on peut le faire en ternaire.>"
37,76,Rêve 2,R3,Clara ,,1,,,,1.0,,,,,,,,,1.0,,,,,,,,,,Clara : « Et qui n’est/ chaque fois/ ni tout à fait la même <»…>
38,78,Rêve 2,R3,FF2,,1,,,,1.0,,,,,,,,,1.0,,,,,,,,,,FF2 : « Et qui n’est/ chaque fois/ ni tout à fait la même »<…>c'est par rapport aux parenthèses. Par rapport aux virgules .
39,78,Rêve 2,R3,FF2,,1,,1.0,,,,,,,,,,,1.0,,,,,,,,,,FF2 : « Et qui n’est/ chaque fois/ ni tout à fait la même » … c'est par rapport aux parenthèses. Par rapport aux virgules<.>
40,81,Rêve 2,R3,FF1,,1,,1.0,,,,,,,,,,,,1.0,,,,,,,,,"FF1 : Mais moi, ça fait quatre, là<.>"
41,83,Rêve 2,R3,Timéo ,,1,,,,1.0,,,,,,,,,,,,,,,,,,1.0,Timéo : Tu peux faire : « Et pour sa voix/ lointaine et calme »<…>
42,85,Rêve 2,R3,FF1,,1,,1.0,,,,,,,,,,,,,,,,,,1.0,,,"FF1 : Madame ? Pour le ternaire, là, ou je sais pas<…>"
43,88,Rêve 2,R3,FF1,,1,,1.0,,,,,,,,,,,,1.0,,,,,,,,,"FF1 : Là, on peut pas trop, parce que là, il y a une virgule, une virgule, une virgule, une virgule<…>"
44,91,Rêve 2,R3,FF1,,1,,,,,,,1.0,,,,,,,,,,1.0,,,,,,"FF1 : Oui, du coup, on peut pas faire partout pareil<.>"
45,93,Rêve 2,R3,Timéo ,,1,,,,1.0,,,,,,,,,1.0,,,,,,,,,,Timéo : On peut dire : « Et pour sa<voix>... »
46,96,Rêve 2,R3,FF1,,1,,,,,,,1.0,,,,,,,,,,,,,1.0,,,FF1 : Il faut trois façons <?>
47,99,Rêve 2,R3,Clara,,1,,1.0,,,,,,,,,,,,,,,1.0,,,,,,"Clara : Oui, on a monté le son de la voix parce qu’il y avait un point d’exclamation<.>"
48,102,Rêve 2,R3,FF2,,1,,,,,,,1.0,,,,,,,,,,,,,1.0,,,"FF2 : Oui, mais là ? Je sais rien du tout, moi<.>"
49,104,Rêve 2,R3,FF1,,1,,,,1.0,,,,,,,,,1.0,,,,,,,,,,"FF1 : Tu fais : « Et, pour sa voix/ lointaine/ et calme/ et grave/ elle a l'inflexion des voix chères qui se sont tues <».>"
50,106,Rêve 2,R3,FF2,,1,,,,1.0,,,,,,,,,1.0,,,,,,,,,,FF2 :<OK>.
51,108,Rêve 2,R3,FF1,,1,,,,1.0,,,,,,,,,,,,,,,,1.0,,,FF1 : Je pense<.>
52,110,Rêve 2,R3,Clara ,,1,,,,,,,1.0,,,,,,,,,,,,1.0,,,,"Clara : Du coup, genre, on peut s’entraîner d'abord<.>"
53,112,Rêve 2,R3,FF1,,1,,,,,,,1.0,,,,,,,,,,,,,1.0,,,"FF1 : Du coup, on fait comment< ?>"
54,114,Rêve 2,R3,FF1,,1,,1.0,,,,,,,,,,,,1.0,,,,,,,,,Parce que si on met pas des ternaires partout<…>
55,116,Rêve 2,R3,Clara,,1,,1.0,,,,,,,,,,,1.0,,,,,,,,,,"Clara : Moi, je peux le faire<.>"
56,118,Rêve 2,R3,Timéo ,,1,,1.0,,,,,,,,,,,1.0,,,,,,,,,,Timéo : Moi aussi je peux le faire<.>
57,120,Rêve 2,R3,FF2,,1,,1.0,,,,,,,,,,,1.0,,,,,,,,,,"FF2 : Moi, non<.>"
58,122,Rêve 2,R3,FF1,,1,,,,1.0,,,,,,,,,,,,1.0,,,,,,,"FF1 : « Car elle me comprend/ et mon coeur, transparent / Pour elle seule/ hélas ! <»,>genre, là je peux le faire, mais aussi je mets du son au « hélas », comme ça, ça en fait deux ."
59,122,Rêve 2,R3,FF1,,1,,1.0,,,,,,,,,,,1.0,,,,,,,,,,"FF1 : « Car elle me comprend/ et mon coeur, transparent / Pour elle seule/ hélas !  », genre, là je peux le faire, mais aussi je mets du son au « hélas », comme ça, ça en fait deux<.>"
60,125,Rêve 2,R3,FF2,,1,,1.0,,,,,,,,,,,,1.0,,,,,,,,,"FF2 : Moi, je peux rien faire<.>"
61,127,Rêve 2,R3,FF1,,1,,1.0,,,,,,,,,,,,,,1.0,,,,,,,"FF1 : Dans tous les cas, je suis obligé d’en faire deux, parce que si je monte au « hélas », ça fait un peu comme une coupure avant et une coupure après<.>Du coup : «  Pour elle seule/ et les moiteurs/ de mon front blême / Elle seule/ les sait rafraîchir/ en pleurant.  »"
62,127,Rêve 2,R3,FF1,,1,,,,1.0,,,,,,,,,1.0,,,,,,,,,,"FF1 : Dans tous les cas, je suis obligé d’en faire deux, parce que si je monte au « hélas », ça fait un peu comme une coupure avant et une coupure après . Du coup : «  Pour elle seule/ et les moiteurs/ de mon front blême / Elle seule/ les sait rafraîchir/ en pleurant.< »>Moi, je peux faire les troi s."
63,127,Rêve 2,R3,FF1,,1,,1.0,,,,,,,,,,,1.0,,,,,,,,,,"FF1 : Dans tous les cas, je suis obligé d’en faire deux, parce que si je monte au « hélas », ça fait un peu comme une coupure avant et une coupure après . Du coup : «  Pour elle seule/ et les moiteurs/ de mon front blême / Elle seule/ les sait rafraîchir/ en pleurant.  » Moi, je peux faire les troi<s.>"
64,131,Rêve 2,R3,FF2,,1,,,,,,,1.0,,,,,,,,,,,,1.0,,,,"FF2 : Je suis la seule à avoir pris un crayon au débu<t,>sauf que, en fait, je suis la seule à pas en avoir besoin parce que …"
65,131,Rêve 2,R3,FF2,,1,,1.0,,,,,,,,,,,1.0,,,,,,,,,,"FF2 : Je suis la seule à avoir pris un crayon au débu t, sauf que, en fait, je suis la seule à pas en avoir besoin parce que<…>"
66,134,Rêve 2,R3,Timéo ,,1,,,,1.0,,,,,,,,,,,,1.0,,,,,,,"Timéo : « Est-elle brune, blonde ou rousse ? <»>"
67,136,Rêve 2,R3,Clara ,,1,,,,1.0,,,,,,,,,,,,1.0,,,,,,,Clara : « Son regard est pareil au regard des statues.< »>Mais c'est bizarre… regarde. « Son regard / est pareil / au regard / des statues
68,136,Rêve 2,R3,Clara ,,1,,,,1.0,,,,,,,,,,,,,,,,1.0,,,Clara : « Son regard est pareil au regard des statues.  » Mais c'est bizarre… regarde. « Son regard / est pareil / au regard / des<statues>. »
69,139,Rêve 2,R3,FF1,,1,,,,1.0,,,,,,,,,1.0,,,,,,,,,,FF1 : « Son regard / est pareil / au regard des statues. <»>
70,141,Rêve 2,R3,Timéo ,,1,,,,1.0,,,,,,,,,,,,1.0,,,,,,,"Timéo : « D'une femme inconnue, et que j'aime, et qui m'aime <»>"
71,143,Rêve 2,R3,Clara,,1,,,,,,,1.0,,,,,,,1.0,,,,,,,,,"Clara : Mais Timéo, c'est pas toi, là<.>"
72,145,Rêve 2,R3,Timéo ,,1,,,,,,,1.0,,,,,,,1.0,,,,,,,,,Timéo : Mais je peux<regarder> ?
73,147,Rêve 2,R3,Clara ,,1,,,,,,,1.0,,,,,,,,,,,,,1.0,,,Clara : On fait pas que notre partie <?>
74,149,Rêve 2,R3,FF1,,1,,,,,,,1.0,,,,,,1.0,,,,,,,,,,"FF1 : Moi, je fais que ma partie<.>"
75,151,Rêve 2,R3,Clara ,,1,,,,,,,1.0,,,,,,1.0,,,,,,,,,,"Clara : Oui, moi<aussi.>"
76,153,Rêve 2,R3,FF1,,1,,,,,,,1.0,,,,,,,,,,,,1.0,,,,"FF1 : Du coup, le problème, c'est qu’on a que deux et pas trois<.>"
77,155,Rêve 2,R3,FF2,,1,,,,,,,1.0,,,,,,,,,,,,,1.0,,,FF2 :<De> ?
78,157,Rêve 2,R3,FF1,,1,,,,,,,1.0,,,,,,1.0,,,,,,,,,,"FF1 : Il faut trois façons de lire le poème. Enfin, pas façon de lire le poème, mais trois<…>"
79,159,Rêve 2,R3,FF1,,1,,1.0,,,,,,,,,,,1.0,,,,,,,,,,"(FF1) par exemple, là, on a « rime », et on monte le son sur le « hélas <».>"
80,161,Rêve 2,R3,FF1,,1,,1.0,,,,,,,,,,,1.0,,,,,,,,,,"(FF1) enfin, on a les rimes<…>"
81,163,Rêve 2,R3,Clara ,,1,,1.0,,,,,,,,,,,1.0,,,,,,,,,,"Clara : Oui, ternaires<.>"
82,165,Rêve 2,R3,FF1,,1,,1.0,,,,,,,,,,,1.0,,,,,,,,,,FF1 : Ternaires<.>
83,167,Rêve 2,R3,FF2,,1,,,,,,,1.0,,,,,,,,,,,,1.0,,,,"FF2 : Toi, tu peux faire le point d’exclamation<…>"
84,169,Rêve 2,R3,FF1,,1,,,,,,,1.0,,,,,,1.0,,,,,,,,,,"FF1 : Oui, c'est<ça>."
85,171,Rêve 2,R3,Clara ,,1,,1.0,,,,,,,,,,,1.0,,,,,,,,,,"Clara : Et là, il y a le point d’interrogation<.>"
86,173,Rêve 2,R3,FF2,,1,,,,,,,1.0,,,,,,,,,1.0,,,,,,,"FF2 : Oui, Timéo aussi, sauf que Clara et moi, on peut<pas.>"
87,176,Rêve 2,R3,Timéo ,,1,,,,,,,1.0,,,,,,,,,,1.0,,,,,,"Timéo : Mais madame, quand on va passer à l’oral<…>"
88,179,Rêve 2,R3,FF1,,1,,,,,,,1.0,,,,,,,,,,,,,1.0,,,"FF1 : Là, maintenant <?>"
89,182,Rêve 2,R3,Timéo ,,1,,,,,,,1.0,,,,,1.0,,,,,,,,,,,"Timéo : Ah, d'accord<.>"
90,184,Rêve 2,R3,Clara ,,1,,,,,,,1.0,,,,,,,,,,,,,1.0,,,"Clara : Mais madame, il faut faire plusieurs sortes<… ?>"
91,187,Rêve 2,R3,FF1,,1,,,,,,,1.0,,,,,,,,,,,,,1.0,,,FF1 : On arrive pas à choisir un troisièm<e.>
92,190,Rêve 2,R3,FF1,,1,1.0,,,,,,,,,,,,,,,,1.0,,,,,,"FF1:Par exemple, est-ce qu’on peut lire doucement parce que ça parle de rêve et qu’on trouve que c'est doux, les<rêves ?>"
93,193,Rêve 2,R3,FF1,,1,,,,,,,1.0,,,,,,,,1.0,,,,,,,,"FF1 : C’est bon, on en a trois<.>"
94,195,Rêve 2,R3,FF2,,1,,,,,,,1.0,,,,,,,,,,,,,,,1.0,"FF2 : Clara, tu commences <?>"
95,197,Rêve 2,R3,Clara ,,1,,,,,,,1.0,,,,,,,,,,,,,1.0,,,Clara : Je lis<ça ?>
96,199,Rêve 2,R3,FF2,,1,,,,,,,1.0,,,,,,,1.0,,,,,,,,,FF2 : Non<…>
97,201,Rêve 2,R3,FF2,,1,,,,,,,1.0,,,,,1.0,,,,,,,,,,,(FF2) Si<.>
98,203,Rêve 2,R3,FF1,,1,,,,,,,1.0,,,,,,,,,,,,1.0,,,,"FF1 : Du coup, il faut qu’il y ait une personne qui dise pourquoi on lit doucement, une personne qui dise le ternaire, et une personne qui explique le « hélas », enfin, pourquoi on a monté<…>"
99,205,Rêve 2,R3,FF2,,1,,,,,,,1.0,,,,,,,,,,,,,1.0,,,"FF2 : De toute façon, c'est déjà dedans<…>"
100,207,Rêve 2,R3,FF1,,1,,,,,,,1.0,,,,,,,1.0,,,,,,,,,"FF1 : Oui, mais la prof dit qu’il faut quand même l’expliquer à la fin<.>"
101,209,Rêve 2,R3,FF1,,1,,,,,,,1.0,,,,,,,,,,,,,1.0,,,"(FF1) Du coup, qui explique <?>"
102,211,Rêve 2,R3,FF1,,1,,,,,,,1.0,,,,,,,,,,,,1.0,,,,"(FF1) Et il faut qu’on s’entraîne, d'abor<d.>"
103,212,Rêve 2,R3,FF1,,1,,,,,,,1.0,,,,,,,,,,,,,,,1.0,
104,215,Rêve 2,R3,Clara ,,1,,,,1.0,,,,,,,,,1.0,,,,,,,,,,Clara : « Mon rêve familier : Je fais souvent/ ce rêve étrange/ et pénétrant / D'une femme inconnue/ et que j'aime/ et qui m'aime / Et qui n'est/ chaque fois/ ni tout à fait la même / Ni tout à fait une autre/ et m'aime/ et me<comprend>. »
105,217,Rêve 2,R3,FF1,,1,,,,1.0,,,,,,,,,1.0,,,,,,,,,,"FF1 : «  Car elle me comprend/ et mon coeur/ transparent / Pour elle seule/ hélas ! /cesse d'être un problème / Pour elle seule/ et les moiteurs/ de mon front blême , / Elle seule/ les sait rafraîchir/ en pleurant.  <»>"
106,219,Rêve 2,R3,Timéo ,,1,,,,1.0,,,,,,,,,1.0,,,,,,,,,,Timéo : «  Est-elle brune/ blonde ou rousse ? / - Je l'ignore. / Son nom ? / Je me souviens/ qu'il est doux et sonore / Comme ceux des aimés/ que la Vie exila. <»>
107,221,Rêve 2,R3,FF2,,1,,,,1.0,,,,,,,,,1.0,,,,,,,,,,"FF2 : « Son regard/ est pareil/ au regard des statues, / Et, pour sa voix/ lointaine, et calme/ et grave/ elle a l'inflexion/ des voix chères/ qui se sont tues . <»>"
108,223,Rêve 2,R3,FF1,,1,,,,,,,1.0,,,,,,,,1.0,,,,,,,,"FF1 : Ça va, en<vrai.>"
109,225,Rêve 2,R3,Timéo ,,1,,,,,,,1.0,,,,,,1.0,,,,,,,,,,"Timéo : Non, c'est bon<.>"
110,227,Rêve 2,R3,FF1,,1,,,,,,,1.0,,,,,,,,,,,,1.0,,,,"FF1 : Il faut expliquer, maintenan<t.>"
111,229,Rêve 2,R3,Timéo ,,1,,,,,,1.0,,,,,,,1.0,,,,,,,,,,"Timéo : Le ternaire, on a appelé ça, parce qu’on peut avoir trois pauses dans un vers<.>"
112,231,Rêve 2,R3,FF1,,1,,1.0,,,,,,,,,,,1.0,,,,,,,,,,FF1 : On a haussé la voix au « hélas » car il y avait un point d’exclamation<.>
113,233,Rêve 2,R3,FF2,,1,,1.0,,,,,,,,,,,1.0,,,,,,,,,,"FF2 : Et pour le point d’interrogation, on a fait rien<…>"
114,235,Rêve 2,R3,Timéo ,,1,,1.0,,,,,,,,,,,,1.0,,,,,,,,,Timéo : Si. On l’a fait<.>
115,237,Rêve 2,R3,Clara ,,1,,1.0,,,,,,,,,,,,,1.0,,,,,,,,Clara : Ça fait quatre<.>
116,239,Rêve 2,R3,FF2,,1,,,,,,,1.0,,,,,,,1.0,,,,,,,,,"FF2 : Oui, mais tu aurais dû dire les deux, du coup. Parce que, toi, c'est<l’intonation>."
117,241,Rêve 2,R3,FF1,,1,,,,,,,1.0,,,,,,,1.0,,,,,,,,,"FF1 : Pour le point d’interrogation et le point d’exclamation, on a mis de l’intonation<.>"
118,243,Rêve 2,R3,Clara ,,1,1.0,,,,,,,,,,,,1.0,,,,,,,,,,"Clara : Et on a décidé de lire lentement, parce que le rêve, c'est doux, calme<.>"
119,245,Rêve 2,R3,FF1,,1,,,,,,,1.0,,,,,,,,,,,,1.0,,,,"FF1 : Voilà. Mais maintenant, il faut faire vraiment. Là, on s’entraînait<.>"
120,247,Rêve 2,R3,FF2,,1,,,,,,,1.0,,,,,1.0,,,,,,,,,,,FF2 :<D’accord>.
121,249,Rêve 2,R3,FF1,,1,,,,,,,1.0,,,,,,,,,,,,,1.0,,,"FF1 : Moi, je suis pas sûre d’avoir mis de l’intonation au « hélas <».>"
122,251,Rêve 2,R3,Timéo ,,1,,,,,,,1.0,,,,,,,,,,,,,,,1.0,"Timéo : Oui, tu as fait « hélas <».>"
123,253,Rêve 2,R3,FF1,,1,,,,,,,1.0,,,,,,,1.0,,,,,,,,,FF1 : J’ai mis de l’intonation. J'ai<essayé>.
124,255,Rêve 2,R3,Timéo ,,1,,,,,,,1.0,,,,,,,1.0,,,,,,,,,"Timéo : Tu l’as bien dit, mais<…>"
125,257,Rêve 2,R3,FF1,,1,,,,,,,1.0,,,,,,,,,,,,,1.0,,,FF1 : Mais comment tu veux que je mette de l’intonation< ?>
126,259,Rêve 2,R3,Clara ,,1,,,,1.0,,,,,,,,,1.0,,,,,,,,,,Clara : « Hélas <! »>
127,261,Rêve 2,R3,FF1,,1,,,,,,,,1.0,,,,,,1.0,,,,,,,,,FF1 : Mais j'ai pas envie de crier dans la classe et qu’on m’entende sur tout le truc<…>
128,263,Rêve 2,R3,FF2,,1,,,,,,,1.0,,,,,,,,,,,,,,,1.0,FF2 : C’est pas grav<e.>
129,265,Rêve 2,R3,Clara ,,1,,,,1.0,,,,,,,,,,,,,,,,,,1.0,"Clara : Tu fais « hélas ! <»,>"
130,267,Rêve 2,R3,Clara,,1,,,,,,,1.0,,,,,,,,,,,,,,,1.0,"(Clara) genre pas trop fort, mais tu vois<…>"
131,269,Rêve 2,R3,FF1,,1,,,,1.0,,,,,,,,,1.0,,,,,,,,,,"FF1 : « Pour elle seule, hélas ! cesse d'être un problème <».>"
132,271,Rêve 2,R3,Timéo ,,1,,,,,,,1.0,,,,,,,,,,,,,,,1.0,"Timéo : Voilà, là, c'est bien<.>"
133,273,Rêve 2,R3,Clara ,,1,,,,,,,1.0,,,,,,,,,,,,1.0,,,,"Clara : On le fait vraiment, là <?>"
134,275,Rêve 2,R3,Timéo ,,1,,,,,,,1.0,,,,,,,,,,,,,,,1.0,"Timéo : Oui, vas-<y.>"
135,277,Rêve 2,R3,Clara ,,1,,,,,,,1.0,,,,,,,,,,,,,1.0,,,Clara : Mais on dit pas ça <?>
136,279,Rêve 2,R3,Timéo ,,1,,,,,,,1.0,,,,,,1.0,,,,,,,,,,Timéo : Non<.>
137,281,Rêve 2,R3,Clara ,,1,,,,,,,1.0,,,,,,,,,,,,,1.0,,,"Clara : Du coup, c'est vous trois qui<dites ?>"
138,283,Rêve 2,R3,FF1,,1,,1.0,,,,,,,,,,,,,,,,,,1.0,,,"FF1 : Je sais pas s’il faut le dire, parce que… mais en fait, la prof, je sais pas si c'est par rapport au vers, genre, qu’on peut couper en trois<…>"
139,285,Rêve 2,R3,FF1,,1,,1.0,,,,,,,,,,,1.0,,,,,,,,,,"(FF1) mais la prof, elle a dit que c'était Paul Verlain qui avait choisi<…>"
140,287,Rêve 2,R3,Clara ,,1,,,,,,1.0,,,,,,,1.0,,,,,,,,,,Clara : Verlaine<.>
141,289,Rêve 2,R3,FF1,,1,,1.0,,,,,,,,,,,1.0,,,,,,,,,,"FF1 : Verlaine, qu’on puisse couper en trois. Enfin, en ternaire<.>"
142,291,Rêve 2,R3,Timéo ,,1,,,,,,,1.0,,,,,,,,1.0,,,,,,,,Timéo : C’est fini. C'est bon<…>
143,293,Rêve 2,R3,Clara ,,1,,,,,,,1.0,,,,,,,1.0,,,,,,,,,"Clara : Mais non, on a pas<fait>."
144,295,Rêve 2,R3,FF1,,1,,,,,,,1.0,,,,,,,,,,,,,,,1.0,FF1 : On fait< ?>
145,297,Rêve 2,R3,Clara ,,1,1.0,,,,,,,,,,,,,,,,,,,,,1.0,"Clara : Vas-y, g<o.>"
146,300,Rêve 2,R3,Clara ,,1,,,,1.0,,,,,,,,,1.0,,,,,,,,,,<Clara : Clara : « Mon rêve familier : Je fais souvent/ ce rêve étrange/ et pénétrant / D'une femme inconnue/ et que j'aime/ et qui m'aime / Et qui n'est/ chaque fois/ ni tout à fait la même / Ni tout à fait une autre/ et m'aime/ et me comprend. »>
147,305,Rêve 2,R3,Timéo ,,1,,1.0,,,,,,,,,,,1.0,,,,,,,,,,"Timéo : Les ternaires, on a fait ça, parce qu’on pouvait avoir trois pauses dans un vers<.>"
148,307,Rêve 2,R3,FF1,,1,,1.0,,,,,,,,,,,1.0,,,,,,,,,,FF1 : On a monté l’intonation au point d’interrogation et au point d’exclamation<.>
149,309,Rêve 2,R3,Clara ,,1,1.0,,,,,,,,,,,,1.0,,,,,,,,,,"Clara : On a lu doucement, parce que le rêve, c'est quelque chose de doux et de<calme>."
150,311,Rêve 2,R3,FF1,,1,,,,,,,1.0,,,,,,,,1.0,,,,,,,,"FF1 : Voilà,<fini>."
