NProp,Ligne,Seance,Numero,NomEleve,Lycee,Poesie,C1,C2,C3,C3BIS,C4,C5,C6,C7,C8,C9,C10,E1,E2,E3,E4,E5,E6,E7,E8,E9,E10,E11,Text
1,2,Veston,V4,Kilyan ,,,,,,,,,1.0,,,,,,,,,,,,1.0,,,,"<Kilyan : Alors là, on va travailler sur la question : « Qu'est-ce qui fait que le narrateur a pris la bonne décision ? »>"
2,4,Veston,V4,Eva C ,,,,,,,,,1.0,,,,,1.0,,,,,,,,,,,<Eva C : D’accord.>
3,6,Veston,V4,Kilyan ,,,,,,,,,1.0,,,,,,1.0,,,,,,,,,,"<Kilyan : Et du coup, on a deux… Dans le groupe, on a deux opinions différents. Et du coup…>"
4,8,Veston,V4,Eva C ,,,,,,,,,1.0,,,,,1.0,,,,,,,,,,,"<Eva C : Il faut qu’on dise les arguments pour non, il faut qu’on dise les arguments pour oui.>"
5,10,Veston,V4,Kilyan ,,,,,,,,,1.0,,,,,1.0,,,,,,,,,,,<Kilyan : Oui.>
6,12,Veston,V4,Eva C ,,,,,,,,,1.0,,,,,,,,,,,,,1.0,,,"<Eva C : Vous avez quoi, déjà ?>"
7,14,Veston,V4,Maleika ,,,,,1.0,,,,,,,,,,1.0,,,,,,,,,,"<Maleika : Ben, c'est une bonne chose, car lorsqu’il avait le veston, dans la ville, il se passait quelque chose de mal, alors que, après, il ne s’est plus rien passé.>"
8,16,Veston,V4,Kilyan ,,,,,,,,,1.0,,,,,,1.0,,,,,,,,,,<Kilyan : Parle plus fort.>
9,18,Veston,V4,Eva C ,,,,,1.0,,,,,,,,,,1.0,,,,,,,,,,"<Eva C : Par contre, moi… Oui, mais après, du coup, il était en ruine. Enfin, il avait plus d’argent du tout.>"
10,20,Veston,V4,Ethan B ,,,,,,,,,1.0,,,,,,,,,,,,,1.0,,,<Ethan B : Est-ce que je lis mon texte ?>
12,23,Veston,V4,Eva C ,,,,,1.0,,,,,,,,,,1.0,,,,,,,,,,"<Eva C : Moi, je pense que s’il l’avait gardé, sans enlever de l’argent, ça aurait pas brûlé tout l’argent qu’il avait déjà pris. Du coup, c'est bien.>"
13,25,Veston,V4,Kilyan ,,,,,1.0,,,,,,,,,,1.0,,,,,,,,,,<Kilyan : Moi je dis que s’il aurait gardé sa veste sans retirer de l’argent et que tout ça…>
14,27,Veston,V4,Eva C,,,,,1.0,,,,,,,,,1.0,,,,,,,,,,,"<Eva C: Par contre, s’il avait gardé sa veste, moi je pense qu’il aurait dû arrêter de prendre de l’argent. Après, ça continue de tuer des gens. Lui, il avait déjà assez, pour toute la fin de sa vie.>"
15,29,Veston,V4,Ethan B ,,,,,1.0,,,,,,,,,,1.0,,,,,,,,,,"<Ethan B : Oui, mais il a ça sur la conscience, la mort des gens…>"
16,31,Veston,V4,Eva C ,,,,,1.0,,,,,,,,,,1.0,,,,,,,,,,"<Eva C : Au moins, les gens, ils sont pas morts pour rien…>"
17,33,Veston,V4,Kilyan ,,,,,1.0,,,,,,,,,,1.0,,,,,,,,,,"<Kilyan : Même s’il brûle la veste, les gens, ils sont morts.>"
18,35,Veston,V4,Ethan B ,,,,,1.0,,,,,,,,,,,1.0,,,,,,,,,<Ethan B : Ils reviennent peut-être…>
19,37,Veston,V4,Kilyan ,,,,,1.0,,,,,,,,,,,1.0,,,,,,,,,<Kilyan : Non.>
20,39,Veston,V4,Eva C ,,,,,1.0,,,,,,,,,1.0,,,,,,,,,,,"<Eva C : Ils sont pas revenus. Les gens, ils étaient quand même morts.>"
21,41,Veston,V4,Ethan B ,,,,,1.0,,,,,,,,,,,1.0,,,,,,,,,<Ethan B :Tu en sais rien.>
22,43,Veston,V4,Kilyan ,,,,,1.0,,,,,,,,,,,1.0,,,,,,,,,"<Kilyan : Moi, je pense qu’il aurait dû garder la veste sans retirer de l’argent.>"
24,46,Veston,V4,Eva C ,,,,,1.0,,,,,,,,,1.0,,,,,,,,,,,"<Eva C : Non, sans sortir de l’argent.>"
26,49,Veston,V4,Kilyan ,,,,,1.0,,,,,,,,,1.0,,,,,,,,,,,"<Kilyan : Oui, voilà.>"
27,51,Veston,V4,Eva C ,,,,,1.0,,,,,,,,,,,1.0,,,,,,,,,<Eva C : Ça tue encore des gens.>
28,53,Veston,V4,Kilyan ,,,,,1.0,,,,,,,,,1.0,,,,,,,,,,,"<Kilyan : Oui, c'est ce que j'ai dit.>"
29,55,Veston,V4,Ethan B ,,,,,,,,,1.0,,,,,,,,,,,,1.0,,,,"<Ethan B : Logiquement, on devait commencer par chacun lit son travail écrit…>"
30,57,Veston,V4,Kilyan ,,,,,,,,,1.0,,,,,1.0,,,,,,,,,,,"<Kilyan : Oui, c'est ce qu’on a fait.>"
31,59,Veston,V4,Eva C ,,,,,,,,,1.0,,,,,,,,,,,,1.0,,1.0,,"<Eva C : Quelqu'un a une feuille, s’il vous plaît ?>"
33,62,Veston,V4,Kilyan ,,,,,,,,,1.0,,,,,,,,,,,,,,,1.0,"<Kilyan : Vas-y, toi, dis ton argument.>"
35,65,Veston,V4,Ethan B ,,,,,1.0,,,,,,,,,,1.0,,,,,,,,,,"<Ethan B : Moi, je pense qu’il a pris la bonne décision, car sinon d’autres personnes vont mourir pour rien, par exemple la personne qui est mort au cambriolage de la banque, les deux pompiers pendant l’incendie et son ancienne voisine.>"
36,67,Veston,V4,Kilyan ,,,,,,,,,,1.0,,,,,,1.0,,,,,,,,,<Kilyan : Tu dis pas pourquoi… tu es trimard…>
37,69,Veston,V4,Ethan B ,,,,,1.0,,,,,,,,,,1.0,,,,,,,,,,"<Ethan B : Ils sont morts juste pour de l’argent, et c'est à cause du diable.>"
38,72,Veston,V4,Eva C ,,,,,,,,,1.0,,,,,,,,,,,,1.0,,,,"<Eva C : On va noter les plus gros arguments pour non. Notez pour oui, vous, enfin, les arguments que vous allez mettre. Essayez de trouver des bons arguments, comme ça, on a des bons arguments, mais de chaque point de vue.>"
39,74,Veston,V4,Ethan B ,,,,,,,,,1.0,,,,,,,,,,,,,1.0,,,"<Ethan B : Je sais pas, logiquement, c'est pour dire la même chose… c'est pour dire la suite.>"
40,76,Veston,V4,Kilyan ,,,,,,,,,,,,1.0,,,,1.0,,,,,,,,,<Kilyan : Il est guez ton argument…>
41,78,Veston,V4,Eva C ,,,,,,,,,1.0,,,,,,,1.0,,,,,,,,,"<Eva C : Non, on a dit qu’on pouvait faire deux points de vue différents.>"
42,80,Veston,V4,Ethan B ,,,,,,,,,1.0,,,,,,,,,,,,,1.0,,,<Ethan B : Ah bon ?>
43,82,Veston,V4,Eva C ,,,,,,,,,1.0,,,,,,1.0,,,,,,,,,,<Eva C : Oui.>
44,84,Veston,V4,Ethan B ,,,,,,,,,1.0,,,,,,,1.0,,,,,,,,,"<Ethan B : Non, on peut prendre des éléments de chacun…>"
45,86,Veston,V4,Eva C ,,,,,1.0,,,,,,,,,,1.0,,,,,,,,,,"<Eva C : Et non, qu'est-ce qu’on peut dire ? Car déjà il a perdu tout l’argent qu’il avait, il a plus de maison. Sa maison, elle est à vendre…>"
46,88,Veston,V4,Ethan B ,,,,,1.0,,,,,,,,,,1.0,,,,,,,,,,<Ethan B : Sa villa.>
47,90,Veston,V4,Kilyan ,,,,,1.0,,,,,,,,,,,1.0,,,,,,,,,"<Kilyan : Si, je crois, il l’a rachetée…>"
48,92,Veston,V4,Ethan B ,,,,,1.0,,,,,,,,,,,1.0,,,,,,,,,"<Ethan B : Non, il a encore sa maison, il a plus sa villa.>"
49,94,Veston,V4,Eva C ,,,,,1.0,,,,,,,,,,,,,,,,,1.0,,,<Eva C : Il a encore sa maison ?>
50,96,Veston,V4,Kilyan ,,,,,1.0,,,,,,,,,,1.0,,,,,,,,,,<Kilyan : Oui. Il a encore son emploi…>
51,98,Veston,V4,Ethan B ,,,,,1.0,,,,,,,,,,1.0,,,,,,,,,,"<Ethan B : Oui, mais il a plus d’argent…>"
52,100,Veston,V4,Kilyan ,,,,,1.0,,,,,,,,,1.0,,,,,,,,,,,<Kilyan : Oui.>
53,102,Veston,V4,Ethan B ,,,,,1.0,,,,,,,,,,,1.0,,,,,,,,,<Ethan B : Si. Autant que normal.>
54,104,Veston,V4,Eva C ,,,,,1.0,,,,,,,,,,,1.0,,,,,,,,,"<Eva C : Mais il aurait été plus heureux avec l’argent qu’il avait. Et puis là, ça veut dire que l’argent qu’il a sorti après, il y a eu des morts, du coup, les gens, ils sont vraiment morts pour rien, alors que là, du coup, s’il avait gardé la veste, ils seraient morts pour qu’il garde l’argent.>"
55,106,Veston,V4,Ethan B ,,,,,1.0,,,,,,,,,,,1.0,,,,,,,,,"<Ethan B : Oui, mais toi tu serais contente que tes proches meurent pour que quelqu'un gagne de l’argent…>"
56,108,Veston,V4,Eva C ,,,,,1.0,,,,,,,,,,1.0,,,,,,,,,,"<Eva C : Non, je serais pas contente.>"
57,110,Veston,V4,Ethan B ,,,,,1.0,,,,,,,,,,,,1.0,,,,,,,,<Ethan B : Ben voilà.>
58,113,Veston,V4,Kilyan ,,,,,1.0,,,,,,,,,1.0,,,,,,,,,,,"<Kilyan : Oui, parce que là, ils sont morts, en fait, tu peux plus rien faire.>"
59,115,Veston,V4,Ethan B ,,,,,1.0,,,,,,,,,1.0,,,,,,,,,,,"<Ethan B : Oui, il a conclu un pacte avec le diable.>"
60,117,Veston,V4,Kilyan ,,,,,1.0,,,,,,,,,,,1.0,,,,,,,,,"<Kilyan : Mais non, s’il arrête de tirer l’argent, c'est bon.>"
61,119,Veston,V4,Ethan B ,,,,,1.0,,,,,,,,,,,1.0,,,,,,,,,"<Ethan B : Non, les morts vont pas revenir à la vie…>"
62,121,Veston,V4,Eva C ,,,,,,,,,1.0,,,,,,,,,,,,1.0,,,,"<Eva C : Le but, là, c'est de mettre deux points de vue différents. Du coup, nous, on met non, vous, vous mettez oui. Dans tous les cas, trouvez des trucs pour vous.>"
63,123,Veston,V4,Kilyan ,,,,,,,,,,,,1.0,,,,,,,,,1.0,,,,"<Kilyan : Je crois on va devoir l’aider, il est con… Allez, écris.>"
64,126,Veston,V4,Kilyan ,,,,,,,,,1.0,,,,,,1.0,,,,,,,,,,"<Kilyan : De quoi ? Moi, du coup, j’aurais mis non, car…>"
65,128,Veston,V4,Eva C ,,,,,,,,,1.0,,,,,,,1.0,,,,,,,,,<Eva C : Tu as mis oui…>
66,130,Veston,V4,Kilyan ,,,,,,,,,1.0,,,,,,,,,,,,,1.0,,,"<Kilyan : En fait, je savais pas trop, j'ai mis oui, mais comme ça…>"
67,132,Veston,V4,Ethan B ,,,,,,,,,1.0,,,,,,,,,,,,,1.0,,,<Ethan B : Comme ça ? Ils ont tous mis oui.>
68,134,Veston,V4,Eva C ,,,,,1.0,,,,,,,,,,,1.0,,,,,,,,,"<Eva C : Non, moi j'ai mis non. S’il l’avait gardé sans retirer l’argent…>"
69,136,Veston,V4,Ethan B ,,,,,,,,,1.0,,,,,,,,,1.0,,,,,,,<Ethan B : Il faut qu’on fasse les arguments à plusieurs…>
70,138,Veston,V4,Kilyan ,,,,,,,,,1.0,,,,,,,1.0,,,,,,,,,"Kilyan : Mais non, vous, vous les faites entre<vous>…"
71,140,Veston,V4,Ethan B ,,,,,,,,,1.0,,,,,,,,,,,,,1.0,,,<Ethan B : Ah bon ?>
72,142,Veston,V4,Kilyan ,,,,,,,,,,,,1.0,,,,,,,,,,,,,"<Kilyan : J'ai mal aux pieds avec ces chaussures… je te jure, j’en peux plus. J'ai trop mal.>"
74,145,Veston,V4,Kilyan ,,,,,,,,,1.0,,,,,,,,,,,,,1.0,,,<Tu as écrit quoi ?>
75,147,Veston,V4,Eva C ,,,,,1.0,,,,,,,,,,1.0,,,,,,,,,,"<Eva C : S’il l’avait gardé sans retirer l’argent, ça aurait cessé de faire des morts, mais il aurait au moins gardé son argent d’avant, qu’il avait avant qu’il le brûle.>"
76,149,Veston,V4,Kilyan ,,,,,,,,,1.0,,,,,,,,,,,,,1.0,,,"<Kilyan : Là, du coup, il nous faut un argument chacun ?>"
77,151,Veston,V4,Eva C ,,,,,,,,,1.0,,,,,,,1.0,,,,,,,,,"<Eva C : Non, plus, au moins deux.>"
78,153,Veston,V4,Kilyan ,,,,,,,,,1.0,,,,,,,,,,,,,1.0,,,<Kilyan : Ah oui ?>
79,155,Veston,V4,Eva C,,,,,,,,,1.0,,,,,,,,1.0,,,,,,,,<Eva C: Je pense. On va dire ça.>
80,157,Veston,V4,Eva C ,,,,,,,,,1.0,,,,,,,,,,,,,,,1.0,"<Eva C : Tu as mis quoi, toi ?>"
81,159,Veston,V4,Kilyan ,,,,,,,,,1.0,,,,,,1.0,,,,,,,,,,"<Kilyan : Moi, j’ai rien mis. Moi j'avais mis oui, mais genre, je savais pas trop… j'ai mis oui parce que c'était le plus simple.>"
82,162,Veston,V4,Eva C ,,,,,,,,,1.0,,,,,,,,,,1.0,,,,,,<Eva C : Il faut trouver combien d’arguments ?>
83,165,Veston,V4,Ethan B ,,,,,,,,,1.0,,,,,,,,,,1.0,,,,,,<Ethan B : C’est-à-dire que là on doit faire le pour et le contre ?>
84,168,Veston,V4,Eva C ,,,,,,,,,1.0,,,,,,,,,,1.0,,,,,,"<Eva C : Il y a Kilyan aussi qui est contre. À la base, il avait mis oui, mais je sais pas…>"
85,170,Veston,V4,Kilyan ,,,,,,,,,1.0,,,,,,,,,,,,,1.0,,,"<Kilyan : Moi, je sais pas trop…>"
86,172,Veston,V4,Ethan B ,,,,,,,,,1.0,,,,,,,,,,1.0,,,,,,"<Ethan B : Mais si on dit le contraire à l’oral, ça aura pas beaucoup de sens…>"
87,175,Veston,V4,Eva C ,,,,,1.0,,,,,,,,,,,,,,1.0,,,,,,"<Eva C : Après, moi, je sais pas ce que j’aurais fait si j'avais été à sa place, parce que, là, de mon point de vue extérieur, je dis qu’il aurait pas dû le jeter, mais si j'avais été à sa place, peut-être que je l’aurais brûlé par respect pour les gens qui sont morts, je sais pas…>"
88,178,Veston,V4,Eva C ,,,,,1.0,,,,,,,,,,,,,,1.0,,,,,,<Eva C : A retirer de l’argent.>
89,181,Veston,V4,Kilyan ,,,,,1.0,,,,,,,,,,,,,,1.0,,,,,,<Kilyan : Vivre… pas dans la richesse… enfin…>
90,183,Veston,V4,Ethan B ,,,,,,1.0,,,,,,,,,,,,,1.0,,,,,,<Ethan B : « Le poids d’une trop grande fatalité. »>
91,186,Veston,V4,Ethan B ,,,,,,1.0,,,,,,,,,,,,,1.0,,,,,,"<Ethan B : Il dit : « Je savais que l’argent que le veston me procurait venait du crime, du sang, du désespoir, de la mort, venait de l’enfer. »>"
92,189,Veston,V4,Eva C ,,,,,1.0,,,,,,,,,,,,,,1.0,,,,,,<Eva C : Et il continue.>
93,192,Veston,V4,Kilyan ,,,,,1.0,,,,,,,,,,,,,,1.0,,,,,,"<Kilyan : Ah oui. Ben, il tue des gens…>"
94,194,Veston,V4,Kilyan ,,,,,,,,,,,,1.0,,,,,,1.0,,,,,,,"<Ah, hier, j’aurais pas dû aller courir, la réalité…>"
95,196,Veston,V4,Ethan B ,,,,,,,,,,,,1.0,,,1.0,,,,,,,,,,<Ethan B : Tu as couru ?>
96,198,Veston,V4,Kilyan ,,,,,,,,,,,,1.0,,,1.0,,,,,,,,,,"<Kilyan : Oui. C'est mon père qui me court après… je suis trop bien, j'ai eu dix tentatives.>"
97,200,Veston,V4,Ethan B ,,,,,,,,,,,,1.0,,,1.0,,,,,,,,,,<Ethan B : Comment tu as fait ?>
98,202,Veston,V4,Kilyan ,,,,,,,,,,,,1.0,,,1.0,,,,,,,,,,"<Kilyan : J’ai fini… tu vois, tu as des rangs, 100, 200… j'ai fait 100 tentatives.>"
99,204,Veston,V4,Ethan B ,,,,,,,,,,,,1.0,,,1.0,,,,,,,,,,<Ethan B : Tu as eu quoi ?>
100,206,Veston,V4,Kilyan ,,,,,,,,,,,,1.0,,,1.0,,,,,,,,,,"<Kilyan : Du coup, j'ai eu trois passes au-dessus… j'ai eu 4 passes méga. Et 100 000 crédits. Donc j'ai 2…>"
101,208,Veston,V4,Ethan B ,,,,,,,,,,,,1.0,,,1.0,,,,,,,,,,<Ethan B : Il y a combien de matchs ?>
102,210,Veston,V4,Kilyan ,,,,,,,,,,,,1.0,,,1.0,,,,,,,,,,<Kilyan : Je sais pas.>
103,212,Veston,V4,Ethan B ,,,,,,,,,,,,1.0,,,1.0,,,,,,,,,,"<Ethan B : En champion, tu as fait ?>"
105,214,Veston,V4,Kilyan ,,,,,1.0,,,,,,,,,,,,,,,,,1.0,,,"Kilyan : Je les ai faits en légende, genre en team. Et j'ai fait à peu près 70 matchs. Allez. Du coup, c'est<faux> ?"
106,217,Veston,V4,Eva C ,,,,,,,,,1.0,,,,,,,,,,,,1.0,,,,"<Eva C : Du coup, je mets oui, c'est plus simple. Comme ça, tout le monde met oui.>"
107,219,Veston,V4,Ethan B ,,,,,,,,,,1.0,,,,,1.0,,,,,,,,,,<Ethan B : Cool.>
109,222,Veston,V4,Ethan B ,,,,,,,,,1.0,,,,,,,,,,,,,1.0,,,"<Du coup, tu marques quoi ?>"
110,224,Veston,V4,Eva C ,,,,,,,,,1.0,,,,,,1.0,,,,,,,,,,"<Eva C : Je sais pas, il a raison.>"
111,226,Veston,V4,Kilyan ,,,,,,,,,1.0,,,,,1.0,,,,,,,,,,,"<Kilyan : Oui, c'est plus simple…>"
112,228,Veston,V4,Eva C ,,,,,,,,,1.0,,,,,1.0,,,,,,,,,,,<Eva C : Oui.>
113,230,Veston,V4,Ethan B ,,,,,,,,,,1.0,,,,,1.0,,,,,,,,,,<Ethan B : On t’a convaincue sans parler.>
114,232,Veston,V4,Eva C ,,,,,,,,,1.0,,,,,,,1.0,,,,,,,,,"<Eva C : Non, c'est que j'ai pas assez d’arguments pour le non.>"
115,234,Veston,V4,Ethan B ,,,,,,,,,1.0,,,,,,,,,,,,,1.0,,,<Ethan B : Tu en as assez pour le oui ?>
116,236,Veston,V4,Eva C ,,,,,,,,,1.0,,,,,,1.0,,,,,,,,,,"<Eva C : Le oui, on peut dire plein de trucs, le non, j'ai pas d’arguments, donc je vais dire oui…>"
117,238,Veston,V4,Ethan B ,,,,,,,,,1.0,,,,,,,,,,,,,,,1.0,"<Ethan B : Du coup, toi, tu es toujours non, ou pas ?>"
118,240,Veston,V4,Kilyan ,,,,,,,,,1.0,,,,,,1.0,,,,,,,,,,"<Kilyan : Non, du coup, je vais pas être tout seul…>"
119,242,Veston,V4,Eva C ,,,,,1.0,,,,,,,,,,,,,,,,,,,1.0,"<Eva C : Toi, tu penses non ou oui ?>"
120,244,Veston,V4,Kilyan ,,,,,,,,,1.0,,,,,,1.0,,,,,,,,,,"Kilyan : Du coup, c'est plus facile de dire<>…"
121,246,Veston,V4,Eva C ,,,,,,,,,1.0,,,,,,1.0,,,,,,,,,,<Eva C : Il sait pas.>
122,248,Veston,V4,Ethan B ,,,,,,,,,1.0,,,,,,,,,,,,,1.0,,,"<Ethan B : Du coup, on marque quoi ?>"
123,250,Veston,V4,Ethan B ,,,,,,,,,1.0,,,,,,,,,,,,,,,1.0,"<Toi, t’en penses quoi, Maleika ?>"
124,252,Veston,V4,Maleika ,,,,,1.0,,,,,,,,,,1.0,,,,,,,,,,<Maleika : Que c'est courageux.>
125,254,Veston,V4,Kilyan ,,,,,,,,,1.0,,,,,,,,,,,,,,,1.0,<Kilyan : Tu as mis quoi comme arguments ?>
126,256,Veston,V4,Maleika ,,,,,1.0,,,,,,,,,,1.0,,,,,,,,,,"<Maleika : Que maintenant il vit tranquillement, sans s’embêter avec le veston…>"
127,258,Veston,V4,Ethan B ,,,,,1.0,,,,,,,,,1.0,,,,,,,,,,,<Ethan B : Il est plus stressé…>
128,260,Veston,V4,Maleika ,,,,,1.0,,,,,,,,,1.0,,,,,,,,,,,"<Maleika : Oui. Au moins, il tue personne, quoi.>"
129,262,Veston,V4,Ethan B ,,,,,1.0,,,,,,,,,1.0,,,,,,,,,,,"<Ethan B : Il retire son argent avec du travail, du boulot, au lieu de prendre l’argent en enfer.>"
130,264,Veston,V4,Ethan B ,,,,,,,,,1.0,,,,,,,,,,,,1.0,,,,"<Il faut pas qu’on mette la même chose, si ? Parce que si on met la même chose, ça va être un peu répétitif…>"
131,266,Veston,V4,Eva C ,,,,,,,,,1.0,,,,,1.0,,,,,,,,,,,"<Eva C : Non, il faut pas qu’on mette la même chose.>"
132,268,Veston,V4,Ethan B ,,,,,,,,,1.0,,,,,,,1.0,,,,,,,,,<Ethan B : Mais on peut pas faire chacun de son côté…>
133,270,Veston,V4,Eva C ,,,,,,,,,1.0,,,,,,,1.0,,,,,,,,,"<Eva C : Parce que sinon, on va tous dire pareil. Il faut qu’on ait des arguments différents.>"
134,272,Veston,V4,Ethan B ,,,,,,,,,1.0,,,,,,1.0,,,,,,,,,,"<Ethan B : Oui, mais si on a des arguments un peu pareils ?>"
135,274,Veston,V4,Maleika ,,,,,,,,,1.0,,,,,,1.0,,,,,,,,,,<Maleika : Il faut se concerter.>
136,276,Veston,V4,Eva C ,,,,,,,,,1.0,,,,,,1.0,,,,,,,,,,"<Eva C : Oui, moi, je suis d'accord avec le tien.>"
137,278,Veston,V4,Ethan B ,,,,,,,,,1.0,,,,,,1.0,,,,,,,,,,"<Ethan B : La personne qui a le plus d’arguments, il en donne un peu à chacun.>"
138,280,Veston,V4,Kilyan ,,,,,,,,,,1.0,,,,,1.0,,,,,,,,,,"<Kilyan : Cherche un peu, toi…>"
139,282,Veston,V4,Ethan B ,,,,,,,,,1.0,,,,,,1.0,,,,,,,,,,"<Ethan B : J’ai marqué une phrase… elle est pas finie, mais…>"
140,284,Veston,V4,Eva C ,,,,,,,,,1.0,,,,,,1.0,,,,,,,,,,"<Eva C : Moi, j'ai deux arguments.>"
141,286,Veston,V4,Ethan B ,,,,,,,,,1.0,,,,,,,,,,,,,1.0,,,"<Ethan B : Est-ce que le truc que j'ai déjà fait avant, ça fait une argument ?>"
142,288,Veston,V4,Kilyan ,,,,,,,,,1.0,,,,,,1.0,,,,,,,,,,"<Kilyan : En fait, là, on a un peu tous le même…>"
143,290,Veston,V4,Ethan B ,,,,,,,,,1.0,,,,,1.0,,,,,,,,,,,<Ethan B : Ben ouais.>
144,292,Veston,V4,Eva C ,,,,,,,,,1.0,,,,,,,,,,,,,1.0,,1.0,"<Eva C : Tu as mis quoi, toi ?>"
146,295,Veston,V4,Kilyan ,,,,,1.0,,,,,,,,,,1.0,,,,,,,,,,"<Kilyan : Moi, j'ai mis : « Oui, parce que s’il ne l’avait pas brûlé, il aurait continué à prendre de l’argent, et d’autres personnes ou bâtiments seraient détruits. »>"
147,297,Veston,V4,Eva C ,,,,,1.0,,,,,,,,,1.0,,,,,,,,,,,"<Eva C : Ah oui, il y a les bâtiments…>"
148,299,Veston,V4,Ethan B ,,,,,,,,,1.0,,,,,,,,,,,,,1.0,,1.0,"<Ethan B : Toi, tu as mis quoi, Eva ?>"
150,302,Veston,V4,Eva C ,,,,,1.0,,,,,,,,,,1.0,,,,,,,,,,<Eva C : J’ai mis que comme ça il est plus stressé à l'idée de pas résister à la tentation de prendre de l’argent et de tuer d’autres personnes.>
151,305,Veston,V4,Ethan B ,,,,,,,,,1.0,,,,,,,,,,,,,1.0,,1.0,"<Ethan B : Et tu as mis quoi, toi, Maleika ?>"
153,309,Veston,V4,Eva C ,,,,,,,,,1.0,,,,,,,,,,1.0,,,,,,<Eva C : On a tous des arguments…>
154,311,Veston,V4,Kilyan ,,,,,,,,,,,,1.0,,,,,,,,,,,,,"<Kilyan : Non, Ethan, tu as abusé… c'est avec un T, tu es censé le savoir. Sale trimard.>"
156,315,Veston,V4,Kilyan ,,,,,,,,,,,,1.0,,,,,,,,,,,,,Kilyan : Ben<oui>…
157,317,Veston,V4,Eva C ,,,,,,,,,,,,1.0,,,,,,,,,,,,,Eva C : Tu as dit<quoi>
159,320,Veston,V4,Kilyan ,,,,,,,,,,,,1.0,,,,,,,,,,,,,"Kilyan : Tu es pas intelligent,<Ethan>…"
160,322,Veston,V4,Ethan B ,,,,,,,,,,,,1.0,,,,,,,,,,,,,"Ethan B : Tu as des encouragements au trimestre ? Ta gueule. Moi, je les<ai>eus."
161,324,Veston,V4,Eva C ,,,,,,,,,,,,1.0,,,,,,,,,,,,,Eva C : C’est pour<les>nuls.
162,326,Veston,V4,Kilyan ,,,,,,,,,,,,1.0,,,,,,,,,,,,,"<Kilyan : Non, j'ai pas eu les encouragements. Pas le truc des félicitations, mais en dessous, là, les compliments…>"
163,328,Veston,V4,Ethan B ,,,,,,,,,,,,1.0,,,,,,,,,,,,,"<Ethan B : « On m’a complimenté », bien joué.>"
164,330,Veston,V4,Kilyan ,,,,,,,,,,,,1.0,,,,,,,,,,,,,"<Kilyan : Ils ont dit que je faisais trop de matières, c'est logique que c'est guez… Qui c'est qui sait parler l’anglais et l’espagnol… ?>"
165,332,Veston,V4,Eva C ,,,,,,,,,1.0,,,,,,,,,,,,,,,1.0,<Eva C : Tu as combien d’arguments ?>
166,334,Veston,V4,Maleika ,,,,,,,,,1.0,,,,,,1.0,,,,,,,,,,"<Maleika : J’en ai trois, non quatre.>"
167,336,Veston,V4,Eva C ,,,,,,,,,1.0,,,,,,1.0,,,,,,,,,,"<Eva C : Moi, j’en ai que deux.>"
168,338,Veston,V4,Kilyan ,,,,,,,,,1.0,,,,,,,1.0,,,,,,,,,"<Kilyan : Tu en as deux ? Non, tu en as trois.>"
169,340,Veston,V4,Eva C ,,,,,,,,,1.0,,,,,,,1.0,,,,,,,,,"<Eva C : Non, mais lui, il est avec lui, en fait. C'est un peu le même.>"
170,342,Veston,V4,Ethan B ,,,,,,,,,1.0,,,,,,1.0,,,,,,,,,,"<Ethan B : Moi, j’en ai deux.>"
171,344,Veston,V4,Kilyan ,,,,,,,,,1.0,,,,,,1.0,,,,,,,,,,"<Kilyan : Moi, j’en ai un.>"
172,346,Veston,V4,Eva C ,,,,,,,,,1.0,,,,,,1.0,,,,,,,,,,<Eva C : Trouves-en d’autres.>
174,349,Veston,V4,Ethan B ,,,,,,,,,1.0,,,,,,1.0,,,,,,,,,,"<Ethan B : Mais sinon, j’en ai un autre avec celui… On fait chacun son tour ou on fait quoi ?>"
175,351,Veston,V4,Kilyan ,,,,,,,,,1.0,,,,,,1.0,,,,,,,,,,"<Kilyan : Oui, c'est mieux, on va pas parler en même temps.>"
176,353,Veston,V4,Ethan B ,,,,,,,,,1.0,,,,,,1.0,,,,,,,,,,"<Ethan B : C’est qui le premier, du coup ?>"
177,355,Veston,V4,Eva C ,,,,,,,,,1.0,,,,,,,,,,,,,1.0,,,<Eva C : Je sais pas.>
179,358,Veston,V4,Ethan B ,,,,,,,,,1.0,,,,,,1.0,,,,,,,,,,<Ethan B : Quelqu’un qui a l'habitude oralement…>
180,360,Veston,V4,Eva C ,,,,,,,,,,1.0,,,,,1.0,,,,,,,,,,<Eva C : Arrête…>
181,362,Veston,V4,Ethan B ,,,,,,,,,,1.0,,,,,1.0,,,,,,,,,,<Ethan B : Une personne qui sait parler en public sans…>
182,364,Veston,V4,Eva C ,,,,,,,,,,1.0,,,,,1.0,,,,,,,,,,<Eva C : Toi aussi tu parles en public.>
183,367,Veston,V4,Kilyan ,,,,,,,,,1.0,,,,,,,,,,1.0,,,,,,<Kilyan : Non.>
184,369,Veston,V4,Eva C ,,,,,,,,,1.0,,,,,,,,,,1.0,,,,,,"<Eva C : A peu près, mais c'est qu’on n’a pas tous le même nombre d’arguments.>"
185,372,Veston,V4,Eva C ,,,,,,,,,1.0,,,,,,,,,,1.0,,,,,,"<Eva C : Maleika, elle en a quatre.>"
186,375,Veston,V4,Ethan B ,,,,,,,,,1.0,,,,,,,,,,1.0,,,,,,"<Ethan B : Un argument, ça fait combien de… ? C'est long, un argument ?>"
187,378,Veston,V4,Ethan B ,,,,,,,,,1.0,,,,,,,,,,1.0,,,,,,"<Ethan B : Moi, il y en a un peu plusieurs dans chaque…>"
188,383,Veston,V4,Ethan B ,,,,,1.0,,,,,,,,,,,,,,1.0,,,,,,"<Ethan B : Oui, à chaque fois, c'est avec le diable.>"
189,386,Veston,V4,Ethan B ,,,,,,,1.0,,,,,,,,,,,,,,,1.0,,,"<Ethan B : C’est quoi, « Méphistophélès »…>"
190,388,Veston,V4,Eva C ,,,,,,,,,1.0,,,,,,,,,,1.0,,,,,,"<Eva C : On devra parler de Faust, du coup ?>"
191,391,Veston,V4,Ethan B ,,,,,,,,,1.0,,,,,,,,,1.0,,,,,,,"<Ethan B : OK. Du coup, qui passe en premier ?>"
192,393,Veston,V4,Kilyan ,,,,,,,,,1.0,,,,,,1.0,,,,,,,,,,"<Kilyan : Moi, je veux bien, mais j'ai qu’un argument.>"
193,395,Veston,V4,Ethan B ,,,,,,,,,,1.0,,,,,1.0,,,,,,,,,,<Ethan B : On sait tous qui va passer en premier…>
194,397,Veston,V4,Kilyan ,,,,,,,,,1.0,,,,,,1.0,,,,,,,,,,<Kilyan : Au pire quelqu'un pourra me donner son argument…>
195,399,Veston,V4,Ethan B ,,,,,,,,,1.0,,,,,,1.0,,,,,,,,,,"<Ethan B : Et encore je sais même pas s’il y en a plusieurs pour chacun… Moi, un argument, il y en a trois dedans… Du coup, Eva, tu passes la première ?>"
196,401,Veston,V4,Kilyan ,,,,,,,,,1.0,,,,,,1.0,,,,,,,,,,<Kilyan : Il faudrait qu’on ait minimum deux arguments chacun…>
197,403,Veston,V4,Ethan,,,,,,,,,1.0,,,,,,1.0,,,,,,,,,,"<Ethan B : Oui, c'est ce que j'ai fait, je crois. Il y en a plusieurs.>"
198,405,Veston,V4,Kilyan ,,,,,,,,,1.0,,,,,,1.0,,,,,,,,,,<Kilyan : Et il faut pas qu’on ait les mêmes.>
199,407,Veston,V4,Ethan B ,,,,,,,,,1.0,,,,,,,,,,,,,1.0,,,<Ethan B : Je sais pas à partir de quand ça fait un argument.>
200,409,Veston,V4,Ethan B ,,,,,,,,,1.0,,,,,,1.0,,,,,,,,,,"<Du coup, Eva, tu passes en première, Maleika, tu veux bien passer en deuxième ? Kylian en troisième…>"
201,411,Veston,V4,Eva C ,,,,,1.0,,,,,,,,,,1.0,,,,,,,,,,"<Eva C : L’argent qu’il avait, qu’il retirait, c'était souvent l’argent, par exemple… le premier, c'était une banque. Donc si, par exemple, la police, je sais pas, ou quelqu'un avait par hasard trouvé son argent qu’il cachait, c'était pile poil les 50 millions, ça veut dire qu’il aurait pu aller en prison, parce qu’il aurait été très suspect. Du coup, il a bien fait de le brûler, comme ça, il y a plus de preuves contre lui.>"
202,413,Veston,V4,Kilyan ,,,,,1.0,,,,,,,,,1.0,,,,,,,,,,,<Kilyan : Ah ouais…>
203,415,Veston,V4,Ethan B ,,,,,1.0,,,,,,,,,,,,,,,,,1.0,,,"<Ethan B : Si ça se trouve, les gens, ils sont revenus à la vie. On en sait rien, c'est pas marqué. Mais je pense pas, quand même… Je pense que ses associés de boulot…>"
204,417,Veston,V4,Kilyan ,,,,,,,,,,,,1.0,,,,,,,,,,,,,<Kilyan : J’ai mal au pied… j'ai trop mal.>
205,419,Veston,V4,Ethan B ,,,,,1.0,,,,,,,,,,1.0,,,,,,,,,,"<Ethan B : Je pense que ses associés au boulot étaient pas surpris de le revoir revenir travailler, c'est comme si c'était normal. Comme si, là, le jour d’avant. Comme si rien ne s’était passé, mais lui il avait vraiment douillé.>"
206,421,Veston,V4,Kilyan,,,,,,,,,1.0,,,,,,,,,,,,1.0,,,,"<Kilyan, tu veux passer en troisième ou en quatrième ?>"
208,426,Veston,V4,Kilyan ,,,,,,,,,,1.0,,,,,1.0,,,,,,,,,,<Kilyan : Je m’en fous.>
209,428,Veston,V4,Ethan B ,,,,,,,,,1.0,,,,,,1.0,,,,,,,,,,"<Ethan B : Moi, je veux bien passer avant-dernier, vu que j'ai un peu plus d’arguments que toi.>"
210,430,Veston,V4,Kilyan ,,,,,,,,,1.0,,,,,,1.0,,,,,,,,,,"<Kilyan : Moi, il faut pas que je reste avec un seul argument…>"
211,432,Veston,V4,Ethan B ,,,,,,1.0,,,,,,,,,1.0,,,,,,,,,,"<Ethan B : « Oui, parce que désormais »…>"
212,434,Veston,V4,Kilyan ,,,,,,,,,1.0,,,,,,1.0,,,,,,,,,,<Kilyan : Il faudrait qu’on ait le même nombre d’arguments.>
213,436,Veston,V4,Ethan B ,,,,,,,,,1.0,,,,,,,1.0,,,,,,,,,"<Ethan B : Ah oui, mais un argument, tu mets pas ça…>"
214,438,Veston,V4,Kilyan ,,,,,,,,,,1.0,,,,,,1.0,,,,,,,,,"<Kilyan : Mais si. Toi, tu écoutes pas ou quoi…>"
215,440,Veston,V4,Ethan B ,,,,,,,,,,1.0,,,,,1.0,,,,,,,,,,"<Ethan B : C’est bizarre, mais à l’oral, tu vas devoir lire « trois petits points »…>"
216,442,Veston,V4,Ethan B ,,,,,,,,,,,,1.0,,,,,,1.0,,,,,,,"La tablette, elle est<tombée>…"
217,444,Veston,V4,Ethan B ,,,,,1.0,,,,,,,,,,,,,,,,1.0,,,,"<En vrai, du coup, je pense que ça a un rapport avec le mythe de Faust parce que, genre, les deux, ils font un pacte avec le diable.>"
218,446,Veston,V4,Kilyan ,,,,,1.0,,,,,,,,,,1.0,,,,,,,,,,"<Kilyan : Ça, c'est déjà un mythe de Faust…>"
220,449,Veston,V4,Ethan B ,,,,,1.0,,,,,,,,,,1.0,,,,,,,,,,"<Ethan B : Alors que le mythe de Faust, lui, c'est par l’intermédiaire du démon Méphistophélès. Alors que le texte, c'est…>"
222,452,Veston,V4,Kilyan ,,,,,,,,,1.0,,,,,,,,,1.0,,,,,,,"<Kilyan : Du coup, là, tu as trois arguments ?>"
223,454,Veston,V4,Eva C ,,,,,1.0,,,,,,,,,,1.0,,,,,,,,,,"<Eva C : Oui, là, j’en ai trois. Mais moi, je pense qu’il y a un rapport, parce que, au début, il a une vie monotone, un peu comme… comment il s’appelle ? Le monsieur, là… enfin, je sais pas s’il avait une vie monotone, mais enfin, il avait une vie normale…>"
224,457,Veston,V4,Eva C ,,,,,1.0,,,,,,,,,,1.0,,,,,,,,,,"<Eva C : Et après, il fait un truc magique qui fait qu’il est plus heureux qu’avant, mais du coup, ça a un impact sur les autres, parce que là, pendant douze ans, il s’amuse aux dépens des autres. Comme lui, il tue des gens… c'est un peu pareil, du coup.>"
225,459,Veston,V4,Kilyan ,,,,,1.0,,,,,,,,,1.0,,,,,,,,,,,"<Kilyan : Oui, j’avoue.>"
226,461,Veston,V4,Eva C ,,,,,1.0,,,,,,,,,,1.0,,,,,,,,,,"<Eva C : Et une fois que l’heure est arrivée, une fois que lui il brûle en gros son veston, et que lui il a passé ses douze ans…>"
227,463,Veston,V4,Ethan B ,,,,,1.0,,,,,,,,,,,,,,,,,1.0,,,"<Ethan B : C’est qui, « lui » ?>"
228,465,Veston,V4,Eva C ,,,,,1.0,,,,,,,,,,1.0,,,,,,,,,,"<Eva C : Eh ben, il revient à la réalité, mais il y a le diable qui arrive, et là… et là… Enfin, c'est pas le diable qui arrive, mais du coup, il reprend sa vie normale, mais c'est encore pire qu’avant. Parce qu’il doit reprendre le travail…>"
229,467,Veston,V4,Ethan B ,,,,,1.0,,,,,,,,,,,1.0,,,,,,,,,"<Ethan B : Non, c'est pas pire qu’avant.>"
230,469,Veston,V4,Kilyan ,,,,,1.0,,,,,,,,,1.0,,,,,,,,,,,"<Kilyan : Non, c'est pareil.>"
231,471,Veston,V4,Eva C ,,,,,1.0,,,,,,,,,,,1.0,,,,,,,,,<Eva C : Si parce que…>
232,473,Veston,V4,Kilyan ,,,,,1.0,,,,,,,,,1.0,,,,,,,,,,,"<Kilyan : Ah oui, du coup, il part de rien du tout, vu qu’il a plus d’argent…>"
233,475,Veston,V4,Ethan B ,,,,,1.0,,,,,,,,,,,1.0,,,,,,,,,"<Ethan B : Mais non, il garde la petite somme qu’il avait…>"
234,477,Veston,V4,Eva C ,,,,,1.0,,,,,,,,,,,,,,,,,1.0,,,"<Eva C : En fait, est-ce qu’il a retrouvé vraiment sa maison ?>"
235,479,Veston,V4,Ethan B ,,,,,1.0,,,,,,,,,,1.0,,,,,,,,,,<Ethan B : Ben oui…>
236,481,Veston,V4,Eva C ,,,,,1.0,,,,,,,,,,,,,,,,,1.0,,,<Eva C : C’est pas la villa qui est à vendre…>
237,483,Veston,V4,Ethan B ,,,,,,1.0,,,,,,,,,1.0,,,,,,,,,,"<Ethan B : Une fois, dans le texte, il a dit qu’il l’avait gardée, genre… « sans quitter mon ancien appartement (pour ne pas attirer l’attention), je m’étais acheté en peu de temps... »>"
238,485,Veston,V4,Eva C ,,,,,,1.0,,,,,,,,,1.0,,,,,,,,,,"<Eva C : « Mes comptes en banque, je ne pus m’expliquer comment, étaient complètement épuisés. »>"
239,487,Veston,V4,Ethan B ,,,,,,,,,,1.0,,,,,,1.0,,,,,,,,,<Ethan B : Mais laisse-moi parler…>
240,489,Veston,V4,Eva C ,,,,,1.0,,,,,,,,,,,,,1.0,,,,,,,"<Eva C : Ça veut dire, là, il repart de rien, il doit reprendre le travail et tout, donc… Oui, je pense que c'est ça le rapport, mais c'est un peu compliqué à expliquer… surtout à l’écrit.>"
241,491,Veston,V4,Ethan B ,,,,,,,,,1.0,,,,,,,,,,,,,,,1.0,"<Ethan B : Oui, tu disais ?>"
242,493,Veston,V4,Eva C ,,,,,1.0,,,,,,,,,,1.0,,,,,,,,,,"<Eva C : En gros, les deux, quand ils font une sorte de pacte, ils s’amusent…>"
243,495,Veston,V4,Ethan B ,,,,,1.0,,,,,,,,,,,,,,,,,1.0,,,<Ethan B : Qui ?>
244,497,Veston,V4,Eva C ,,,,,1.0,,,,,,,,,,1.0,,,,,,,,,,"<Eva C : Enfin, ils sont heureux grâce au malheur des autres…>"
245,499,Veston,V4,Kilyan ,,,,,1.0,,,,,,,,,,1.0,,,,,,,,,,"<Kilyan : Ils sont heureux, mais sans savoir le malheur des autres… enfin…>"
246,501,Veston,V4,Eva C ,,,,,1.0,,,,,,,,,,,1.0,,,,,,,,,"<Eva C : Lui, il savait.>"
247,503,Veston,V4,Ethan B ,,,,,1.0,,,,,,,,,,1.0,,,,,,,,,,"<Ethan B : Mais si c'est quelqu'un qu’ils connaissent, ils sont un peu moins contents.>"
248,505,Veston,V4,Kilyan ,,,,,1.0,,,,,,,,,,,1.0,,,,,,,,,"<Kilyan : Oui, mais il savait pas trop que… au tout début…>"
249,507,Veston,V4,Eva C ,,,,,1.0,,,,,,,,,,,1.0,,,,,,,,,"<Eva C : Non, parce que je crois qu’ils ont pas d’amis.>"
250,509,Veston,V4,Ethan B ,,,,,1.0,,,,,,,,,,,,,,,,,1.0,,,<Ethan B : Ils ont pas d’amis ?>
251,511,Veston,V4,Kilyan ,,,,,,,,,1.0,,,,,,,,,1.0,,,,,,,"<Kilyan : Ethan… Il y a pas moyen que quelqu'un me donne un argument, parce que j’en ai qu’un ?>"
252,513,Veston,V4,Eva C ,,,,,,,,,1.0,,,,,,1.0,,,,,,,,,,"<Eva C : Après, ça, on est pas obligés de l’écrire parce que c'est un peu compliqué, mais on pourra le dire à l’improvisation… à l’improviste.>"
253,515,Veston,V4,Ethan B ,,,,,,,,,1.0,,,,,,1.0,,,,,,,,,,"<Ethan B : Du coup, tu passes en dernier à l’oral ?>"
254,517,Veston,V4,Kilyan ,,,,,,,,,1.0,,,,,,1.0,,,,,,,,,,"<Kilyan : Je veux bien, mais j'ai qu’un argument, ça fait trimard un peu…>"
255,519,Veston,V4,Eva C ,,,,,,,,,1.0,,,,,,1.0,,,,,,,,,,"<Eva C : Trouves-en un autre… Sinon, c'est toi qui devras parler de ça…>"
256,522,Veston,V4,Ethan B ,,,,,1.0,,,,,,,,,,,,,,,,,1.0,,,Ethan B : « Quel est le<rapport> ? »
257,524,Veston,V4,Eva C ,,,,,,,,,1.0,,,,,,,,,,,,,,,1.0,<Eva C : Tu as encore un argument ?>
258,526,Veston,V4,Maleika ,,,,,,,,,1.0,,,,,,1.0,,,,,,,,,,<Maleika : Oui.>
259,528,Veston,V4,Eva C ,,,,,,,,,1.0,,,,,,1.0,,,,,,,,,,"<Eva C : Est-ce que tu peux en donner à Kilyan ? S’il te plaît, il a un truc à dire…>"
260,530,Veston,V4,Kilyan ,,,,,,,,,1.0,,,,,,1.0,,,,,,,,,,"<Kilyan : Il faudrait qu’on ait le même nombre d’arguments, parce que si toi t’en as douze et qu’elle, elle en a huit, et toi tu en as quatorze…>"
261,532,Veston,V4,Eva C ,,,,,,,,,1.0,,,,,,,1.0,,,,,,,,,"<Eva C : Non, j’en ai quatre. Non, j’en ai trois.>"
262,534,Veston,V4,Ethan B ,,,,,,,,,,1.0,,,,,1.0,,,,,,,,,,<Ethan B : Deux… Pourquoi vous allez dehors ?>
263,536,Veston,V4,Eva C ,,,,,,,,,1.0,,,,,,1.0,,,,,,,,,,"<Eva C : Kilyan, tu vas lire ça.>"
264,538,Veston,V4,Kilyan ,,,,,,,,,1.0,,,,,,,,,,,,,1.0,,,<Kilyan : De quoi ?>
265,540,Veston,V4,Eva C ,,,,,,,,,1.0,,,,,,1.0,,,,,,,,,,"<Eva C : « Avant d’utiliser l’argent, il aurait dû réfléchir, car... »>"
266,542,Veston,V4,Ethan B ,,,,,,,,,1.0,,,,,,1.0,,,,,,,,,,<Ethan B : Réécris sur ta feuille…>
267,544,Veston,V4,Eva C ,,,,,1.0,,,,,,,,,,1.0,,,,,,,,,,"<Eva C : Ça veut dire, il a utilisé l’argent sans réfléchir…>"
268,546,Veston,V4,Ethan B ,,,,,,,,,,,,1.0,,,,,,,,,,,,,<Ethan B : Tu as deux neurones…>
269,549,Veston,V4,Ethan B ,,,,,,,,,,,,1.0,,,,,,,,,,,,,"Ethan B : Tu prends un crayon, je sais pas lequel, tu prends ça, tu te le mets… il est<tombé>."
270,551,Veston,V4,Kilyan ,,,,,,,,,,,,1.0,,,,,,,,,,,,,"<Kilyan : Putain, j'ai même pas de stylo… Envoie ton stylo, sale con…>"
271,553,Veston,V4,Ethan B ,,,,,,,,,,,,1.0,,,,,,,,,,,,,<Ethan B : Tu veux un crayon à papier ? Regarde.>
272,555,Veston,V4,Kilyan ,,,,,,,,,,,,1.0,,,,,,,,,,,,,"<Kilyan : C’est bon, arrête de m’abuser.>"
273,557,Veston,V4,Eva C ,,,,,,,,,1.0,,,,,,,,,,,,1.0,,,,<Eva C : Montrez vos recherches sur le mythe de Faust.>
274,560,Veston,V4,Eva C ,,,,,,,,,,,,1.0,,,,,,,,,,,,,"Eva C : Si, mais il marche<pas>."
276,564,Veston,V4,Eva C ,,,,,,,,,,,,1.0,,,,,,,,,,,,,"Eva C : Désolé, il y a le<Covid>."
277,566,Veston,V4,Kilyan ,,,,,,,,,,,,1.0,,,,,,,,,,,,,Kilyan :<Vraiment>… C
278,568,Veston,V4,Eva C ,,,,,,,,,1.0,,,,,,,,,,,,,,,1.0,Eva C : Fais voir tes recherches sur le mythe de<Faust>.
279,570,Veston,V4,Kilyan,,,,,,,,,,1.0,,,,,1.0,,,,,,,,,,"<Kilyan : Moi, j'ai écrit ce déchet, là… j'ai écrit ça.>"
280,572,Veston,V4,Ethan B ,,,,,,,,,1.0,,,,,,,,,,,,,,,1.0,<Ethan B : Fais voir.>
281,574,Veston,V4,Eva C ,,,,,,,,,1.0,,,,,,,1.0,,,,,,,,,"<Eva C : « Faust est le héros d’un conte populaire allemand... » Mais tu ne discutes pas, en fait…>"
282,576,Veston,V4,Kilyan ,,,,,,,,,1.0,,,,,,,1.0,,,,,,,,,"<Kilyan : Mais je m’en fous, genre, c'est la première page…>"
283,578,Veston,V4,Eva C ,,,,,,,,,,1.0,,,,,,,,,,,,,,,"<Eva C : Fais attention, tu viens de dire que tu t’en foutais… t’es enregistré, Kilyan…>"
285,581,Veston,V4,Kilyan ,,,,,,,,,,,,1.0,,,,,,,,,,,,,"<Kilyan : Oui, et alors ? Je m’en bats les couilles…>"
287,584,Veston,V4,Ethan B ,,,,,,,,,1.0,,,,,,,,,,,,,,,,"<Ethan B : Allez, réécris.>"
289,587,Veston,V4,Eva C ,,,,,,,,,1.0,,,,,,,,,1.0,,,,,,,"<Eva C : Ethan, fais voir tes recherches.>"
290,590,Veston,V4,Ethan B ,,,,,,,,,1.0,,,,,,,,,,,,,1.0,,,<Ethan B : Lesquelles ?>
291,592,Veston,V4,Eva C ,,,,,,,,,1.0,,,,,,1.0,,,,,,,,,,<Eva C : Sur Faust.>
292,594,Veston,V4,Ethan B ,,,,,,,,,,1.0,,,,,1.0,,,,,,,,,,"<Ethan B : Après, c'est pas compliqué, j'ai cherché sur Google, j'ai tapé « le mythe de Faust », il y avait écrit un truc.>"
293,596,Veston,V4,Kilyan ,,,,,,,,,1.0,,,,,,1.0,,,,,,,,,,"<Kilyan : Je crois, on a écrit la même…>"
294,598,Veston,V4,Ethan,,,,,,,,,1.0,,,,,,1.0,,,,,,,,,,"<Ethan B : Tu as écrit où, toi ? Fais voir.>"
295,600,Veston,V4,Kilyan ,,,,,,,,,1.0,,,,,,1.0,,,,,,,,,,<Kilyan : On a peut-être fait la même.>
296,602,Veston,V4,Ethan B ,,,,,,,,,,,,1.0,,,1.0,,,,,,,,,,"<Ethan B : « C’est un héros du conte populaire... » Comment tu écris « allemand », frère… « allemand », c'est « ALLEMEND » pour toi… ?>"
297,604,Veston,V4,Kilyan ,,,,,,,1.0,,,,,,,,1.0,,,,,,,,,,<Kilyan : Oui.>
298,606,Veston,V4,Eva C ,,,,,,,,,1.0,,,,,,1.0,,,,,,,,,,"<Eva C : Fais voir, Ethan…>"
299,608,Veston,V4,Ethan B ,,,,,,,,,,,,1.0,,,1.0,,,,,,,,,,"<Ethan B : Regarde comment il a écrit « allemand »… première ligne, tout à la fin de la ligne.>"
301,612,Veston,V4,Kilyan ,,,,,,,1.0,,,,,,,,,,,,,,,1.0,,,<Kilyan : C’est pas comme ça ?>
302,614,Veston,V4,Ethan B ,,,,,,,1.0,,,,,,,,1.0,,,,,,,,,,"<Ethan B : C’est pas avec un « E », c'est avec un « A », comme ça.>"
303,616,Veston,V4,Kilyan ,,,,,,,1.0,,,,,,,,,,,,,,,1.0,,,"<Kilyan : Ah oui, vraiment ?>"
304,618,Veston,V4,Ethan B ,,,,,,,,,,,,1.0,,,1.0,,,,,,,,,,"<Ethan B : « Allemand », c'est avec un A… « allemand » avec un E, toi, tu es un fou…>"
305,620,Veston,V4,Ethan B ,,,,,,,,,,,,1.0,,,,,,,,,,,,,"<Non, tu l’as plié, là, regarde. 10 balles.>"
306,622,Veston,V4,Eva C ,,,,,1.0,,,,,,,,,,,,1.0,,,,,,,,"Eva C : Oui, c'est bon… Bon, je pense que c'est<bon>…"
307,624,Veston,V4,Ethan B ,,,,,,,,,,,,1.0,,,,,,,,,,,,,<Ethan B : Qu’est-ce qui est bon ? La pizza.>
308,626,Veston,V4,Eva C ,,,,,,,,,1.0,,,,,,,,1.0,,,,,,,,"<Eva C : On a fait un bon truc, quoi, on a plein d’arguments. Tu as combien d’arguments, toi ?>"
309,628,Veston,V4,Ethan B ,,,,,,,,,1.0,,,,,,,,,,,,,1.0,,,"<Ethan B : Je sais pas, il y en a plusieurs dans un, donc un, c'est plusieurs. Au moins deux.>"
310,630,Veston,V4,Eva C ,,,,,,,,,1.0,,,,,,1.0,,,,,,,,,,"<Eva C : Kilyan, il en a deux…>"
311,632,Veston,V4,Ethan B ,,,,,,,,,1.0,,,,,,1.0,,,,,,,,,,<Ethan B : Au moins deux moi aussi.>
312,634,Veston,V4,Eva C ,,,,,,,,,1.0,,,,,,,,,,,,,1.0,,,<Eva C : On a lesquels ? On a dix.>
313,636,Veston,V4,Maleika ,,,,,,,,,1.0,,,,,,1.0,,,,,,,,,,"<Maleika : Attends, je compte.>"
314,638,Veston,V4,Ethan B ,,,,,,,,,,1.0,,,,,1.0,,,,,,,,,,"<Ethan B : Eva, elle en a un, deux, trois, quatre, cinq…>"
315,640,Veston,V4,Eva C ,,,,,,,,,1.0,,,,,,,1.0,,,,,,,,,<Eva C : J’en ai trois.>
316,642,Veston,V4,Ethan B ,,,,,,,,,,1.0,,,,,1.0,,,,,,,,,,"<Ethan B : C’est bien, trois.>"
317,644,Veston,V4,Eva C ,,,,,,,,,1.0,,,,,,1.0,,,,,,,,,,"<Eva C : Toi, dis-les tous, il faut en dire le maximum.>"
318,646,Veston,V4,Ethan,,,,,,,,,,,,1.0,,,,,,,,,,,,,"<Ethan B : Bon, tu écris ou tu manges des pâtes ? Pourquoi ils vont dehors ?>"
320,649,Veston,V4,Eva C,,,,,,,,,1.0,,,,,,,,,,,,1.0,,,,"<Eva : Venez, on s’entraîne. Qu'est-ce qu’on fait ? Qui passe en premier ?>"
321,651,Veston,V4,Kilyan ,,,,,,,,,1.0,,,,,,1.0,,,,,,,,,,"<Kilyan : Moi, je veux bien.>"
322,653,Veston,V4,Ethan B ,,,,,,,,,1.0,,,,,,,1.0,,,,,,,,,<Ethan B : Toi.>
323,655,Veston,V4,Eva C ,,,,,,,,,1.0,,,,,,,1.0,,,,,,,,,<Eva C : Non.>
324,657,Veston,V4,Ethan B ,,,,,,,,,1.0,,,,,,,1.0,,,,,,,,,"<Ethan B : Qu’est-ce que t’as, tu as des arguments à la pelle…>"
325,659,Veston,V4,Eva C ,,,,,,,,,1.0,,,,,,,1.0,,,,,,,,,<Eva C : Tu veux pas passer en première ?>
326,661,Veston,V4,Ethan B ,,,,,,,,,,1.0,,,,,,1.0,,,,,,,,,"<Ethan B : Putain, Eva, tu es la plus oratrice, tu es la meilleure en oral.>"
327,663,Veston,V4,Kilyan ,,,,,,,,,1.0,,,,,1.0,,,,,,,,,,,<Kilyan : Celle qui a le plus d’arguments.>
328,665,Veston,V4,Eva C,,,,,,,,,1.0,,,,,,,1.0,,,,,,,,,<Eva : On dit pas tous nos arguments.>
329,667,Veston,V4,Ethan B ,,,,,,,,,,1.0,,,,,,1.0,,,,,,,,,<Ethan B : Celle qui a les meilleurs résultats en français.>
330,669,Veston,V4,Eva C ,,,,,,,,,1.0,,,,,,,1.0,,,,,,,,,"<Eva C : Moi, j’en fais un. Après, c'est à toi…>"
331,671,Veston,V4,Maleika ,,,,,,,,,1.0,,,,,,,,,,,,,1.0,,,<Maleika : J’en dis un ?>
332,673,Veston,V4,Eva C ,,,,,,,,,1.0,,,,,,1.0,,,,,,,,,,"<Eva C : Oui, tu en dis un. Après, c'est à toi.>"
333,675,Veston,V4,Ethan,,,,,,,,,1.0,,,,,,,,,,,,,1.0,,,<Ethan B : On en dit un ?>
334,677,Veston,V4,Eva C ,,,,,,,,,1.0,,,,,,1.0,,,,,,,,,,"<Eva C : Après, toi, tu passes pas, parce que tu en as que deux…>"
335,679,Veston,V4,Ethan,,,,,,,,,1.0,,,,,,1.0,,,,,,,,,,<Ethan B : Moi aussi j’en ai que deux…>
336,681,Veston,V4,Eva C ,,,,,,,,,1.0,,,,,,,1.0,,,,,,,,,"<Eva C : Non, mais tu as pas compris…>"
337,683,Veston,V4,Ethan B ,,,,,,,,,1.0,,,,,,1.0,,,,,,,,,,"<Ethan B : On en dit deux chacun… on en dit deux, deux, deux…>"
338,685,Veston,V4,Eva C ,,,,,,,,,1.0,,,,,,,,,,,,,1.0,,,<Eva C : Tu en as combien ?>
339,687,Veston,V4,Ethan B ,,,,,,,,,1.0,,,,,,1.0,,,,,,,,,,"<Ethan B : Deux. Mais c'est des grands, il y en a plusieurs dedans.>"
340,689,Veston,V4,Eva C ,,,,,,,,,1.0,,,,,,,1.0,,,,,,,,,<Eva C : C’est la même chose…>
342,691,Veston,V4,Ethan B ,,,,,1.0,,,,,,,,,,1.0,,,,,,,,,,"Ethan B : Il y a plusieurs choses réunies. Par exemple, là, regarde, il y a écrit : « Il ne veut pas s’enfoncer dans l’abîme, il sait que l’argent que le veston lui procurait venait du crime, du sang, du désespoir, de la mort, venait de<l’enfer>. »"
343,694,Veston,V4,Ethan B ,,,,,,,,,,1.0,,,,,1.0,,,,,,,,,,"J’ai oublié de mettre un point, je suis un<fou>."
344,696,Veston,V4,Eva C ,,,,,,,,,1.0,,,,,,1.0,,,,,,,,,,"<Eva C : J’en dis un, tu en dis un, j’en dis un, tu en dis un, tu en dis un, il en dit un, tu en dis un, il en dit un.>"
345,698,Veston,V4,Kilyan,,,,,,,,,1.0,,,,,,,,,,,,,1.0,,,<Kilyan : Hein ?>
346,700,Veston,V4,Ethan B ,,,,,,,,,1.0,,,,,,1.0,,,,,,,,,,"<Ethan B : Tu en dis un, il en dit un…>"
347,702,Veston,V4,Eva C ,,,,,,,,,1.0,,,,,,,1.0,,,,,,,,,"<Eva C : Non, mais : moi, toi, moi, toi, lui, moi…>"
348,704,Veston,V4,Ethan B ,,,,,,,,,,,,1.0,,,,,,,,,,,,,<Ethan B : Je sais pas du tout où est-ce qu’il est…>
349,707,Veston,V4,Maleika ,,,,,,,,,1.0,,,,,,1.0,,,,,,,,,,<Maleika : Une personne commence avec les arguments du début…>
350,709,Veston,V4,Ethan B ,,,,,,,,,1.0,,,,,,1.0,,,,,,,,,,"<Ethan B : Si ça se trouve, on a un peu les mêmes arguments…>"
351,711,Veston,V4,Maleika,,,,,,,,,1.0,,,,,,1.0,,,,,,,,,,<Maleika : C’est sur la feuille là-bas…>
352,713,Veston,V4,Eva C ,,,,,,,,,1.0,,,,,,,,,,,,,1.0,,,<Eva C : Sur ça ?>
353,715,Veston,V4,Maleika ,,,,,,,,,1.0,,,,,,1.0,,,,,,,,,,"<Maleika : Non, c'est sur ma feuille…>"
354,717,Veston,V4,Eva C ,,,,,,,,,1.0,,,,,,,,,,,,,1.0,,,"<Eva C : Attends, ils sont où ? C'est lui, lui, lui et lui ?>"
355,719,Veston,V4,Maleika,,,,,,,,,1.0,,,,,,1.0,,,,,,,,,,<Maleika : Oui.>
356,721,Veston,V4,Ethan B ,,,,,,,,,1.0,,,,,,,,,,,,,1.0,,,"<Ethan B : Ça fait trois ? Non, celui-là, c'est celui de Kiki.>"
357,723,Veston,V4,Kilyan ,,,,,,,,,1.0,,,,,,,1.0,,,,,,,,,"<Kilyan : Mais non, dis nos arguments pour voir si c'est pas les mêmes déjà…>"
358,725,Veston,V4,Ethan B ,,,,,,,,,1.0,,,,,1.0,,,,,,,,,,,<Ethan B : J’avoue…>
359,727,Veston,V4,Eva C ,,,,,,,,,1.0,,,,,,1.0,,,,,,,,,,"<Eva C : Au pire, on en a tous deux, parce que sinon, c'est compliqué…>"
360,729,Veston,V4,Ethan B ,,,,,,,,,1.0,,,,,,1.0,,,,,,,,,,"<Ethan B : J’en ai deux moi, en plus…>"
361,731,Veston,V4,Eva C ,,,,,,,,,1.0,,,,,,1.0,,,,,,,,,,"<Eva C : Et on en réunit… tu les réunis en deux, vu que tu en as quatre. Tu fais comme ça, comme ça. Et moi, je fais ça aussi.>"
362,733,Veston,V4,Ethan B ,,,,,,,,,1.0,,,,,,1.0,,,,,,,,,,"<Ethan B : Tu fais deux. Un plus un, deux.>"
363,735,Veston,V4,Eva C ,,,,,,,,,1.0,,,,,,1.0,,,,,,,,,,"<Eva C : Comme ça, on a le même nombre de passages, parce que sinon, c'est galère…>"
364,737,Veston,V4,Kilyan ,,,,,,,,,1.0,,,,,,,1.0,,,,,,,,,"<Kilyan : Attends, il faut déjà voir si nos arguments ce sont les mêmes…>"
365,739,Veston,V4,Ethan,,,,,,,,,1.0,,,,,,,,,,,,,1.0,,,<Ethan B : Quoi ?>
366,741,Veston,V4,Kilyan ,,,,,,,,,1.0,,,,,,1.0,,,,,,,,,,<Kilyan : On va dire nos arguments pour voir déjà si c'est pas les mêmes.>
370,748,Veston,V4,Eva C ,,,,,1.0,,,,1.0,,,,,,1.0,,,,,,,,,,"Ah non, je vais réunir eux, parce qu’ils sont un peu<pareils>."
371,751,Veston,V4,Eva C ,,,,,,,,,1.0,,,,,,,,,,1.0,,,,,,"<Eva C : En fait, on n’a pas vraiment…>"
372,753,Veston,V4,Ethan B ,,,,,,,,,1.0,,,,,,,,,,1.0,,,,,,<Ethan B : On regarde si on a les mêmes ou pas…>
373,755,Veston,V4,Eva C ,,,,,,,,,1.0,,,,,,1.0,,,,,,,,,,<Eva C : Parce que si on a les mêmes…>
374,758,Veston,V4,Kilyan ,,,,,,,,,1.0,,,,,,,,,,1.0,,,,,,"<Kilyan : Oui, mais là, du coup, on en a rajouté.>"
375,761,Veston,V4,Ethan B ,,,,,,,,,1.0,,,,,,,,,,1.0,,,,,,"<Ethan B : Du coup, on sait pas si on a les mêmes ou pas et tout ça… Du coup, en fait, il y a que oui. Elle a changé d’avis.>"
376,765,Veston,V4,Eva C ,,,,,,,,,1.0,,,,,,1.0,,,,,,,,,,"<Eva C : Pour le non, j'avais qu’un argument.>"
377,768,Veston,V4,Ethan B ,,,,,,,,,,1.0,,,,,,,,,1.0,,,,,,<Ethan B : On a gagné.>
378,771,Veston,V4,Ethan B ,,,,,,,,,,1.0,,,,,,,,,1.0,,,,,,"<Ethan B : On n’a pas parlé, mais… enfin, on l’a pas convaincue. C'était pas en mode : « Ouais... » Elle a dit : « J’ai qu’un argument, allez, flemme. »>"
379,774,Veston,V4,Ethan B ,,,,,,,,,1.0,,,,,,,,,,1.0,,,,,,"<Ethan B : On termine, du coup.>"
380,776,Veston,V4,Kilyan ,,,,,,,,,1.0,,,,,,1.0,,,,,,,,,,"<Kilyan : Allez, dépêchez-vous… dépêche-toi… Non, on dit nos arguments dans l’ordre de passage.>"
381,778,Veston,V4,Ethan B ,,,,,,,,,1.0,,,,,,1.0,,,,,,,,,,<Ethan B : Dis tes deux arguments.>
382,780,Veston,V4,Eva C ,,,,,1.0,,,,,,,,,,1.0,,,,,,,,,,"<Eva C : OK. « Il n’est plus stressé à l'idée de ne pas résister à la tentation de prendre de l’argent et de tuer d’autres personnes, car il savait qu’il tuait des gens, mais il continuait. Donc c'était trop dangereux de le garder. »>"
383,782,Veston,V4,Ethan B ,,,,,,,,,1.0,,,,,,1.0,,,,,,,,,,<Ethan B : Il faut que tu en dises deux…>
384,784,Veston,V4,Eva C ,,,,,,,,,1.0,,,,,,1.0,,,,,,,,,,"<Eva C : Oui, j’en ai dit deux…>"
385,786,Veston,V4,Ethan B ,,,,,,,,,1.0,,,,,,,,,,,,,1.0,,,"<Ethan B : Tu en as dis deux, là ?>"
386,788,Veston,V4,Kilyan ,,,,,,,,,1.0,,,,,,1.0,,,,,,,,,,"<Kilyan : Non, elle en a dit un, mais genre, réuni.>"
387,790,Veston,V4,Ethan B ,,,,,,,,,1.0,,,,,,1.0,,,,,,,,,,<Ethan B : Ah. Moi aussi.>
388,792,Veston,V4,Maleika ,,,,,1.0,,,,,,,,,,1.0,,,,,,,,,,"<Maleika : « Et donc à chaque fois qu’il utilisait le veston, il se passait toujours quelque chose de mal ou quelqu'un mourait, et cela ne se passait plus après qu’il ait brûlé le veston. »>"
389,794,Veston,V4,Ethan B ,,,,,,,,,1.0,,,,,,1.0,,,,,,,,,,<Ethan B : Parle fort.>
390,796,Veston,V4,Maleika ,,,,,1.0,,,,,,,,,,1.0,,,,,,,,,,"<Maleika : « Il vit maintenant tranquillement sans s’embêter avec le veston. Peut-être qu’il a des problèmes d’argent, néanmoins, il ennuie personne. »>"
391,798,Veston,V4,Ethan B ,,,,,1.0,,,,,,,,,,1.0,,,,,,,,,,"<Ethan B : Là, il recommence à travailler, du coup, il va ravoir de l’argent.>"
392,800,Veston,V4,Ethan B ,,,,,,,,,1.0,,,,,,,,,,,,,1.0,,,"<Allez, à moi. Je dis les deux gros, là ?>"
393,802,Veston,V4,Kilyan ,,,,,,,,,1.0,,,,,,1.0,,,,,,,,,,<Kilyan : Tu en dis un.>
394,804,Veston,V4,Eva C ,,,,,,,,,1.0,,,,,,1.0,,,,,,,,,,"<Eva C : Non, tu en dis un, Ethan.>"
395,806,Veston,V4,Kilyan ,,,,,,,,,1.0,,,,,,1.0,,,,,,,,,,"<Kilyan : Dépêche-toi, on n’a pas le temps.>"
396,808,Veston,V4,Ethan B ,,,,,,,,,1.0,,,,,,1.0,,,,,,,,,,"Ethan< : Ben, je veux en dire deux…>"
397,810,Veston,V4,Eva C ,,,,,,,,,1.0,,,,,,,1.0,,,,,,,,,<Eva C : Non.>
398,812,Veston,V4,Kilyan ,,,,,,,,,1.0,,,,,1.0,,,,,,,,,,,<Kilyan : Tu en dis un…>
399,814,Veston,V4,Eva C,,,,,,,,,1.0,,,,,,1.0,,,,,,,,,,"<Eva : Nous, on en a quatre, du coup, on en a réuni…>"
400,816,Veston,V4,Ethan B ,,,,,1.0,,,,,,,,,,1.0,,,,,,,,,,"<Ethan B : Genre, il l’a brûlé parce qu’il veut pas s’enfoncer dans l’abîme…>"
401,818,Veston,V4,Eva C ,,,,,,,,,1.0,,,,,,,1.0,,,,,,,,,<Eva C : Tu dis pas : « Genre... »>
402,820,Veston,V4,Ethan B ,,,,,,,,,1.0,,,,,,,,,,,,,1.0,,,"<Ethan B : Ben, je dis quoi ?>"
403,822,Veston,V4,Kilyan ,,,,,,,,,1.0,,,,,,1.0,,,,,,,,,,"<Kilyan : Allez, accouche, dis ton argument.>"
404,824,Veston,V4,Ethan,,,,,1.0,,,,,,,,,,1.0,,,,,,,,,,"<Ethan B : « Il a pris la bonne décision, car il ne veut pas s’enfoncer dans l’abîme. Il savait que l’argent que le veston lui procurait venait du crime, du sang, du désespoir, de la mort, en gros, venait de... »>"
405,826,Veston,V4,Eva C ,,,,,,,,,1.0,,,,,,1.0,,,,,,,,,,<Eva C : Très bien.>
406,828,Veston,V4,Ethan B ,,,,,,,,,,1.0,,,,,1.0,,,,,,,,,,<Ethan B : Pourquoi j'ai dit « en gros » ?>
407,830,Veston,V4,Eva C ,,,,,,,,,1.0,,,,,,1.0,,,,,,,,,,"<Eva C : Non, il est bien.>"
408,832,Veston,V4,Kilyan ,,,,,1.0,,,,,,,,,,1.0,,,,,,,,,,"<Kilyan : « Moi aussi je pense que oui, car s’il ne l’avait pas brûlé, il aurait continué à prendre de l’argent et d’autres personnes ou bâtiments seraient détruits. »>"
409,834,Veston,V4,Eva C ,,,,,,,,,1.0,,,,,,1.0,,,,,,,,,,"<Eva C : En fait, on a un peu tous mis pareil. C'est pas grave.>"
410,836,Veston,V4,Ethan B ,,,,,,,,,1.0,,,,,,,,,1.0,,,,,,,"<Ethan B : Mais ça fait quoi si je dis « en gros » ? « En gros, venait de l’enfer » ?>"
411,838,Veston,V4,Kilyan ,,,,,,,,,1.0,,,,,,1.0,,,,,,,,,,<Kilyan : On dit pas « en gros ».>
412,840,Veston,V4,Eva C ,,,,,1.0,,,,,,,,,,1.0,,,,,,,,,,"<Eva C : Donc là : « Je pense qu’il a bien fait de brûler le veston aussi par respect pour les gens qu’il a tués, parce que les gens, ils sont morts en gros pour que lui il gagne de l’argent. » Et après, j'ai dit : « L’argent qu’il sortait était le même que l’argent qui était perdu, donc brûler le veston brûlait également les preuves qui pouvaient finir contre lui si quelqu'un trouvait son argent. »>"
413,842,Veston,V4,Kilyan ,,,,,,,,,,1.0,,,,,1.0,,,,,,,,,,"<Kilyan : Ça, c'est un bête d’argument.>"
414,844,Veston,V4,Eva C ,,,,,1.0,,,,,,,,,,1.0,,,,,,,,,,"<Eva C : Tu as compris, ou pas ?>"
415,846,Veston,V4,Kilyan ,,,,,1.0,,,,,,,,,,1.0,,,,,,,,,,<Kilyan : Oui.>
416,848,Veston,V4,Eva C ,,,,,,,,,1.0,1.0,,,,,1.0,,,,,,,,,,"<Eva C : OK. C’était un peu mal expliqué, mais… OK, attendez les gars.>"
418,851,Veston,V4,Ethan B ,,,,,,,,,1.0,,,,,,,,,1.0,,,,,,,"<Ethan B : Ah, tu en lis un deuxième ?>"
419,853,Veston,V4,Eva C ,,,,,,,,,1.0,,,,,,1.0,,,,,,,,,,"<Eva C : Oui, toi, tu en as quatre, donc…>"
420,855,Veston,V4,Ethan B ,,,,,,,,,1.0,,,,,,1.0,,,,,,,,,,"<Ethan B : Tu en prends un et un, tu fais une fusion, et ça fait un…>"
421,857,Veston,V4,Maleika,,,,,,,,,1.0,,,,,,,,,,,,,1.0,,,<Maleika : On fait ça ?>
422,859,Veston,V4,Eva C ,,,,,,,,,1.0,,,,,,1.0,,,,,,,,,,"<Eva C : Oui, vas-y.>"
423,861,Veston,V4,Maleika ,,,,,1.0,,,,,,,,,,1.0,,,,,,,,,,"<Maleika : « Du coup, avant d’utiliser l’argent, il devait négocier, car il ne savait pas d’où sortait l’argent ou si l’argent était à lui. »>"
424,863,Veston,V4,Ethan B ,,,,,1.0,,,,,,,,,,,1.0,,,,,,,,,"<Ethan B : Non, je pense qu’il savait que ça lui appartenait pas.>"
425,865,Veston,V4,Kilyan ,,,,,1.0,,,,,,,,,1.0,,,,,,,,,,,"<Kilyan : Oui, il savait.>"
426,867,Veston,V4,Eva C ,,,,,1.0,,,,,,,,,,,1.0,,,,,,,,,"<Eva C : Il savait pas d’où il venait, il savait pas ce que c'était les conséquences de l’argent…>"
427,869,Veston,V4,Ethan B ,,,,,1.0,,,,,,,,,,1.0,,,,,,,,,,<Ethan B : De ses actes.>
428,871,Veston,V4,Maleika ,,,,,1.0,,,,,,,,,,1.0,,,,,,,,,,<Maleika : Il savait pas d’où il sortait…>
429,873,Veston,V4,Eva C ,,,,,1.0,,,,,,,,,,1.0,,,,,,,,,,"<Eva C : Quand il a décidé d’utiliser l’argent, bêtement, sans réfléchir, sans poser de questions…>"
430,876,Veston,V4,Kilyan ,,,,,,,,,1.0,,,,,,,,,,1.0,,,,,,<Kilyan : Oui.>
