NProp,Ligne,Seance,Numero,NomEleve,Lycee,Poesie,C1,C2,C3,C3BIS,C4,C5,C6,C7,C8,C9,C10,E1,E2,E3,E4,E5,E6,E7,E8,E9,E10,E11,Text
2,16,Alchimie,A5,Océane,1,1,,,,,,,1.0,,,,,,,,,,,,,1.0,,,
3,25,Alchimie,A5,Ambre,1,1,,,,,,,,1.0,,,,,,,,,,,,,,,
4,30,Alchimie,A5,Océane,1,1,,,,,1.0,,,,,,,,,,,,1.0,,,,,,
5,34,Alchimie,A5,Océane,1,1,,,,,,,1.0,,,,,,,,,,,,,1.0,,,
6,40,Alchimie,A5,Ambre,1,1,,,,,,,1.0,,,,,,,,,1.0,,,,,,,
7,44,Alchimie,A5,Blanche,1,1,,,,,,,1.0,,,,,,,,,,,,,1.0,,,
8,48,Alchimie,A5,Ambre,1,1,,,,,,,1.0,,,,,,,,,,,,,1.0,,,
9,50,Alchimie,A5,Blanche,1,1,,,,,,,1.0,,,,,,1.0,,,,,,,,,,
10,52,Alchimie,A5,Ambre,1,1,,,,,,,1.0,,,,,,1.0,,,,,,,,,,
11,54,Alchimie,A5,Blanche,1,1,,,,,,,1.0,,,,,,,1.0,,,,,,,,,
12,56,Alchimie,A5,Ambre,1,1,,,,,,,1.0,,,,,,,1.0,,,,,,,,,
13,58,Alchimie,A5,Blanche,1,1,,,,,,,1.0,,,,,,,,,,,,,,1.0,,
14,62,Alchimie,A5,Blanche,1,1,,1.0,,,,,,,,,,,,,,,,,1.0,,,,
15,64,Alchimie,A5,Océane,1,1,,,,,,,1.0,,,,,,,1.0,,,,,,,,,
16,66,Alchimie,A5,Blanche,1,1,,,,,,,1.0,,,,,,,,,,,,,1.0,,,
17,68,Alchimie,A5,Ambre,1,1,,,,,,,1.0,,,,,,,1.0,,,,,,,,,
18,70,Alchimie,A5,Océane,1,1,,,,,,,1.0,,,,,,1.0,,,,,,,,,,
19,74,Alchimie,A5,Océane,1,1,,,,,,,1.0,,,,,,,,,,,,,1.0,,,
20,78,Alchimie,A5,Blanche,1,1,,,,,,,1.0,,,,,,,,,,,,,1.0,,,
21,80,Alchimie,A5,Ambre,1,1,,,,,,,1.0,,,,,,,1.0,,,,,,,,,
22,82,Alchimie,A5,Océane,1,1,,,,,,,,1.0,,,,,,,,,,,,,1.0,,
23,84,Alchimie,A5,Blanche,1,1,,,,,,,,1.0,,,,,,1.0,,,,,,,,,
24,86,Alchimie,A5,Ambre,1,1,,,,,,,,1.0,,,,,,1.0,,,,,,,,,
25,88,Alchimie,A5,Blanche,1,1,,,,,,,,,,1.0,,,1.0,,,,,,,,,,
26,90,Alchimie,A5,Océane,1,1,,,,,,,1.0,,,,,,1.0,,,,,,,,,,
27,92,Alchimie,A5,Blanche,1,1,,,,,,,1.0,,,,,,,,,,,,,1.0,,,
28,94,Alchimie,A5,Ambre,1,1,,,,,,,1.0,,,,,,1.0,,,,,,,,,,
29,96,Alchimie,A5,Océane,1,1,,,,,,,1.0,,,,,1.0,,,,,,,,,,,
30,98,Alchimie,A5,Blanche,1,1,,1.0,,,,,,,,,,,,,,,,,1.0,,,,
31,100,Alchimie,A5,Océane,1,1,,1.0,,,,,,,,,,,,,,,,,1.0,,,,
32,102,Alchimie,A5,Blanche,1,1,,,,,,,,1.0,,,,,,1.0,,,,,,,,,
33,105,Alchimie,A5,Ambre,1,1,,,,,,,1.0,,,,,,,1.0,,,,,,,,,
34,108,Alchimie,A5,Océane,1,1,,,,,,,1.0,,,,,1.0,,,,,,,,,,,
35,110,Alchimie,A5,Ambre,1,1,,,,,,,1.0,,,,,1.0,,,,,,,,,,,
36,112,Alchimie,A5,Océane,1,1,,,,,,,1.0,,,,,1.0,,,,,,,,,,,
37,114,Alchimie,A5,Blanche,1,1,,,,,,,,,,1.0,,,,,,,,,,,1.0,,
38,116,Alchimie,A5,Océane,1,1,,,,,,,,,,1.0,,,,,,,,,,,1.0,,
39,118,Alchimie,A5,Blanche,1,1,,1.0,,,,,,,,,,,,,,,,,1.0,,,,
40,120,Alchimie,A5,Ambre,1,1,,1.0,,,,,,,,,,1.0,,,,,,,,,,,
41,122,Alchimie,A5,Blanche,1,1,,,,,,,,1.0,,,,1.0,,,,,,,,,,,
42,124,Alchimie,A5,Océane,1,1,,,,,,,,1.0,,,,1.0,,,,,,,,,,,
43,124,Alchimie,A5,Océane,1,1,,,,,1.0,,,,,,,,,,,,,,,1.0,,,
44,127,Alchimie,A5,Ambre,1,1,,,,,1.0,,,,,,,,1.0,,,,,,,,,,
45,129,Alchimie,A5,Blanche,1,1,,,,,,,1.0,,,,,,,,,,,,,1.0,,,
46,131,Alchimie,A5,Océane,1,1,,,,,,,1.0,,,,,,1.0,,,,,,,,,,
47,133,Alchimie,A5,Ambre,1,1,,1.0,,,,,,,,,,1.0,,,,,,,,,,,
48,135,Alchimie,A5,Blanche,1,1,,1.0,,,,,,,,,,,,,,,,,1.0,,,,
49,137,Alchimie,A5,Ambre,1,1,,,,,,,1.0,,,,,1.0,,,,,,,,,,,
50,139,Alchimie,A5,Blanche,1,1,,,,,,,,1.0,,,,1.0,,,,,,,,,,,
51,141,Alchimie,A5,Ambre,1,1,,,,,,,,1.0,,,,,,1.0,,,,,,,,,
52,143,Alchimie,A5,Blanche,1,1,,,,,,,,1.0,,,,,,1.0,,,,,,,,,
53,145,Alchimie,A5,Océane,1,1,,,,,,,1.0,,,,,,,,,,,,,1.0,,,
54,147,Alchimie,A5,Blanche,1,1,,1.0,,,,,,,,,,,1.0,,,,,,,,,,
55,149,Alchimie,A5,Océane,1,1,,,,,1.0,,,,,,,,,,,,,,,1.0,,,
56,151,Alchimie,A5,Blanche,1,1,,,,,1.0,,,,,,,,1.0,,,,,,,,,,
57,153,Alchimie,A5,Océane,1,1,,,,,,,1.0,,,,,,1.0,,,,,,,,,,
58,155,Alchimie,A5,Blanche,1,1,,1.0,,,,,,,,,,,1.0,,,,,,,,,,
59,158,Alchimie,A5,Océane,1,1,,1.0,,,,,,,,,,,1.0,,,,,,,,,,
60,160,Alchimie,A5,Blanche,1,1,,1.0,,,,,,,,,,1.0,,,,,,,,,,,
61,162,Alchimie,A5,Océane,1,1,,1.0,,,,,,,,,,,1.0,,,,,,,,,,
62,164,Alchimie,A5,Blanche,1,1,,1.0,,,,,,,,,,,1.0,,,,,,,,,,
63,166,Alchimie,A5,Océane,1,1,,,,,,1.0,,,,,,,,,,,,,,1.0,,,
64,168,Alchimie,A5,Blanche,1,1,,,,,,1.0,,,,,,,1.0,,,,,,,,,,
65,170,Alchimie,A5,Ambre,1,1,,,,,,1.0,,,,,,,,,,,,,,1.0,,,
66,182,Alchimie,A5,Ambre,1,1,,1.0,,,,,,,,,,,,,,,1.0,,,,,,
67,186,Alchimie,A5,Ambre,1,1,,1.0,,,,,,,,,,,,,,,1.0,,,,,,
68,190,Alchimie,A5,Ambre,1,1,,1.0,,,,,,,,,,,,,,,1.0,,,,,,
69,194,Alchimie,A5,Océane,1,1,,,,,,1.0,,,,,,,,,,,,,,1.0,,,
70,202,Alchimie,A5,Océane,1,1,,1.0,,,,,,,,,,,,,,,1.0,,,,,,
71,206,Alchimie,A5,Blanche,1,1,,1.0,,,,,,,,,,,,,,,,,,1.0,,,
72,210,Alchimie,A5,Océane,1,1,,1.0,,,,,,,,,,,,,,,1.0,,,,,,
73,214,Alchimie,A5,Océane,1,1,,,,,,,,1.0,,,,,,,1.0,,,,,,,,
74,216,Alchimie,A5,Blanche,1,1,,1.0,,,,,,,,,,,,,1.0,,,,,,,,
75,218,Alchimie,A5,Océane,1,1,,,,,,,1.0,,,,,,,,1.0,,,,,,,,
76,220,Alchimie,A5,Ambre,1,1,,,,,,,1.0,,,,,,,,,,,,,1.0,,,
77,226,Alchimie,A5,Blanche,1,1,,,,,,,,1.0,,,,,,,,1.0,,,,,,,
78,230,Alchimie,A5,Blanche,1,1,,,1.0,,,,,,,,,,1.0,,,,,,,,,,
79,232,Alchimie,A5,Océane,1,1,,,,1.0,,,,,,,,,1.0,,,,,,,,,,
80,234,Alchimie,A5,Blanche,1,1,,,1.0,,,,,,,,,,1.0,,,,,,,,,,
81,236,Alchimie,A5,Océane,1,1,,,,,,,,1.0,,,,,,,,,,,,,1.0,,
82,238,Alchimie,A5,Blanche,1,1,,,1.0,,,,,,,,,,1.0,,,,,,,,,,
83,238,Alchimie,A5,Blanche,1,1,,,,,,,,,1.0,,,,1.0,,,,,,,,,,
84,240,Alchimie,A5,Océane,1,1,,,,,,,1.0,,,,,,1.0,,,,,,,,,,
85,240,Alchimie,A5,Océane,1,1,,,,,,1.0,,,,,,,,,,,,,,1.0,,,
86,244,Alchimie,A5,Océane,1,1,,,,,,,,1.0,,,,,,,,,,,,1.0,,,
87,246,Alchimie,A5,Blanche,1,1,,,,,,1.0,,,,,,,1.0,,,,,,,,,,
88,248,Alchimie,A5,Océane,1,1,,,,,,,1.0,,,,,,1.0,,,,,,,,,,
89,250,Alchimie,A5,Ambre,1,1,,,,,,,1.0,,,,,,,,,,,,1.0,,,,
90,252,Alchimie,A5,Océane,1,1,,,,,,,1.0,,,,,,1.0,,,,,,,,,,
91,254,Alchimie,A5,Blanche,1,1,,,,,,,1.0,,,,,,,1.0,,,,,,,,,
92,251,Alchimie,A5,Ambre,1,1,,,,,,,1.0,,,,,,1.0,,,,,,,,,,
93,259,Alchimie,A5,Océane,1,1,,,,,,,1.0,,,,,1.0,,,,,,,,,,,
94,261,Alchimie,A5,Antoine,1,1,,,,,,,1.0,,,,,1.0,,,,,,,,,,,
95,263,Alchimie,A5,Blanche,1,1,,,,,,,1.0,,,,,1.0,,,,,,,,,,,
96,263,Alchimie,A5,Blanche,1,1,,,,,,,,,,1.0,,,1.0,,,,,,,,,,
97,265,Alchimie,A5,Ambre,1,1,,,,,,,,1.0,,,,,,1.0,,,,,,,,,
98,267,Alchimie,A5,Océane,1,1,,,,,,,,,,1.0,,,,,,,,,,,1.0,,
99,269,Alchimie,A5,Blanche,1,1,,,,,,,,1.0,,,,,,,,,,,,,1.0,,
100,271,Alchimie,A5,Océane,1,1,,,,,,,,1.0,,,,,,,,,,,,,1.0,,
101,273,Alchimie,A5,Blanche,1,1,,,,,,,,1.0,,,,,,,,,,,,,1.0,,
102,275,Alchimie,A5,Ambre,1,1,,,,,,1.0,,,,,,,,,,,,,,1.0,,,
103,280,Alchimie,A5,Océane,1,1,,,,,,1.0,,,,,,,,,,,1.0,,,,,,
104,287,Alchimie,A5,Océane,1,1,,,,,,,1.0,,,,,,,,,,1.0,,,,,,
105,289,Alchimie,A5,Ambre,1,1,,1.0,,,,,,,,,,,,,,,,,,1.0,,,
106,293,Alchimie,A5,Blanche,1,1,,1.0,,,,,,,,,,,1.0,,,,,,,,,,
107,295,Alchimie,A5,Ambre,1,1,,1.0,,,,,,,,,,1.0,,,,,,,,,,,
108,297,Alchimie,A5,Océane,1,1,,,,,,1.0,,,,,,,1.0,,,,,,,,,,
109,299,Alchimie,A5,Ambre,1,1,,,,,,1.0,,,,,,,,,,,,,,1.0,,,
110,301,Alchimie,A5,Océane,1,1,,,,,,1.0,,,,,,1.0,,,,,,,,,,,
111,303,Alchimie,A5,Blanche,1,1,,1.0,,,,,,,,,,,1.0,,,,,,,,,,
112,306,Alchimie,A5,Ambre,1,1,,1.0,,,,,,,,,,,1.0,,,,,,,,,,
113,310,Alchimie,A5,Blanche,1,1,,1.0,,,,,,,,,,1.0,,,,,,,,,,,
114,312,Alchimie,A5,Ambre,1,1,,,,,,,1.0,,,,,,,,,,,,,1.0,,,
115,314,Alchimie,A5,Blanche,1,1,,,,,,,1.0,,,,,,1.0,,,,,,,,,,
116,316,Alchimie,A5,Océane,1,1,,,,,,,1.0,,,,,,1.0,,,,,,,,,,
117,318,Alchimie,A5,Ambre,1,1,,1.0,,,,,,,,,,,1.0,,,,,,,,,,
118,320,Alchimie,A5,Blanche,1,1,,1.0,,,,,,,,,,,1.0,,,,,,,,,,
119,322,Alchimie,A5,Océane,1,1,,1.0,,,,,,,,,,,,,,,,,1.0,,,,
120,324,Alchimie,A5,Ambre,1,1,,1.0,,,,,,,,,,,,,,1.0,,,,,,,
121,326,Alchimie,A5,Océane,1,1,,1.0,,,,,,,,,,,,,,1.0,,,,,,,
122,328,Alchimie,A5,Blanche,1,1,,1.0,,,,,,,,,,,,,,1.0,,,,,,,
123,330,Alchimie,A5,Ambre,1,1,,,,,,,,1.0,,,,,,,,1.0,,,,,,,
124,332,Alchimie,A5,Océane,1,1,,1.0,,,,,,,,,,,1.0,,,,,,,,,,
125,334,Alchimie,A5,Blanche,1,1,,1.0,,,,,,,,,,,,,,1.0,,,,,,,
126,336,Alchimie,A5,Océane,1,1,,1.0,,,,,,,,,,,1.0,,,,,,,,,,
127,338,Alchimie,A5,Ambre,1,1,,,,,,,1.0,,,,,,,,,,,,,1.0,,,
128,340,Alchimie,A5,Antoine,1,1,,1.0,,,,,,,,,,,,,,1.0,,,,,,,
129,342,Alchimie,A5,Ambre,1,1,,1.0,,,,,,,,,,,1.0,,,,,,,,,,
130,344,Alchimie,A5,Antoine,1,1,,1.0,,,,,,,,,,,1.0,,,,,,,,,,
131,346,Alchimie,A5,Ambre,1,1,,,,,,,1.0,,,,,,1.0,,,,,,,,,,
132,348,Alchimie,A5,Océane,1,1,,,,,1.0,,,,,,,,,,,,,,,1.0,,,
133,350,Alchimie,A5,Ambre,1,1,,,,,1.0,,,,,,,,1.0,,,,,,,,,,
134,352,Alchimie,A5,Océane,1,1,,,,,1.0,,,,,,,,1.0,,,,,,,,,,
135,354,Alchimie,A5,Ambre,1,1,,,,,1.0,,,,,,,,,,1.0,,,,,,,,
136,356,Alchimie,A5,Océane,1,1,,,,,1.0,,,,,,,,1.0,,,,,,,,,,
137,360,Alchimie,A5,Ambre,1,1,,,,,,1.0,,,,,,,,,,,1.0,,,,,,
138,364,Alchimie,A5,Ambre,1,1,,,,,,1.0,,,,,,,,,,,1.0,,,,,,
139,368,Alchimie,A5,Blanche,1,1,,,,,,,,1.0,,,,,1.0,,,,,,,,,,
140,370,Alchimie,A5,Ambre,1,1,,,,,,,,,,1.0,,,1.0,,,,,,,,,,
141,374,Alchimie,A5,Océane,1,1,,1.0,,,,,,,,,,,,,,,,,,1.0,,,
142,376,Alchimie,A5,Blanche,1,1,,1.0,,,,,,,,,,,1.0,,,,,,,,,,
143,378,Alchimie,A5,Océane,1,1,,1.0,,,,,,,,,,1.0,,,,,,,,,,,
144,380,Alchimie,A5,Ambre,1,1,,1.0,,,,,,,,,,,,,,,,,1.0,,,,
145,382,Alchimie,A5,Blanche,1,1,,1.0,,,,,,,,,,,,,,1.0,,,,,,,
146,385,Alchimie,A5,Ambre,1,1,,1.0,,,,,,,,,,,,,,1.0,,,,,,,
147,385,Alchimie,A5,Ambre,1,1,,1.0,,,,,,,,,,,,,,,,,,1.0,,,
148,387,Alchimie,A5,Blanche,1,1,,,,,,1.0,,,,,,,1.0,,,,,,,,,,
149,389,Alchimie,A5,Ambre,1,1,,,,,,1.0,,,,,,,,,,,,,,1.0,,,
150,391,Alchimie,A5,Blanche,1,1,,,,,,1.0,,,,,,,,,,,,,,1.0,,,
151,392,Alchimie,A5,Antoine,1,1,,,,,,1.0,,,,,,,1.0,,,,,,,,,,
152,395,Alchimie,A5,Ambre,1,1,,,,,,1.0,,,,,,,,,1.0,,,,,,,,
153,397,Alchimie,A5,Blanche,1,1,,,,,1.0,,,,,,,,,,1.0,,,,,,,,
154,400,Alchimie,A5,Antoine,1,1,,,,,1.0,,,,,,,1.0,,,,,,,,,,,
155,402,Alchimie,A5,Blanche,1,1,,,,,1.0,,,,,,,,,1.0,,,,,,,,,
156,404,Alchimie,A5,Antoine,1,1,,,,,,,,1.0,,,,,1.0,,,,,,,,,,
157,406,Alchimie,A5,Océane,1,1,,,,,,,,1.0,,,,,1.0,,,,,,,,,,
158,408,Alchimie,A5,Ambre,1,1,,1.0,,,,,,,,,,,,,1.0,,,,,,,,
159,410,Alchimie,A5,Blanche,1,1,,,1.0,,,,,,,,,,,,,,,,1.0,,,,
160,412,Alchimie,A5,Ambre,1,1,,1.0,,,,,,,,,,,,,,1.0,,,,,,,
161,417,Alchimie,A5,Antoine,1,1,,1.0,,,,,,,,,,,,,,,,,,1.0,,,
162,419,Alchimie,A5,Ambre,1,1,,1.0,,,,,,,,,,,1.0,,,,,,,,,,
163,422,Alchimie,A5,Océane,1,1,,,,,,,,1.0,,,,,,,,1.0,,,,,,,
164,425,Alchimie,A5,Antoine,1,1,,1.0,,,,,,,,,,,,,1.0,,,,,,,,
165,427,Alchimie,A5,Ambre,1,1,,1.0,,,,,,,,,,1.0,,,,,,,,,,,
166,427,Alchimie,A5,Ambre,1,1,,1.0,,,,,,,,,,,,1.0,,,,,,,,,
167,430,Alchimie,A5,Antoine,1,1,,1.0,,,,,,,,,,,,1.0,,,,,,,,,
168,436,Alchimie,A5,Ambre,1,1,,1.0,,,,,,,,,,,1.0,,,,,,,,,,
169,438,Alchimie,A5,Antoine,1,1,,1.0,,,,,,,,,,,1.0,,,,,,,,,,
170,443,Alchimie,A5,Océane,1,1,,,,,,,,1.0,,,,,,,,,,,,,1.0,,
171,449,Alchimie,A5,Océane,1,1,,,,,,,1.0,,,,,,,,,,,,,1.0,,,
172,453,Alchimie,A5,Océane,1,1,,,,,,,1.0,,,,,,,,,,,,,1.0,,,
173,455,Alchimie,A5,Ambre,1,1,,,,,,,1.0,,,,,,,,,,,,,1.0,,,
174,460,Alchimie,A5,Ambre,1,1,,,,,,,1.0,,,,,,,,,,1.0,,,,,,
175,462,Alchimie,A5,Blanche,1,1,,,,,,,,1.0,,,,,,,,,,,,1.0,,,
176,464,Alchimie,A5,Ambre,1,1,,1.0,,,,,,,,,,,1.0,,,,,,,,,,
177,468,Alchimie,A5,Océane,1,1,,,,,1.0,,,,,,,,,,,1.0,,,,,,,
178,470,Alchimie,A5,Ambre,1,1,,1.0,,,,,,,,,,,,,,1.0,,,,,,,
179,474,Alchimie,A5,Océane,1,1,,,,,1.0,,,,,,,,1.0,,,,,,,,,,
180,474,Alchimie,A5,Océane,1,1,,,,,,,,1.0,,,,,1.0,,,,,,,,,,
181,477,Alchimie,A5,Antoine,1,1,,,,,,1.0,,,,,,,,1.0,,,,,,,,,
182,479,Alchimie,A5,Océane,1,1,,,,,1.0,,,,,,,,,,1.0,,,,,,,,
183,481,Alchimie,A5,Antoine,1,1,,,,,,,1.0,,,,,,,,,,,,1.0,,,,
184,483,Alchimie,A5,Océane,1,1,,,,,,,1.0,,,,,,1.0,,,,,,,,,,
185,485,Alchimie,A5,Ambre,1,1,,,,,,,1.0,,,,,,,,,,,,1.0,,,,
186,491,Alchimie,A5,Océane,1,1,,,,,,,1.0,,,,,,,,,1.0,,,,,,,
187,493,Alchimie,A5,Blanche,1,1,,,,,,,,,,1.0,,,,,,1.0,,,,,,,
188,495,Alchimie,A5,Océane,1,1,,,,,,,,1.0,,,,,1.0,,,,,,,,,,
189,497,Alchimie,A5,Ambre,1,1,,,,,,,1.0,,,,,,,,,,,,1.0,,,,
190,497,Alchimie,A5,Ambre,1,1,,1.0,,,,,,,,,,,1.0,,,,,,,,,,
191,500,Alchimie,A5,Océane,1,1,,,,,,,,1.0,,,,,,,,,,,,1.0,,,
192,502,Alchimie,A5,Blanche,1,1,,,,,,,,1.0,,,,,1.0,,,,,,,,,,
193,505,Alchimie,A5,Ambre,1,1,,1.0,,,,,,,,,,,,,,1.0,,,,,,,
194,507,Alchimie,A5,Océane,1,1,,,,,,,,,,1.0,,,,,,,,,,,1.0,,
195,509,Alchimie,A5,Antoine,1,1,,,,,,,1.0,,,,,,,,,1.0,,,,,,,
196,511,Alchimie,A5,Ambre,1,1,,1.0,,,,,,,,,,,1.0,,,,,,,,,,
197,511,Alchimie,A5,Ambre,1,1,,1.0,,,,,,,,,,,,,,,,,,1.0,,,
198,514,Alchimie,A5,Blanche,1,1,,1.0,,,,,,,,,,,1.0,,,,,,,,,,
199,516,Alchimie,A5,Antoine,1,1,,,,,,,1.0,,,,,,1.0,,,,,,,,,,
200,518,Alchimie,A5,Blanche,1,1,,,,,,,,1.0,,,,,,,,,,,,1.0,,,
201,520,Alchimie,A5,Ambre,1,1,,,,,,,1.0,,,,,,1.0,,,,,,,,,,
202,522,Alchimie,A5,Blanche,1,1,,,,,,,,1.0,,,,,,1.0,,,,,,,,,
203,524,Alchimie,A5,Océane,1,1,,,,,,,,,,1.0,,,,,,1.0,,,,,,,
204,526,Alchimie,A5,Ambre,1,1,,1.0,,,,,,,,,,,,,,1.0,,,,,,,
205,528,Alchimie,A5,Blanche,1,1,,,,,,,,1.0,,,,,1.0,,,,,,,,,,
206,530,Alchimie,A5,Antoine,1,1,,1.0,,,,,,,,,,,,,1.0,,,,,,,,
207,532,Alchimie,A5,Blanche,1,1,,,,,,,,1.0,,,,,1.0,,,,,,,,,,
208,534,Alchimie,A5,Océane,1,1,,,,,,,,1.0,,,,,,1.0,,,,,,,,,
209,536,Alchimie,A5,Blanche,1,1,,,,,,,,1.0,,,,,1.0,,,,,,,,,,
210,538,Alchimie,A5,Antoine,1,1,,,,,,,,1.0,,,,,1.0,,,,,,,,,,
211,540,Alchimie,A5,Océane,1,1,,,,,,,,1.0,,,,,,,,,,,,,1.0,,
212,543,Alchimie,A5,Blanche,1,1,,,,,,,,,,1.0,,,,,,1.0,,,,,,,
213,545,Alchimie,A5,Antoine,1,1,,1.0,,,,,,,,,,,,,,1.0,,,,,,,
214,547,Alchimie,A5,Ambre,1,1,,1.0,,,,,,,,,,,1.0,,,,,,,,,,
215,549,Alchimie,A5,Blanche,1,1,,,,,,,1.0,,,,,,1.0,,,,,,,,,,
216,552,Alchimie,A5,Ambre,1,1,,1.0,,,,,,,,,,,1.0,,,,,,,,,,
217,552,Alchimie,A5,Ambre,1,1,,1.0,,,,,,,,,,,,1.0,,,,,,,,,
218,555,Alchimie,A5,Blanche,1,1,,1.0,,,,,,,,,,,,1.0,,,,,,,,,
219,551,Alchimie,A5,Ambre,1,1,,1.0,,,,,,,,,,,,1.0,,,,,,,,,
220,559,Alchimie,A5,Océane,1,1,,1.0,,,,,,,,,,,,1.0,,,,,,,,,
221,561,Alchimie,A5,Blanche,1,1,,1.0,,,,,,,,,,,,,,,,,,1.0,,,
222,564,Alchimie,A5,Océane,1,1,,1.0,,,,,,,,,,1.0,,,,,,,,,,,
223,566,Alchimie,A5,Blanche,1,1,,1.0,,,,,,,,,,,,,,,,,,1.0,,,
224,568,Alchimie,A5,Ambre,1,1,,1.0,,,,,,,,,,,,,,,,,,,,1.0,
225,570,Alchimie,A5,Blanche,1,1,,1.0,,,,,,,,,,,,,,,,,,1.0,,,
226,572,Alchimie,A5,Ambre,1,1,,1.0,,,,,,,,,,,,,,,,,,1.0,,,
227,574,Alchimie,A5,Blanche,1,1,,1.0,,,,,,,,,,1.0,,,,,,,,,,,
228,576,Alchimie,A5,Océane,1,1,,1.0,,,,,,,,,,1.0,,,,,,,,,,,
229,578,Alchimie,A5,Blanche,1,1,,1.0,,,,,,,,,,,,1.0,,,,,,,,,
230,580,Alchimie,A5,Ambre,1,1,,1.0,,,,,,,,,,,,,1.0,,,,,,,,
231,580,Alchimie,A5,Ambre,1,1,,,,,,,1.0,,,,,,1.0,,,,,,,,,,
232,582,Alchimie,A5,Antoine,1,1,,,,,,1.0,,,,,,,1.0,,,,,,,,,,
233,584,Alchimie,A5,Blanche,1,1,,,,,,,1.0,,,,,,,,,,,,1.0,,,,
234,587,Alchimie,A5,Océane,1,1,,,,,,,,1.0,,,,,1.0,,,,,,,,,,
235,589,Alchimie,A5,Ambre,1,1,,,,,,1.0,,,,,,,1.0,,,,,,,,,,
236,592,Alchimie,A5,Blanche,1,1,,1.0,,,,,,,,,,,1.0,,,,,,,,,,
237,594,Alchimie,A5,Ambre,1,1,,1.0,,,,,,,,,,1.0,,,,,,,,,,,
238,596,Alchimie,A5,Antoine,1,1,,1.0,,,,,,,,,,1.0,,,,,,,,,,,
239,598,Alchimie,A5,Ambre,1,1,,1.0,,,,,,,,,,,1.0,,,,,,,,,,
240,600,Alchimie,A5,Blanche,1,1,,1.0,,,,,,,,,,,,,,,,,,1.0,,,
241,602,Alchimie,A5,Océane,1,1,,1.0,,,,,,,,,,,1.0,,,,,,,,,,
242,604,Alchimie,A5,Blanche,1,1,,1.0,,,,,,,,,,,,,,,,,,1.0,,,
243,606,Alchimie,A5,Océane,1,1,,,,,,,,1.0,,,,,,1.0,,,,,,,,,
244,608,Alchimie,A5,Blanche,1,1,,1.0,,,,,,,,,,,,1.0,,,,,,,,,
245,610,Alchimie,A5,Océane,1,1,,,,,,,,1.0,,,,,1.0,,,,,,,,,,
246,612,Alchimie,A5,Blanche,1,1,,,,,,,,1.0,,,,,,,,,,,,,1.0,,
247,614,Alchimie,A5,Océane,1,1,,,,,,,,1.0,,,,,,,,,,,,,1.0,,
248,616,Alchimie,A5,Blanche,1,1,,1.0,,,,,,,,,,,,,,1.0,,,,,,,
249,616,Alchimie,A5,Blanche,1,1,,,,,,,,1.0,,,,,1.0,,,,,,,,,,
250,619,Alchimie,A5,Océane,1,1,,,,,,,,,,1.0,,,1.0,,,,,,,,,,
251,621,Alchimie,A5,Blanche,1,1,,,,,,,,,,1.0,,,1.0,,,,,,,,,,
252,623,Alchimie,A5,Océane,1,1,,,,,,,,,,1.0,,,1.0,,,,,,,,,,
253,625,Alchimie,A5,Antoine,1,1,,1.0,,,,,,,,,,,,,,,,,,1.0,,,
254,630,Alchimie,A5,Ambre,1,1,,,,,,,1.0,,,,,,,,,,1.0,,,,,,
255,632,Alchimie,A5,Blanche,1,1,,,,,,,1.0,,,,,,,,,,,,,1.0,,,
256,636,Alchimie,A5,Blanche,1,1,,1.0,,,,,,,,,,,,,,,,,,1.0,,,
257,638,Alchimie,A5,Antoine,1,1,,1.0,,,,,,,,,,,,,,,,,,1.0,,,
258,640,Alchimie,A5,Blanche,1,1,,1.0,,,,,,,,,,,,,,,,,,1.0,,,
259,644,Alchimie,A5,Blanche,1,1,,1.0,,,,,,,,,,,,,,,,,,1.0,,,
260,648,Alchimie,A5,Océane,1,1,,1.0,,,,,,,,,,,,,,,,,,1.0,,,
261,650,Alchimie,A5,Blanche,1,1,,1.0,,,,,,,,,,,,1.0,,,,,,,,,
262,654,Alchimie,A5,Ambre,1,1,,,,,,1.0,,,,,,,,,,,,,,1.0,,,
263,658,Alchimie,A5,Blanche,1,1,,1.0,,,,,,,,,,,1.0,,,,,,,,,,
264,660,Alchimie,A5,Océane,1,1,,1.0,,,,,,,,,,,1.0,,,,,,,,,,
265,677,Alchimie,A5,Ambre,1,1,,1.0,,,,,,,,,,,1.0,,,,,,,,,,
266,679,Alchimie,A5,Blanche,1,1,,1.0,,,,,,,,,,,,1.0,,,,,,,,,
267,685,Alchimie,A5,Ambre,1,1,1.0,,,,,,,,,,,,1.0,,,,,,,,,,
268,687,Alchimie,A5,Blanche,1,1,1.0,,,,,,,,,,,,1.0,,,,,,,,,,
269,694,Alchimie,A5,Océane,1,1,,1.0,,,,,,,,,,,1.0,,,,,,,,,,
270,698,Alchimie,A5,Océane,1,1,,,,,,,,1.0,,,,,1.0,,,,,,,,,,
271,700,Alchimie,A5,Blanche,1,1,,,,,,,,1.0,,,,,1.0,,,,,,,,,,
272,703,Alchimie,A5,Océane,1,1,,,,,,,,1.0,,,,,1.0,,,,,,,,,,
273,705,Alchimie,A5,Ambre,1,1,,1.0,,,,,,,,,,,,,,,,,,,,1.0,
274,707,Alchimie,A5,Océane,1,1,,,,,,,,1.0,,,,,1.0,,,,,,,,,,
275,710,Alchimie,A5,Ambre,1,1,,,,,,,1.0,,,,,,,,,,,,1.0,,,,
276,712,Alchimie,A5,Antoine,1,1,,,,,,,1.0,,,,,,,,,,,,1.0,,,,
277,714,Alchimie,A5,Ambre,1,1,,,,,,,1.0,,,,,1.0,,,,,,,,,,,
278,716,Alchimie,A5,Antoine,1,1,,,,,,,1.0,,,,,,,,,,,,1.0,,,,
279,718,Alchimie,A5,Ambre,1,1,,1.0,,,,,,,,,,,,,,,,,1.0,,,,
280,721,Alchimie,A5,Antoine,1,1,,1.0,,,,,,,,,,,,1.0,,,,,,,,,
281,723,Alchimie,A5,Ambre,1,1,,1.0,,,,,,,,,,,,1.0,,,,,,,,,
282,726,Alchimie,A5,Antoine,1,1,,1.0,,,,,,,,,,,,1.0,,,,,,,,,
283,728,Alchimie,A5,Blanche,1,1,,1.0,,,,,,,,,,,,,,1.0,,,,,,,
284,730,Alchimie,A5,Ambre,1,1,,1.0,,,,,,,,,,,,1.0,,,,,,,,,
285,733,Alchimie,A5,Blanche,1,1,,1.0,,,,,,,,,,,,1.0,,,,,,,,,
286,735,Alchimie,A5,Océane,1,1,,1.0,,,,,,,,,,1.0,,,,,,,,,,,
287,737,Alchimie,A5,Ambre,1,1,,1.0,,,,,,,,,,1.0,,,,,,,,,,,
288,739,Alchimie,A5,Océane,1,1,,1.0,,,,,,,,,,,,,1.0,,,,,,,,
289,742,Alchimie,A5,Blanche,1,1,,1.0,,,,,,,,,,,,,,,,,,1.0,,,
290,745,Alchimie,A5,Antoine,1,1,,1.0,,,,,,,,,,,,,,,,,,1.0,,,
291,747,Alchimie,A5,Ambre,1,1,,1.0,,,,,,,,,,,,,,,,,,1.0,,,
292,750,Alchimie,A5,Antoine,1,1,,,,,,1.0,,,,,,,,,,,,,,1.0,,,
293,755,Alchimie,A5,Blanche,1,1,,,,1.0,,,,,,,,,,,,,,1.0,,,,,
294,761,Alchimie,A5,Blanche,1,1,,,,,,1.0,,,,,,,,,,,1.0,,,,,,
295,766,Alchimie,A5,Blanche,1,1,,,,1.0,,,,,,,,,,,,,,1.0,,,,,
296,772,Alchimie,A5,Blanche,1,1,,,1.0,,,,,,,,,,,,,,,1.0,,,,,
297,776,Alchimie,A5,Océane,1,1,,,1.0,,,,,,,,,,1.0,,,,,,,,,,
298,782,Alchimie,A5,Ambre,1,1,,1.0,,,,,,,,,,,,,,,,,,1.0,,,
299,784,Alchimie,A5,Blanche,1,1,,,1.0,,,,,,,,,,,,,1.0,,,,,,,
300,795,Alchimie,A5,Ambre,1,1,,,,,,,1.0,,,,,,,,,,1.0,,,,,,
301,799,Alchimie,A5,Ambre,1,1,,,,,,,1.0,,,,,,,,,,,,1.0,,,,
302,804,Alchimie,A5,Blanche,1,1,,,,,,,1.0,,,,,,,,,,,,,1.0,,,
303,808,Alchimie,A5,Ambre,1,1,,,,,,,1.0,,,,,,,,,,,,,,,1.0,
304,810,Alchimie,A5,Blanche,1,1,,,,,,,,1.0,,,,1.0,,,,,,,,,,,
305,812,Alchimie,A5,Ambre,1,1,,,,,,,1.0,,,,,,1.0,,,,,,,,,,
306,814,Alchimie,A5,Antoine,1,1,,,,,,,1.0,,,,,1.0,,,,,,,,,,,
307,816,Alchimie,A5,Blanche,1,1,,,,,,,,,,1.0,,,1.0,,,,,,,,,,
308,820,Alchimie,A5,Antoine,1,1,,,,,,,1.0,,,,,,,,,,,,1.0,,,,
309,822,Alchimie,A5,Ambre,1,1,,1.0,,,,,,,,,,,1.0,,,,,,,,,,
310,824,Alchimie,A5,Blanche,1,1,,,,,,,,,,1.0,,,1.0,,,,,,,,,,
311,826,Alchimie,A5,Ambre,1,1,,1.0,,,,,,,,,,,,,,1.0,,,,,,,
312,828,Alchimie,A5,Antoine,1,1,,1.0,,,,,,,,,,,,1.0,,,,,,,,,
313,830,Alchimie,A5,Blanche,1,1,,1.0,,,,,,,,,,1.0,,,,,,,,,,,
314,834,Alchimie,A5,Ambre,1,1,,1.0,,,,,,,,,,,1.0,,,,,,,,,,
315,836,Alchimie,A5,Blanche,1,1,,1.0,,,,,,,,,,,,,,,,,,1.0,,,
316,840,Alchimie,A5,Ambre,1,1,,1.0,,,,,,,,,,,,,,,,,,1.0,,,
317,845,Alchimie,A5,Blanche,1,1,,1.0,,,,,,,,,,,1.0,,,,,,,,,,
318,849,Alchimie,A5,Ambre,1,1,,,,,,,1.0,,,,,,1.0,,,,,,,,,,
319,851,Alchimie,A5,Blanche,1,1,,,,,,,1.0,,,,,,,,1.0,,,,,,,,
320,856,Alchimie,A5,Blanche,1,1,,,,,,,1.0,,,,,,,,,1.0,,,,,,,
321,858,Alchimie,A5,Océane,1,1,,,,,,,1.0,,,,,,1.0,,,,,,,,,,
322,860,Alchimie,A5,Blanche,1,1,,,,,,,1.0,,,,,,1.0,,,,,,,,,,
323,862,Alchimie,A5,Océane,1,1,,,,,,,,,,1.0,,,1.0,,,,,,,,,,
324,864,Alchimie,A5,Ambre,1,1,,1.0,,,,,,,,,,,,,,1.0,,,,,,,
325,866,Alchimie,A5,Blanche,1,1,,1.0,,,,,,,,,,,1.0,,,,,,,,,,
326,868,Alchimie,A5,Ambre,1,1,,1.0,,,,,,,,,,,1.0,,,,,,,,,,
327,871,Alchimie,A5,Océane,1,1,,1.0,,,,,,,,,,,,,,,,,,1.0,,,
328,873,Alchimie,A5,Blanche,1,1,,,,,,,1.0,,,,,,1.0,,,,,,,,,,
329,875,Alchimie,A5,Océane,1,1,,,,,,,,1.0,,,,,1.0,,,,,,,,,,
330,878,Alchimie,A5,Ambre,1,1,,,,,,,1.0,,,,,,,,,,,,,1.0,,,
331,880,Alchimie,A5,Océane,1,1,,,,,,,1.0,,,,,,1.0,,,,,,,,,,
332,882,Alchimie,A5,Ambre,1,1,,,,,,,1.0,,,,,,1.0,,,,,,,,,,
333,884,Alchimie,A5,Océane,1,1,,,,,,,1.0,,,,,,,1.0,,,,,,,,,
334,886,Alchimie,A5,Blanche,1,1,,,,,,,,1.0,,,,,,1.0,,,,,,,,,
335,888,Alchimie,A5,Ambre,1,1,,,,,,,1.0,,,,,1.0,,,,,,,,,,,
336,890,Alchimie,A5,Antoine,1,1,,,,,,,1.0,,,,,,,,,,,,1.0,,,,
337,892,Alchimie,A5,Blanche,1,1,,,,,,,1.0,,,,,,1.0,,,,,,,,,,
338,896,Alchimie,A5,Ambre,1,1,,,1.0,,,,,,,,,,1.0,,,,,,,,,,
339,903,Alchimie,A5,Ambre,1,1,,,1.0,,,,,,,,,,,,,,,,,1.0,,,
340,907,Alchimie,A5,Ambre,1,1,,,1.0,,,,,,,,,,,,,,,,,1.0,,,
341,911,Alchimie,A5,Ambre,1,1,,,,,,,1.0,,,,,,,,,,,,,1.0,,,
342,915,Alchimie,A5,Océane,1,1,,,,,,,1.0,,,,,,,,,,,,,1.0,,,
343,921,Alchimie,A5,Ambre,1,1,,,,,,,1.0,,,,,,1.0,,,,,,,,,,
344,925,Alchimie,A5,Blanche,1,1,,,,,1.0,,,,,,,,,,,1.0,,,,,,,
345,930,Alchimie,A5,Blanche,1,1,,1.0,,,,,,,,,,,,,,1.0,,,,,,,
346,933,Alchimie,A5,Océane,1,1,,,,,,,,,,1.0,,,,,,,1.0,,,,,,
347,935,Alchimie,A5,Blanche,1,1,,,,,,,,1.0,,,,,,,,1.0,,,,,,,
348,935,Alchimie,A5,Blanche,1,1,,,1.0,,,,,,,,,,,,,1.0,,,,,,,
349,938,Alchimie,A5,Ambre,1,1,,,,,,,1.0,,,,,,,,,1.0,,,,,,,
350,940,Alchimie,A5,Blanche,1,1,,1.0,,,,,,,,,,,,,,,,,,1.0,,,
351,942,Alchimie,A5,Ambre,1,1,1.0,,,,,,,,,,,,,,,1.0,,,,,,,
352,944,Alchimie,A5,Antoine,1,1,1.0,,,,,,,,,,,,,,,,,,,,,1.0,
353,946,Alchimie,A5,Ambre,1,1,1.0,,,,,,,,,,,,1.0,,,,,,,,,,
354,949,Alchimie,A5,Blanche,1,1,1.0,,,,,,,,,,,,,1.0,,,,,,,,,
355,951,Alchimie,A5,Ambre,1,1,1.0,,,,,,,,,,,1.0,,,,,,,,,,,
356,953,Alchimie,A5,Blanche,1,1,1.0,,,,,,,,,,,,1.0,,,,,,,,,,
357,955,Alchimie,A5,Ambre,1,1,1.0,,,,,,,,,,,,,1.0,,,,,,,,,
358,959,Alchimie,A5,Blanche,1,1,,,1.0,,,,,,,,,,1.0,,,,,,,,,,
359,963,Alchimie,A5,Blanche,1,1,,,1.0,,,,,,,,,,1.0,,,,,,,,,,
360,965,Alchimie,A5,Ambre,1,1,1.0,,,,,,,,,,,,1.0,,,,,,,,,,
361,970,Alchimie,A5,Ambre,1,1,1.0,,,,,,,,,,,,1.0,,,,,,,,,,
362,975,Alchimie,A5,Ambre,1,1,1.0,,,,,,,,,,,,,1.0,,,,,,,,,
363,980,Alchimie,A5,Océane,1,1,1.0,,,,,,,,,,,1.0,,,,,,,,,,,
364,982,Alchimie,A5,Ambre,1,1,1.0,,,,,,,,,,,,,1.0,,,,,,,,,
365,985,Alchimie,A5,Blanche,1,1,,,,,,,,,,1.0,,,,,,,,,,1.0,,,
366,987,Alchimie,A5,Océane,1,1,,,,,,,,,,1.0,,,,,,,,,,1.0,,,
367,989,Alchimie,A5,Blanche,1,1,,,,,,,,,,1.0,,,,,,,,,,1.0,,,
368,991,Alchimie,A5,Océane,1,1,,,,,,,,,,1.0,,,1.0,,,,,,,,,,
369,993,Alchimie,A5,Blanche,1,1,,,,,,,,,,1.0,,,1.0,,,,,,,,,,
370,995,Alchimie,A5,Ambre,1,1,1.0,,,,,,,,,,,,,,,1.0,,,,,,,
371,998,Alchimie,A5,Blanche,1,1,,,,,,,,1.0,,,,,,,,,,,,,1.0,,
372,1000,Alchimie,A5,Ambre,1,1,,,,,,,,1.0,,,,1.0,,,,,,,,,,,
373,1004,Alchimie,A5,Ambre,1,1,,,,,,,1.0,,,,,,,,,,,,,1.0,,,
374,1008,Alchimie,A5,Ambre,1,1,,,,,,,1.0,,,,,,,,,,,,,1.0,,,
375,1010,Alchimie,A5,Blanche,1,1,,,,,,,1.0,,,,,,,1.0,,,,,,,,,
376,1012,Alchimie,A5,Ambre,1,1,1.0,,,,,,,,,,,,,,1.0,,,,,,,,
377,1016,Alchimie,A5,Blanche,1,1,,,,,,,1.0,,,,,,,,,,,,,1.0,,,
378,1018,Alchimie,A5,Océane,1,1,,,,,,,,,,1.0,,,1.0,,,,,,,,,,
379,1022,Alchimie,A5,Blanche,1,1,,,1.0,,,,,,,,,,,,,,1.0,,,,,,
380,1026,Alchimie,A5,Blanche,1,1,,,1.0,,,,,,,,,,,,,,1.0,,,,,,
381,1030,Alchimie,A5,Blanche,1,1,,,1.0,,,,,,,,,,,,,,1.0,,,,,,
382,1034,Alchimie,A5,Ambre,1,1,,,1.0,,,,,,,,,,,,,,1.0,,,,,,
383,1038,Alchimie,A5,Blanche,1,1,,,1.0,,,,,,,,,,,,,,1.0,,,,,,
384,1042,Alchimie,A5,Ambre,1,1,,,1.0,,,,,,,,,1.0,,,,,,,,,,,
385,1046,Alchimie,A5,Océane,1,1,,,,,,,1.0,,,,,,,,,,,,,,,1.0,
386,1050,Alchimie,A5,Sassoun,1,1,1.0,,,,,,,,,,,,1.0,,,,,,,,,,
387,1052,Alchimie,A5,Ambre,1,1,1.0,,,,,,,,,,,,,,,,1.0,,,,,,
388,1054,Alchimie,A5,Océane,1,1,1.0,,,,,,,,,,,,,,,,,,,1.0,,,
389,1056,Alchimie,A5,Ambre,1,1,1.0,,,,,,,,,,,1.0,,,,,,,,,,,
390,1062,Alchimie,A5,Blanche,1,1,,,1.0,,,,,,,,,,,,,,1.0,,,,,,
391,1069,Alchimie,A5,Blanche,1,1,1.0,,,,,,,,,,,1.0,,,,,,,,,,,
392,1073,Alchimie,A5,Blanche,1,1,,,,,,,,1.0,,,,,,,,,1.0,,,,,,
393,1075,Alchimie,A5,Océane,1,1,,,,,,,,1.0,,,,,1.0,,,,,,,,,,
394,1077,Alchimie,A5,Blanche,1,1,,,,,,,,1.0,,,,,1.0,,,,,,,,,,
