,SommeA2,MoyenneA2
C1,57.0,0.12284482758620689
C2,185.0,0.39870689655172414
C3,14.0,0.03017241379310345
C3BIS,3.0,0.00646551724137931
C4,3.0,0.00646551724137931
C5,49.0,0.10560344827586207
C6,123.0,0.2650862068965517
C7,17.0,0.036637931034482756
C8,13.0,0.028017241379310345
C9,16.0,0.034482758620689655
E1,48.0,0.10344827586206896
E2,185.0,0.39870689655172414
E3,51.0,0.10991379310344827
E4,11.0,0.023706896551724137
E5,15.0,0.032327586206896554
E6,36.0,0.07758620689655173
E7,0.0,0.0
E8,22.0,0.04741379310344827
E9,94.0,0.2025862068965517
E10,1.0,0.0021551724137931034
E11,1.0,0.0021551724137931034
