SommeA2,MoyenneA2
57.0,0.12284482758620689
185.0,0.39870689655172414
14.0,0.03017241379310345
3.0,0.00646551724137931
3.0,0.00646551724137931
49.0,0.10560344827586207
123.0,0.2650862068965517
17.0,0.036637931034482756
13.0,0.028017241379310345
16.0,0.034482758620689655
48.0,0.10344827586206896
185.0,0.39870689655172414
51.0,0.10991379310344827
11.0,0.023706896551724137
15.0,0.032327586206896554
36.0,0.07758620689655173
0.0,0.0
22.0,0.04741379310344827
94.0,0.2025862068965517
1.0,0.0021551724137931034
1.0,0.0021551724137931034
