NProp,Ligne,Seance,Numero,NomEleve,Lycee,Poesie,C1,C2,C3,C3BIS,C4,C5,C6,C7,C8,C9,C10,E1,E2,E3,E4,E5,E6,E7,E8,E9,E10,E11,Text
1,4,Alchimie,A1,Marie,1,1,,,,,,,1.0,,,,,,,,,,,,,,,,
2,6,Alchimie,A1,Marie,1,1,,,,,,,,1.0,,,,,,,,,,,,,,,
3,6,Alchimie,A1,Marie,1,1,,,,,,,1.0,,,,,,,,,,,,,,,,
4,7,Alchimie,A1,Cathy,1,1,,1.0,,,,,,,,,,,,,,,,,1.0,,,,
5,8,Alchimie,A1,Cathy,1,1,,1.0,,,,,,,,,,1.0,,,,,,,,,,,
6,9,Alchimie,A1,Zadoorian,1,1,,1.0,,,,,,,,,,,,1.0,,,,,,,,,
7,10,Alchimie,A1,Capucine,1,1,,1.0,,,,,,,,,,,,1.0,,,,,,,,,
8,11,Alchimie,A1,Marie,1,1,,1.0,,,,,,,,,,,,1.0,,,,,,,,,
9,12,Alchimie,A1,Zadoorian,1,1,,1.0,,,,,,,,,,,,1.0,,,,,,,,,
10,13,Alchimie,A1,Marie,1,1,,1.0,,,,,,,,,,,1.0,,,,,,,,,,
11,13,Alchimie,A1,Marie,1,1,,,,,,1.0,,,,,,,,,1.0,,,,,,,,
12,14,Alchimie,A1,Cathy,1,1,,1.0,,,,,,,,,,,,,1.0,,,,,,,,
13,14,Alchimie,A1,Cathy,1,1,,1.0,,,,,,,,,,,,,,,,,1.0,,,,
14,15,Alchimie,A1,Marie,1,1,,1.0,,,,,,,,,,,1.0,,,,,,,,,,
15,16,Alchimie,A1,Cathy,1,1,,1.0,,,,,,,,,,,1.0,,,,,,,,,,
16,17,Alchimie,A1,Marie,1,1,,1.0,,,,,,,,,,,1.0,,,,,,,,,,
17,18,Alchimie,A1,Cathy,1,1,,,,,,,,,,,,1.0,,,,,,,,,,,
18,19,Alchimie,A1,Marie,1,1,1.0,,,,,,,,,,,,1.0,,,,,,,,,,
19,21,Alchimie,A1,Marie,1,1,,1.0,,,,,,,,,,,1.0,,,,,,,,,,
20,22,Alchimie,A1,Zadoorian,1,1,,,,,,,,,,1.0,,,,,,,,,,,,,
21,23,Alchimie,A1,Marie,1,1,1.0,1.0,,,,,,,,,,,1.0,,,,,,,,,,
22,24,Alchimie,A1,Zadoorian,1,1,,1.0,,,,,,,,,,,1.0,,,,,,,,,,
23,27,Alchimie,A1,Marie,1,1,1.0,,,,,,,,,,,1.0,,,,,,,,,,,
24,28,Alchimie,A1,Cathy,1,1,1.0,,,,,,,,,,,,1.0,,,,,,,,,,
25,29,Alchimie,A1,Zadoorian,1,1,,,,,,,1.0,,,,,,1.0,,,,,,,,,,
26,30,Alchimie,A1,Capucine,1,1,,1.0,,,,,,,,,,1.0,,,,,,,,,,,
27,31,Alchimie,A1,Marie,1,1,,1.0,,,,,,,,,,,,,,,,,1.0,,,,
28,32,Alchimie,A1,Zadoorian,1,1,,,,,,1.0,,,,,,,1.0,,,,,,,,,,
29,34,Alchimie,A1,Zadoorian,1,1,,,,,,1.0,,,,,,,1.0,,,,,,,,,,
30,35,Alchimie,A1,Marie,1,1,,,,,,1.0,,,,,,,1.0,,,,,,,,,,
31,36,Alchimie,A1,Cathy,1,1,,,,,,1.0,,,,,,,1.0,,,,,,,,,,
32,37,Alchimie,A1,Marie,1,1,,,,,,1.0,,,,,,,1.0,,,,,,,,,,
33,38,Alchimie,A1,Cathy,1,1,1.0,,,,,,,,,,,,,,,,,,,1.0,,,
34,41,Alchimie,A1,Capucine,1,1,1.0,,,,,,,,,,,,1.0,,,,,,,,,,
35,43,Alchimie,A1,Cathy,1,1,,1.0,,,,,,,,,,,,,,,,,1.0,,,,
36,44,Alchimie,A1,Capucine,1,1,,1.0,,,,,,,,,,,,,,,,,,1.0,,,
37,45,Alchimie,A1,Cathy,1,1,1.0,,,,,,,,,,,,1.0,,,,,,,,,,
38,46,Alchimie,A1,Marie,1,1,,,,,,,1.0,,,,,1.0,,,,,,,,,,,
39,47,Alchimie,A1,Cathy,1,1,,1.0,,,,,,,,,,,,,,,,,1.0,,,,
40,48,Alchimie,A1,Capucine,1,1,,1.0,,,,,,,,,,,,1.0,,,,,,,,,
41,49,Alchimie,A1,Cathy,1,1,1.0,,,,,,,,,,,,1.0,,,,,,,,,,
42,50,Alchimie,A1,Zadoorian,1,1,1.0,,,,,,,,,,,,1.0,,,,,,,,,,
43,51,Alchimie,A1,Cathy,1,1,,,,,,,1.0,,,,,,,,1.0,,,,,,,,
44,52,Alchimie,A1,Capucine,1,1,,,,,,,1.0,,,,,,,,,,,,,1.0,,,
45,53,Alchimie,A1,Cathy,1,1,,1.0,,,,,,,,,,,1.0,,,,,,,,,,
46,54,Alchimie,A1,Capucine,1,1,1.0,,,,,,,,,,,,,,,,,,1.0,,,,
47,55,Alchimie,A1,Marie,1,1,1.0,,,,,,,,,,,1.0,,,,,,,,,,,
48,56,Alchimie,A1,Capucine,1,1,1.0,,,,,,,,,,,,1.0,,,,,,,,,,
49,57,Alchimie,A1,Cathy,1,1,1.0,,,,,,,,,,,,1.0,,,,,,,,,,
50,58,Alchimie,A1,Capucine,1,1,,1.0,,,,,,,,,,,,,,,,,1.0,,,,
51,59,Alchimie,A1,Cathy,1,1,,,,,,1.0,,,,,,,,,,,,,,1.0,,,
52,60,Alchimie,A1,Capucine,1,1,,,,,,1.0,,,,,,1.0,,,,,,,,,,,
53,61,Alchimie,A1,Cathy,1,1,,,,,,1.0,,,,,,,1.0,,,,,,,,,,
54,62,Alchimie,A1,Capucine,1,1,,,,,,1.0,,,,,,,1.0,,,,,,,,,,
55,63,Alchimie,A1,Capucine,1,1,,,,,,1.0,,,,,,,,,,,,,,1.0,,,
56,64,Alchimie,A1,Cathy,1,1,,,,,,1.0,,,,,,,,1.0,,,,,,,,,
57,65,Alchimie,A1,Capucine,1,1,,,,,,1.0,,,,,,,1.0,,,,,,,,,,
58,66,Alchimie,A1,Cathy,1,1,,1.0,,,,,,,,,,,,,,,,,1.0,,,,
59,67,Alchimie,A1,Cathy,1,1,,,,,,1.0,,,,,,,1.0,,,,,,,,,,
60,68,Alchimie,A1,Marie,1,1,,,,,,1.0,,,,,,,,,,,,,,1.0,,,
61,69,Alchimie,A1,Capucine,1,1,,,,,,1.0,,,,,,,,,1.0,,,,,,,,
62,70,Alchimie,A1,Marie,1,1,,1.0,,,,,,,,,,,1.0,,,,,,,,,,
63,71,Alchimie,A1,Capucine,1,1,,1.0,,,,,,,,,,,,1.0,,,,,,,,,
64,72,Alchimie,A1,Marie,1,1,,1.0,,,,,,,,,,,1.0,,,,,,,,,,
65,72,Alchimie,A1,Zadoorian,1,1,,,1.0,,,,,,,,,,,,,,,,1.0,,,,
66,74,Alchimie,A1,Cathy,1,1,,,,,,1.0,,,,,,,,,,,,,,1.0,,,
67,75,Alchimie,A1,Zadoorian,1,1,,,,,,1.0,,,,,,,1.0,,,,,,,,,,
68,76,Alchimie,A1,Cathy,1,1,,,,,,1.0,,,,,,1.0,,,,,,,,,,,
69,77,Alchimie,A1,Zadoorian,1,1,,,,,,1.0,,,,,,,,,,,,,,1.0,,,
70,78,Alchimie,A1,Marie,1,1,,,1.0,,,,,,,,,,1.0,,,,,,,,,,
71,79,Alchimie,A1,Zadoorian,1,1,,,,,,1.0,,,,,,,,,,,,,,1.0,,,
72,80,Alchimie,A1,Marie,1,1,,1.0,,,,,,,,,,,,,,1.0,,,,,,,
73,81,Alchimie,A1,Zadoorian,1,1,,,,,,1.0,,,,,,,1.0,,,,,,,,,,
74,82,Alchimie,A1,Cathy,1,1,1.0,,,,,,,,,,,,1.0,,,,,,,,,,
75,83,Alchimie,A1,Marie,1,1,,1.0,,,,,,,,,,,,,,1.0,,,,,,,
76,84,Alchimie,A1,Zadoorian,1,1,,,,,,1.0,,,,,,,,,,1.0,,,,,,,
77,85,Alchimie,A1,Cathy,1,1,,,,,,1.0,,,,,,,1.0,,,,,,,,,,
78,86,Alchimie,A1,Zadoorian,1,1,,,,,,1.0,,,,,,,1.0,,,,,,,,,,
79,87,Alchimie,A1,Cathy,1,1,,,,,,1.0,,,,,,,,,,,,,,1.0,,,
80,88,Alchimie,A1,Marie,1,1,,1.0,,,,,,,,,,,,,,,,,1.0,,,,
81,89,Alchimie,A1,Capucine,1,1,,,,,,1.0,,,,,,,1.0,,,,,,,,,,
82,90,Alchimie,A1,Marie,1,1,,1.0,,,,,,,,,,,1.0,,,,,,,,,,
83,91,Alchimie,A1,Capucine,1,1,,,,,,1.0,,,,,,1.0,,,,,,,,,,,
84,92,Alchimie,A1,Marie,1,1,,,,,,1.0,,,,,,,,1.0,,,,,,,,,
85,93,Alchimie,A1,Zadoorian,1,1,,,,,,1.0,,,,,,1.0,,,,,,,,,,,
86,95,Alchimie,A1,Marie,1,1,,,,,,1.0,,,,,,,1.0,,,,,,,,,,
87,96,Alchimie,A1,Capucine,1,1,,,,,,1.0,,,,,,,,1.0,,,,,,,,,
88,97,Alchimie,A1,Marie,1,1,,,,,,1.0,,,,,,1.0,,,,,,,,,,,
89,98,Alchimie,A1,Zadoorian,1,1,,,,,,1.0,,,,,,1.0,,,,,,,,,,,
90,99,Alchimie,A1,Capucine,1,1,,,,,,1.0,,,,,,1.0,,,,,,,,,,,
91,100,Alchimie,A1,Marie,1,1,,1.0,,,,,,,,,,1.0,,,,,,,,,,,
92,101,Alchimie,A1,Cathy,1,1,,1.0,,,,,,,,,,1.0,,,,,,,,,,,
93,103,Alchimie,A1,Capucine,1,1,,1.0,,,,,,,,,,,,,,,1.0,,,,,,
94,105,Alchimie,A1,Capucine,1,1,,1.0,,,,,,,,,,,1.0,,,,,,,,,,
95,106,Alchimie,A1,Marie,1,1,,1.0,,,,,,,,,,,1.0,,,,,,,,,,
96,107,Alchimie,A1,Cathy,1,1,,1.0,,,,,,,,,,,,1.0,,,,,,,,,
97,108,Alchimie,A1,Capucine,1,1,,1.0,,,,,,,,,,,,1.0,,,,,,,,,
98,109,Alchimie,A1,Marie,1,1,,1.0,,,,,,,,,,1.0,,,,,,,,,,,
99,110,Alchimie,A1,Cathy,1,1,,1.0,,,,,,,,,,,,1.0,,,,,,,,,
100,111,Alchimie,A1,Marie,1,1,,1.0,,,,,,,,,,,,,1.0,,,,,,,,
101,112,Alchimie,A1,Marie,1,1,,1.0,,,,,,,,,,,,,,,,,1.0,,,,
102,114,Alchimie,A1,Marie,1,1,1.0,,,,,,,,,,,,,,,,1.0,,,,,,
103,115,Alchimie,A1,Zadoorian,1,1,,,,,,,1.0,,,,,,,,,,,,1.0,,,,
104,116,Alchimie,A1,Marie,1,1,,,,,,,1.0,,,,,,1.0,,,,,,,,,,
105,117,Alchimie,A1,Zadoorian,1,1,,,,,,,1.0,,,,,1.0,,,,,,,,,,,
106,118,Alchimie,A1,Capucine,1,1,1.0,,,,,,,,,,,,1.0,,,,,,,,,,
107,119,Alchimie,A1,Cathy,1,1,1.0,,,,,,,,,,,,1.0,,,,,,,,,,
108,120,Alchimie,A1,Capucine,1,1,1.0,,,,,,,,,,,,1.0,,,,,,,,,,
109,121,Alchimie,A1,Cathy,1,1,1.0,,,,,,,,,,,,,,,,,,,1.0,,,
110,122,Alchimie,A1,Marie,1,1,,1.0,,,,,,,,,,,,,,1.0,,,,,,,
111,123,Alchimie,A1,Cathy,1,1,1.0,,,,,,,,,,,,1.0,,,,,,,,,,
112,124,Alchimie,A1,Marie,1,1,1.0,,,,,,,,,,,,1.0,,,,,,,,,,
113,125,Alchimie,A1,Cathy,1,1,,1.0,,,,,,,,,,,1.0,,,,,,,,,,
114,126,Alchimie,A1,Marie,1,1,,1.0,,,,,,,,,,,,,,,,,1.0,,,,
115,128,Alchimie,A1,Capucine,1,1,,1.0,,,,,,,,,,,,1.0,,,,,,,,,
116,129,Alchimie,A1,Cathy,1,1,,1.0,,,,,,,,,,,1.0,,,,,,,,,,
117,130,Alchimie,A1,Capucine,1,1,,1.0,,,,,,,,,,,1.0,,,,,,,,,,
118,132,Alchimie,A1,Capucine,1,1,,1.0,,,,,,,,,,,1.0,,,,,,,,,,
119,133,Alchimie,A1,Marie,1,1,,1.0,,,,,,,,,,,1.0,,,,,,,,,,
120,135,Alchimie,A1,Marie,1,1,1.0,,,,,,,,,,,,,,,,,,1.0,,,,
121,137,Alchimie,A1,Marie,1,1,,,1.0,,,,,,,,,,,,,,1.0,,,,,,
122,141,Alchimie,A1,Marie,1,1,,,1.0,,,,,,,,,,,,,,1.0,,,,,,
123,143,Alchimie,A1,Marie,1,1,,,1.0,,,,,,,,,,,,,,1.0,,,,,,
124,145,Alchimie,A1,Marie,1,1,,,1.0,,,,,,,,,,,,,,1.0,,,,,,
125,147,Alchimie,A1,Cathy,1,1,,1.0,,,,,,,,,,,,,,,1.0,,,,,,
126,148,Alchimie,A1,Marie,1,1,,1.0,,,,,,,,,,,1.0,,,,,,,,,,
127,149,Alchimie,A1,Cathy,1,1,1.0,,,,,,,,,,,,1.0,,,,,,,,,,
128,150,Alchimie,A1,Marie,1,1,1.0,,,,,,,,,,,,1.0,,,,,,,,,,
129,151,Alchimie,A1,Capucine,1,1,,1.0,,,,,,,,,,,1.0,,,,,,,,,,
130,153,Alchimie,A1,Marie,1,1,,,,,,,1.0,,,,,,,,,,1.0,,,,,,
131,154,Alchimie,A1,Cathy,1,1,,1.0,,,,,,,,,,,,,,1.0,,,,,,,
132,155,Alchimie,A1,Cathy,1,1,1.0,,,,,,,,,,,,,,,,,,1.0,,,,
133,156,Alchimie,A1,Cathy,1,1,1.0,,,,,,,,,,,,1.0,,,,,,,,,,
134,157,Alchimie,A1,Marie,1,1,1.0,,,,,,,,,,,,1.0,,,,,,,,,,
135,158,Alchimie,A1,Cathy,1,1,,1.0,,,,,,,,,,,1.0,,,,,,,,,,
136,160,Alchimie,A1,Cathy,1,1,,1.0,,,,,,,,,,,,,,,,,,1.0,,,
137,162,Alchimie,A1,Cathy,1,1,1.0,,,,,,,,,,,,,,1.0,,,,,,,,
138,163,Alchimie,A1,Marie,1,1,1.0,,,,,,,,,,,,1.0,,,,,,,,,,
139,164,Alchimie,A1,Marie,1,1,,,1.0,,,,,,,,,,1.0,,,,,,,,,,
140,166,Alchimie,A1,Marie,1,1,,,1.0,,,,,,,,,,1.0,,,,,,,,,,
141,167,Alchimie,A1,Cathy,1,1,,,1.0,,,,,,,,,1.0,,,,,,,,,,,
142,168,Alchimie,A1,Zadoorian,1,1,,,1.0,,,,,,,,,,1.0,,,,,,,,,,
143,169,Alchimie,A1,Cathy,1,1,,,1.0,,,,,,,,,,1.0,,,,,,,,,,
144,170,Alchimie,A1,Zadoorian,1,1,,,1.0,,,,,,,,,,1.0,,,,,,,,,,
145,171,Alchimie,A1,Capucine,1,1,,,1.0,,,,,,,,,,1.0,,,,,,,,,,
146,173,Alchimie,A1,Cathy,1,1,,,1.0,,,,,,,,,,1.0,,,,,,,,,,
147,174,Alchimie,A1,Marie,1,1,,,,,,,1.0,,,,,,,,,,,,1.0,,,,
148,175,Alchimie,A1,Cathy,1,1,,,,,,,1.0,,,,,,1.0,,,,,,,,,,
149,176,Alchimie,A1,Capucine,1,1,,,1.0,,,,,,,,,,,1.0,,,,,,,,,
150,177,Alchimie,A1,Cathy,1,1,,,1.0,,,,,,,,,,1.0,,,,,,,,,,
151,179,Alchimie,A1,Marie,1,1,1.0,,,,,,,,,,,,1.0,,,,,,,,,,
152,181,Alchimie,A1,Cathy,1,1,,,,,,1.0,,,,,,,,,,,1.0,,,,,,
153,183,Alchimie,A1,Marie,1,1,,,1.0,,,,,,,,,,,,,,1.0,,,,,,
154,185,Alchimie,A1,Marie,1,1,,,1.0,,,,,,,,,,,,,,1.0,,,,,,
155,189,Alchimie,A1,Cathy,1,1,1.0,,,,,,,,,,,,,,,,1.0,,,,,,
156,191,Alchimie,A1,Cathy,1,1,1.0,,,,,,,,,,,,,,,,1.0,,,,,,
157,193,Alchimie,A1,Cathy,1,1,1.0,,,,,,,,,,,,,,,,,,,1.0,,,
158,194,Alchimie,A1,Zadoorian,1,1,,,,,,,1.0,,,,,,,,1.0,,,,,,,,
159,196,Alchimie,A1,Capucine,1,1,,,1.0,,,,,,,,,,,1.0,,,,,,,,,
160,197,Alchimie,A1,Cathy,1,1,,,1.0,,,,,,,,,,1.0,,,,,,,,,,
161,199,Alchimie,A1,Marie,1,1,,,,,,,1.0,,,,,,,,,,1.0,,,,,,
162,200,Alchimie,A1,Cathy,1,1,,,,,,,1.0,,,,,,1.0,,,,,,,,,,
163,201,Alchimie,A1,Marie,1,1,,,,,,,1.0,,,,,1.0,,,,,,,,,,,
164,202,Alchimie,A1,Cathy,1,1,,,,,,,1.0,,,,,,1.0,,,,,,,,,,
165,203,Alchimie,A1,Marie,1,1,1.0,,,,,,,,,,,,1.0,,,,,,,,,,
166,205,Alchimie,A1,Cathy,1,1,,,,,,,1.0,,,,,,,,,,,,,1.0,,,
167,209,Alchimie,A1,Marie,1,1,1.0,,,,,,,,,,,,1.0,,,,,,,,,,
168,210,Alchimie,A1,Cathy,1,1,1.0,,,,,,,,,,,,,1.0,,,,,,,,,
169,211,Alchimie,A1,Zadoorian,1,1,,,1.0,,,,,,,,,,,,,1.0,,,,,,,
170,212,Alchimie,A1,Cathy,1,1,,,1.0,,,,,,,,,,1.0,,,,,,,,,,
171,213,Alchimie,A1,Zadoorian,1,1,,,1.0,,,,,,,,,,1.0,,,,,,,,,,
172,214,Alchimie,A1,Capucine,1,1,1.0,,,,,,,,,,,,,1.0,,,,,,,,,
173,215,Alchimie,A1,Zadoorian,1,1,1.0,,,,,,,,,,,,,1.0,,,,,,,,,
174,216,Alchimie,A1,Capucine,1,1,1.0,,,,,,,,,,,,1.0,,,,,,,,,,
175,217,Alchimie,A1,Zadoorian,1,1,1.0,,,,,,,,,,,,1.0,,,,,,,,,,
176,218,Alchimie,A1,Capucine,1,1,,,1.0,,,,,,,,,,,1.0,,,,,,,,,
177,219,Alchimie,A1,Zadoorian,1,1,,,1.0,,,,,,,,,,,1.0,,,,,,,,,
178,221,Alchimie,A1,Marie,1,1,,,,,,,1.0,,,,,,,,,1.0,,,,,,,
179,225,Alchimie,A1,Zadoorian,1,1,,,1.0,,,,,,,,,,,,,,1.0,,,,,,
180,228,Alchimie,A1,Zadoorian,1,1,,,1.0,,,,,,,,,,,,,,1.0,,,,,,
181,230,Alchimie,A1,Cathy,1,1,,,,,,,,1.0,,,,,,,1.0,,,,,,,,
182,231,Alchimie,A1,Marie,1,1,,,,,,,,1.0,,,,,,,1.0,,,,,,,,
183,232,Alchimie,A1,Cathy,1,1,,,,,,,1.0,,,,,,,,1.0,,,,,,,,
