NProp,Ligne,Seance,Numero,NomEleve,Lycee,Poesie,C1,C2,C3,C3BIS,C4,C5,C6,C7,C8,C9,C10,E1,E2,E3,E4,E5,E6,E7,E8,E9,E10,E11,Text
1,1,Hadrien,H6,Alexane ,1,,,,,,,,1.0,,,,,,,,,,,,,1.0,,,"Alexane :<En fait, j'ai pas compris ce qu’il fallait faire…>"
2,3,Hadrien,H6,Anna ,1,,,,,,,,1.0,,,,,,1.0,,,,,,,,,,"Anna :<Alors, « mise en commun dans le groupe de ces mots et phrases en vue de la recherche de l’axe de lecture et prise de note dans la feuille nominative... »>"
3,6,Hadrien,H6,Anna ,1,,,,,,,,,,,1.0,,,,,,,,,,,,,"Anna :<Normalement, il y a des cafés et tout dans les brainstormings…>"
4,9,Hadrien,H6,Charlotte ,1,,,,,,,,,,,1.0,,,,,,,,,,,,,Charlotte :<J’ai envie de fixer la caméra…>
5,13,Hadrien,H6,Faustin ,1,,,,,,,,,1.0,,,,,,,,,1.0,,,,,,"Faustin :<Il faut qu’on travaille en groupe, mais sans parler.>"
6,16,Hadrien,H6,Faustin ,1,,,,,,,,1.0,,,,,,,,,,,,,1.0,,,Faustin :<Pourquoi vous avez choisi des mots ?>
7,18,Hadrien,H6,Alexane ,1,,,,,,,,,,,1.0,,,,,,,,,,,,,Alexane :<Pourquoi tu rigoles ?>
8,21,Hadrien,H6,Charlotte,1,,,,,,,,,,,1.0,,,,,,,,,,,,,Charlotte:<C’est bon.>
9,23,Hadrien,H6,Faustin ,1,,,,,,,,,,,1.0,,,,,,,,,,,,,"Faustin :<C’est pas grave ça, c'est… tu sais, ils sont que deux à être choisis pour faire ça, en fait.>"
10,25,Hadrien,H6,Anna ,1,,,,,,,,1.0,,,,,,,,,,,,,1.0,,,Anna :<Donc vous avez mis quoi ?>
11,27,Hadrien,H6,Faustin ,1,,,,1.0,,,,,,,,,,1.0,,,,,,,,,,"Faustin :<Moi, j'ai mis : « informer », « méditation écrite », « pas particulièrement scandaleuse »…>"
12,29,Hadrien,H6,Anna ,1,,,,,,,,1.0,,,,,,1.0,,,,,,,,,,"Anna :<Attends, tu dis un truc et tu expliques…>"
13,32,Hadrien,H6,Alexane ,1,,,,,,,,,1.0,,,,,,,,,,,,1.0,,,Alexane :<On est perdus…>
14,34,Hadrien,H6,Charlotte,1,,,,,,,,1.0,,,,,,1.0,,,,,,,,,,"Charlotte :<Faire un axe de lecture… un axe de quoi, déjà ? De lecture>."
15,36,Hadrien,H6,Alexane ,1,,,,,,,,1.0,,,,,,,,,,,,1.0,,,,Alexane :<Il faut aussi répondre aux questions.>
16,39,Hadrien,H6,Alexane ,1,,,,,,,,1.0,,,,,,,,,,,,,1.0,,,Alexane :<Vous écrivez quoi ?>
17,41,Hadrien,H6,Charlotte ,1,,,,,,,,,,,1.0,,,,,,,,,,,,,"Charlotte :<Moi, j’écris « trois », parce que c'est beau les trois>."
18,43,Hadrien,H6,Anna ,1,,,,,,,,1.0,,,,,,,,,1.0,,,,,,,"Anna :<Alexane, tu fais quoi ?>"
19,45,Hadrien,H6,Alexane ,1,,,,,,,,,1.0,,,,,1.0,,,,,,,,,,"Alexane :<Je sais pas, ce qui me vient à l’esprit>."
20,48,Hadrien,H6,Faustin ,1,,,,,,,,1.0,,,,,,,,,,,,,,,1.0,"Faustin :<Mais c'est un travail de groupe. En fait, mets ton esprit au milieu, et dis-nous ce que tu écris… Mets ton esprit au milieu et parle.>"
21,50,Hadrien,H6,Alexane ,1,,,,1.0,,,,,,,,,,1.0,,,,,,,,,,"Alexane :<Mais moi, quand on dit… attends, genre, la question, là : « que peut-on penser du personnage d’Hadrien ? » Pour moi, il commence sa lettre en parlant à son…>"
22,52,Hadrien,H6,Charlotte ,1,,,,,,,1.0,,,,,,,1.0,,,,,,,,,,Charlotte :<Petit-fils…>
23,54,Hadrien,H6,Alexane ,1,,,,,,,1.0,,,,,,,1.0,,,,,,,,,,Alexane :<Petit-fils adoptif.>
24,56,Hadrien,H6,Faustin ,1,,,,1.0,,,,,,,,,,1.0,,,,,,,,,,"Faustin :<Il aime pas son fils, il adore son petit-fils.>"
25,58,Hadrien,H6,Alexane ,1,,,,1.0,,,,,,,,,,1.0,,,,,,,,,,"Alexane :<Et après, en fait, il va s’écrire un peu à lui-même, pour peut-être soulager sa conscience de dire, en fait, tout ce qu’il a vécu, avant de mourir.>"
26,60,Hadrien,H6,Charlotte ,1,,,,1.0,,,,,,,,,,,,,,,,,1.0,,,"Charlotte :<Et pourquoi il fait ça ? Enfin, je sais pas…>"
27,62,Hadrien,H6,Anna ,1,,,,1.0,,,,,,,,,,1.0,,,,,,,,,,Anna :<Pour libérer sa conscience du mal-être qu’il a en lui…>
28,64,Hadrien,H6,Faustin ,1,,1.0,,,,,,,,,,,,1.0,,,,,,,,,,Faustin :<Et il veut aussi instruire son petit-fils parce qu’il lui dit : « Je vais t’informer... »>
29,66,Hadrien,H6,Alexane ,1,,,,,,,,,1.0,,,,1.0,,,,,,,,,,,"Alexane <: « Des progrès de mon mal », génial…>"
30,68,Hadrien,H6,Charlotte ,1,,,,,,,,1.0,,,,,,,,,,,,,1.0,,,"Charlotte :<D’abord, ce qu’il faut faire, c'est écrire… c'est quoi, d'abord ?>"
31,70,Hadrien,H6,Alexane ,1,,,,1.0,,,,,,,,,,1.0,,,,,,,,,,Alexane :<C’est triste.>
32,72,Hadrien,H6,Faustin ,1,,,,,,,,1.0,,,,,,,,,,,,,,1.0,,"Faustin :<On fait que les deux dernières, parce que la première, on n’a pas compris…>"
33,74,Hadrien,H6,Anna ,1,,,,,,,,1.0,,,,,,,1.0,,,,,,,,,"Anna :<Mais non, on va faire dans l’ordre…>"
34,76,Hadrien,H6,Faustin ,1,,,,,,,,,,,1.0,,,,,,,,,,,,,Faustin <: Mais qu'est-ce que l’ordre ? Est-ce que toi aussi tu es pour la société d’ordre ?>
35,78,Hadrien,H6,Anna ,1,,,,,,,,,,,1.0,,,,,,,,,,,,,Anna :<Je sais pas ce que c'est.>
36,80,Hadrien,H6,Faustin ,1,,,,,,,,,,,1.0,,,,,,,,,,,,,Faustin :<Tu ne sais pas ce que c'est ?>
37,82,Hadrien,H6,Anna ,1,,,,,,,,,,,1.0,,,,,,,,,,,,,Anna :<Non>.
38,84,Hadrien,H6,Faustin ,1,,,,,,,,,,,1.0,,,,,,,,,,,,,Faustin :<Tu es inculte…>
39,86,Hadrien,H6,Anna ,1,,,,,,,,,,,1.0,,,,,,,,,,,,,"Anna :<Oui, c'est pas de ma faute…>"
40,88,Hadrien,H6,Faustin ,1,,,,,,,,,,,1.0,,,,,,,,,,,,,Faustin :<Il me faudrait un café.>
41,90,Hadrien,H6,Charlotte ,1,,,,,,,,1.0,,,,,,,,,1.0,,,,,,,"Charlotte <: Du coup, on pense que…>"
42,92,Hadrien,H6,Anna ,1,,,,,,,,1.0,,,,,,,,,,,,,1.0,,,Anna :<On pense quoi ?>
43,95,Hadrien,H6,Anna ,1,,,,,,,,,,,1.0,,,,,,,,,,,,,Anna :<Penses-tu quelque chose ?>
44,97,Hadrien,H6,Maël ,1,,,,,,,,,,,1.0,,,,,,,,,,,,,Maël <: Oui. J'étais en train de réfléchir si j'avais un mouchoir dans mon manteau.>
45,99,Hadrien,H6,Anna ,1,,,,,,,,,,,1.0,,,,,,,,,,,,,Anna :<Un quoi ?>
46,101,Hadrien,H6,Maël ,1,,,,,,,,,,,1.0,,,,,,,,,,,,,Maël :<Un mouchoir dans mon manteau.>
47,103,Hadrien,H6,Charlotte ,1,,,,,,,,,,,1.0,,,,,,,,,,,,,"Charlotte :<Il me faut vraiment un mouchoir, passez-moi mon sac>."
48,105,Hadrien,H6,Anna ,1,,,,,,,,,,,1.0,,,,,,,,,,,,,Anna :<Tu veux que j’aille te le chercher ?>
49,107,Hadrien,H6,Charlotte ,1,,,,,,,,,,,1.0,,,,,,,,,,,,,"Charlotte :<Non, il me faut un mouchoir>…"
50,109,Hadrien,H6,Alexane ,1,,,,,,,,,,,1.0,,,,,,,,,,,,,Alexane :<Tu pourrais m’en passer un ?>
51,111,Hadrien,H6,Anna ,1,,,,,,,,,,,1.0,,,,,,,,,,,,,"Anna :<Apporte le paquet, en fait. C'est pas grave, ça lui fera faire du sport.>"
52,113,Hadrien,H6,Alexane ,1,,,,,,,,,,,1.0,,,,,,,,,,,,,Alexane :<Je peux t’en piquer un ?>
53,115,Hadrien,H6,Faustin ,1,,,,,,,,,,,1.0,,,,,,,,,,,,,"Faustin <: J’adore vous piquer des choses. Regarde, je te pique…>Hadrien est une personne aimante avec sa famille… « aimante avec sa famille... »"
54,115,Hadrien,H6,Faustin ,1,,,,1.0,,,,1.0,,,,,,,,,,,,1.0,,,,"Faustin  : J’adore vous piquer des choses. Regarde, je te pique…<Hadrien est une personne aimante avec sa famille… « aimante avec sa famille... »>"
55,118,Hadrien,H6,Alexane ,1,,,,,,,,1.0,,,,,,,,,,,,,1.0,,,"Alexane :<OK. Alors, tu mets quoi Faustin ?>"
56,120,Hadrien,H6,Faustin ,1,,1.0,,,,,,1.0,,,,,,1.0,,,,,,,,,,"Faustin :<Je pense qu’Hadrien est une personne aimante avec sa famille, car il dédie ses mémoires à son petit-fils>."
57,122,Hadrien,H6,Charlotte ,1,,,,,,,1.0,,,,,,,1.0,,,,,,,,,,Charlotte :<Adoptif>.
58,124,Hadrien,H6,Faustin ,1,,,,,,,,1.0,,,,,,1.0,,,,,,,,,,Faustin :<Son petit-fils adoptif.>
59,126,Hadrien,H6,Anna ,1,,,,,,,,1.0,,,,,,,,,,,,,1.0,,,Anna :<Tu as mis que… ?>
60,126,Hadrien,H6,Anna ,1,,,,,,,,1.0,,,,,,1.0,,,,,,,,,,Anna : Tu as mis que… ?<>
61,130,Hadrien,H6,Anna ,1,,,,1.0,,,,,,,,,,,,,,,,,1.0,,,"Anna :<Du coup, il est aimant, ou pas ?>"
62,132,Hadrien,H6,Charlotte ,1,,,,1.0,,,,,,,,,,,1.0,,,,,,,,,"Charlotte :<Moi, j'ai pas dit qu’il était aimant. Ça veut dire que là, il a menti…>"
63,134,Hadrien,H6,Anna ,1,,,,1.0,,,,,,,,,,,1.0,,,,,,,,,Anna :<Non>.
64,136,Hadrien,H6,Faustin ,1,,1.0,,,,,,,,,,,,,1.0,,,,,,,,,"Faustin :<Si : « Je tiens pourtant à t’instruire », il est quand même vachement sympa. Et puis : « Tes précepteurs que j'ai choisis t’ont donné une éducation sévère, surveillée, trop protégée peut-être, dont j’espère somme toute un grand bien pour toi-même. » Il est aimant.>"
65,138,Hadrien,H6,Charlotte ,1,,,,1.0,,,,,,,,,,,,,,,,1.0,,,,Charlotte :<Et pour l’État…>
66,140,Hadrien,H6,Alexane ,1,,,,1.0,,,,,,,,,1.0,,,,,,,,,,,Alexane :<Je suis d'accord avec Faustin>.
67,142,Hadrien,H6,Faustin ,1,,,,,,,,,,,1.0,,,,,,,,,,,,,"Faustin :<Parce que l’état de l’eau, c'est important pour vivre, l’état de l’air aussi, parce que si l’air est solide, on peut plus respirer…>"
68,144,Hadrien,H6,Anna ,1,,,,1.0,,,,,,,,,,,1.0,,,,,,,,,"Anna :<Pour moi, c'est pas qu’il est aimant, parce qu’il a pas parlé de son mal-être, et du coup, il a menti…>"
69,146,Hadrien,H6,Faustin ,1,,,,1.0,,,,,,,,,,,1.0,,,,,,,,,"Faustin :<Mais non, il parle de son mal-être.>"
70,148,Hadrien,H6,Anna ,1,,,,1.0,,,,,,,,,,,1.0,,,,,,,,,"Anna :<Oui, mais il aurait pu avant : « Avant de mourir... >»"
71,150,Hadrien,H6,Faustin ,1,,,,1.0,,,,,,,,,,,1.0,,,,,,,,,Faustin :<Il leur dit avant de mourir.>
72,152,Hadrien,H6,Anna ,1,,,,1.0,,,,,,,,,1.0,,,,,,,,,,,"Anna :<Oui, je sais…>"
73,154,Hadrien,H6,Alexane ,1,,,,1.0,,,,,,,,,,1.0,,,,,,,,,,"Alexane :<Après, c'est difficile de parler de son mal-être…>"
74,156,Hadrien,H6,Faustin ,1,,,,1.0,,,,,,,,,,1.0,,,,,,,,,,"Faustin :<Tu vas pas arriver au repas de famille en disant : « Coucou, je suis en train de crever… »>"
75,158,Hadrien,H6,Charlotte ,1,,,,1.0,,,,,,,,,,1.0,,,,,,,,,,"Charlotte :<Moi, c'est ce que mon grand-père a fait… et en fait, il est pas mort.>N’hésite pas, Maël, je sais qu’on peut faire peur, on est intimidantes, mais… intelligentes, pardon."
76,158,Hadrien,H6,Charlotte ,1,,,,,,,,1.0,,,,,,,,,,,,,,,1.0,"Charlotte : Moi, c'est ce que mon grand-père a fait… et en fait, il est pas mort.<N’hésite pas, Maël, je sais qu’on peut faire peur, on est intimidantes, mais… intelligentes, pardon.>"
77,161,Hadrien,H6,Alexane ,1,,,,,,,,,1.0,,,,,1.0,,,,,,,,,,"Alexane :<On a juste un peu trop d’humour, aussi…>"
78,163,Hadrien,H6,Anna ,1,,,,,,,,,,,1.0,,,,,,,,,,,,,"Anna :<Pourquoi je fais ça, il y a que moi qui est filmée… j'ai mal à mon petit cœur, je suis cardiaque, aussi… est-ce qu’il faudra qu’on regarde la vidéo >?"
79,165,Hadrien,H6,Charlotte ,1,,,,,,,,,,,1.0,,,,,,,,,,,,,Charlotte :<Je sais pas.>
80,168,Hadrien,H6,Faustin ,1,,,,1.0,,,,,,,,,,,,,1.0,,,,,,,"Faustin :<Dans son truc officiel, là, il a dit : j'ai pas trop menti parce que c'est pas bien de mentir.>"
81,170,Hadrien,H6,Charlotte ,1,,,,1.0,,,,,,,,,,,1.0,,,,,,,,,"Charlotte :<Oui mais après, il dit qu’il a menti…>"
82,172,Hadrien,H6,Faustin ,1,,,,1.0,,,,,,,,,,,1.0,,,,,,,,,"Faustin :<Il a dit qu’il a pas trop menti, parce qu’il trouve ça important de pas trop mentir.>"
83,174,Hadrien,H6,Charlotte ,1,,,,1.0,,,,,,,,,1.0,,,,,,,,,,,Charlotte :<D’accord>.
84,176,Hadrien,H6,Faustin ,1,,,,1.0,,,,,,,,,,1.0,,,,,,,,,,"Faustin :<Mais on l’a forcé à mentir. En vrai, il voulait pas mentir.>"
85,178,Hadrien,H6,Charlotte ,1,,,,1.0,,,,,,,,,1.0,,,,,,,,,,,Charlotte :<D’accord>.
86,180,Hadrien,H6,Anna ,1,,,,1.0,,,,,,,,,,1.0,,,,,,,,,,Anna :<Il y a de la corruption. Il est corruptable>.
87,182,Hadrien,H6,Alexane ,1,,,,,,,1.0,,,,,,,1.0,,,,,,,,,,Alexane :<Corruptible>.
90,189,Hadrien,H6,Charlotte ,1,,,,,,,,,,,1.0,,,,,,,,,,,,,"Charlotte :<Le pire, c'est qu’on me voit rigoler… J’espère que vous passez un agréable moment en notre compagnie…>"
91,191,Hadrien,H6,Faustin ,1,,,,,,,,1.0,,,,,,,,,,,,,1.0,,,Faustin :<Comment on écrit « réarranger » ?>
92,193,Hadrien,H6,Alexane ,1,,,,,,,,1.0,,,,,,1.0,,,,,,,,,,Alexane :<R.E.A.R.R.A.N.G.E.R.>
93,195,Hadrien,H6,Faustin ,1,,,,,,,1.0,1.0,,,,,1.0,,,,,,,,,,,Faustin :<Réarranger>.
94,197,Hadrien,H6,Alexane ,1,,,,,,,,,1.0,,,,,1.0,,,,,,,,,,"Alexane :<J’arrivais pas à le dire, j'étais en train de bugger.>"
95,199,Hadrien,H6,Faustin ,1,,,,,,,,,1.0,,,,,1.0,,,,,,,,,,"Faustin :<Du coup, je suis en train de bugger sur « réarranger »…>certains faits pour le bien de tous …"
96,199,Hadrien,H6,Faustin ,1,,,,1.0,,,,1.0,,,,,,,,,,,,,,,,"Faustin : Du coup, je suis en train de bugger sur « réarranger »…<certains faits pour le bien de tous …>"
97,203,Hadrien,H6,Charlotte ,1,,,,,,,,1.0,,,,,,,,,,1.0,,,,,,"Charlotte :<En plus, comme ça, on peut voir ce que les autres ont écrit…>"
98,205,Hadrien,H6,Faustin ,1,,,,,,,,,,,1.0,,,,,,,,,,,,,Faustin :<Quand elle va récupérer ça…>
99,207,Hadrien,H6,Alexane ,1,,,,,,,,,,,1.0,,,,,,,,,,,,,"Alexane :<Ah oui, on est filmés…>"
100,209,Hadrien,H6,Anna ,1,,,,,,,,,,,1.0,,,,,,,,,,,,,"Anna :<J’ai l'impression, c'est une caméra cachée>…"
101,211,Hadrien,H6,Faustin ,1,,,,,,,,,,,,,,,,,1.0,,,,,,,Faustin : « <Car on l’a obligé à écrire et à arranger certains faits pour le bien de tous... »>
102,213,Hadrien,H6,Alexane ,1,,,,,,,,1.0,,,,,,1.0,,,,,,,,,,Alexane :<« On l’a obligé à mentir... »>
103,215,Hadrien,H6,Faustin ,1,,,,,,,,1.0,,,,,,1.0,,,,,,,,,,Faustin :<« A réarranger certains faits pour le bien de tous... >»
104,217,Hadrien,H6,Faustin,1,,,,,,,,,,,1.0,,,,,,,,,,,,,(Faustin)<A tes souhaits…>
105,219,Hadrien,H6,Alexane ,1,,,,,,,,,,,1.0,,,,,,,,,,,,,Alexane :<Ah la vache…>
106,221,Hadrien,H6,Charlotte ,1,,,,,,,,1.0,1.0,,,,,,,,,,,,,,1.0,"Charlotte :<Il faut qu’on continue le travail, les enfants…>"
107,223,Hadrien,H6,Faustin ,1,,,,,,,,1.0,,,,,,1.0,,,,,,,,,,"Faustin :<J’arrive pas à relire… Ah, « toute la vérité ».>"
108,225,Hadrien,H6,Alexane ,1,,,,,,,,1.0,,,,,,1.0,,,,,,,,,,Alexane :<« Et réarranger... »>
109,227,Hadrien,H6,Charlotte ,1,,,,,,,,,,,1.0,,,,,,,,,,,,,Charlotte :<C’était de…>
110,229,Hadrien,H6,Faustin ,1,,,,,,,,,,,1.0,,,,,,,,,,,,,Faustin :<Village People.>
111,231,Hadrien,H6,Charlotte ,1,,,,,,,,,,,1.0,,,,,,,,,,,,,Charlotte :<Village People… Le village des personnes>…
112,233,Hadrien,H6,Faustin ,1,,,,,,,,,,,1.0,,,,,,,,,,,,,Faustin :<Village gens.>
113,235,Hadrien,H6,Anna ,1,,,,,,,,1.0,,,,,,,,,1.0,,,,,,,"Anna :<Pardon, la bonne éducation qu’il a voulu donner à son petit-fils… voilà…>"
114,237,Hadrien,H6,Faustin ,1,,,,,,,1.0,1.0,,,,,,1.0,,,,,,,,,,Faustin :<Adoptif…>
115,239,Hadrien,H6,Anna ,1,,,,,,,,1.0,,,,,1.0,,,,,,,,,,,"Anna :<Oui, c'est important.>"
116,241,Hadrien,H6,Faustin ,1,,,,,,,1.0,,,,,,,1.0,,,,,,,,,,Faustin :<Parce qu’il a adopté un petit-fils…>
117,245,Hadrien,H6,Alexane ,1,,,,,,,,1.0,,,,,,,,,,,,,1.0,,,Alexane : « <Dans ses mémoires » ?>
118,247,Hadrien,H6,Faustin ,1,,,,,,,,1.0,,,,,,1.0,,,,,,,,,,"Faustin :<« Ses mémoires, dire toute la vérité »… oui, c'est très mal écrit. « Il écrit ses mémoires pour... >»,"
119,249,Hadrien,H6,Faustin,1,,,,,,,,,,,1.0,,,,,,,,,,,,,"(Faustin)<ah non, j'ai plus d’encre>."
120,251,Hadrien,H6,Alexane ,1,,,,,,,,1.0,,,,,,,,,,,,,1.0,,,Alexane :<« Pour... » ?>
121,253,Hadrien,H6,Faustin ,1,,,,,,,,,,,1.0,,,,,,,,,,,,,"Faustin :<Attends trente secondes, je suis en crise, là… j'ai plus d’encre.>"
122,256,Hadrien,H6,Alexane ,1,,,,,,,,,,,1.0,,,,,,,,,,,,,"Alexane :<C’est bleu, ça ? Non, ça, c'est noir.>"
123,258,Hadrien,H6,Faustin ,1,,,,,,,,,,,1.0,,,,,,,,,,,,,"Faustin :<Non, le noir, c'est grande cartouche. Non, c'est bon, c'est bleu.>"
124,261,Hadrien,H6,Alexane ,1,,,,,,,,1.0,,,,,,,,,,,,,1.0,,,"Alexane :<Du coup, on fait quoi comme problématique ?>"
125,264,Hadrien,H6,Charlotte ,1,,,,,,,,,1.0,,,,,,,,,1.0,,,,,,"Charlotte :<C’est galère un peu, là…>"
126,267,Hadrien,H6,Faustin ,1,,,,,,,,1.0,,,,,,,,,,,,,1.0,,,"Faustin :<Attends, d'abord, j’essaie de trouver un axe de lecture… qu'est-ce qu’on fait comme problématique ?>"
127,269,Hadrien,H6,Alexane ,1,,,,,,,,1.0,,,,,,,,,,,,1.0,,,,Alexane :<Je pourrai aller l’écrire…>
128,271,Hadrien,H6,Charlotte ,1,,,,1.0,,,,1.0,,,,,,1.0,,,,,,,,,,Charlotte :<On peut dire : en quoi il aide son petit-fils…>
129,273,Hadrien,H6,Faustin ,1,,,,1.0,,,,,,,,,,,1.0,,,,,,,,,"Faustin :<Pour l’instant, il expose rien pour aider son petit-fils. C'est surtout autobiographique, pour l’instant. Il parle de sa gueule>."
130,275,Hadrien,H6,Anna ,1,,,,,,,,,,,1.0,,,,,,,,,,,,,Anna :<On est filmés…>
131,277,Hadrien,H6,Charlotte ,1,,,,,,,,,,,1.0,,,,,,,,,,,,,Charlotte :<Coucou les copains…>
132,280,Hadrien,H6,Faustin ,1,,,,,,,,,,,1.0,,,,,,,,,,,,,Faustin :<C’est-à-dire qu’il va y avoir sur la feuille : « Coucou les copains. »>
133,283,Hadrien,H6,Faustin ,1,,,,,,,,,,,1.0,,,,,,,,,,,,,"Faustin :<Ah non, c'est bleu.>"
134,285,Hadrien,H6,Anna ,1,,,,,,,,,,,1.0,,,,,,,,,,,,,"Anna :<Oui, c'est bleu.>"
135,288,Hadrien,H6,Faustin ,1,,,,,,,,1.0,,,,,,,,,1.0,,,,,,,"Faustin :<Du coup… dans quelle mesure, ou en quoi…>"
136,291,Hadrien,H6,Alexane ,1,,,,1.0,,,,1.0,,,,,,1.0,,,,,,,,,,"Alexane :<En quoi ses mémoires sont-elles bénéfiques pour lui et sa famille, ou son entourage ?>"
137,293,Hadrien,H6,Charlotte ,1,,,,1.0,,,,,,,,,1.0,,,,,,,,,,,"Charlotte :<C’est bien, ça.>"
138,295,Hadrien,H6,Faustin ,1,,,,,,,,,,,1.0,,,,,,,,,,,,,Faustin :<Epouse-moi…>
139,297,Hadrien,H6,Alexane ,1,,,,,,,,,,,1.0,,,,,,,,,,,,,Alexane :<Pour la sixième fois : d'accord>.
140,299,Hadrien,H6,Charlotte ,1,,,,,,,,,,,1.0,,,,,,,,,,,,,"Charlotte :<Ah oui, ça fait beaucoup, là…>"
141,302,Hadrien,H6,Faustin ,1,,,,,,,,,,,1.0,,,,,,,,,,,,,"Faustin :<C’est parce que, en fait, elle a beaucoup de femmes…>"
142,305,Hadrien,H6,Charlotte ,1,,,,,,,,1.0,,,,,,,,,,,,,1.0,,,Charlotte : « <En quoi ses mémoires »… quoi ?>
143,307,Hadrien,H6,Alexane ,1,,,,,,,,,,,1.0,,,,,,,,,,,,,Alexane :<Quelqu’un a… ?>
144,309,Hadrien,H6,Anna ,1,,,,,,,,,,,1.0,,,,,,,,,,,,,"Anna :<Moi, j’en ai un.>"
145,311,Hadrien,H6,Faustin ,1,,,,,,,,,,,1.0,,,,,,,,,,,,,"Faustin :<Sinon, tu en prends un au tableau>."
146,314,Hadrien,H6,Charlotte ,1,,,,,,,,,,,1.0,,,,,,,,,,,,,Charlotte :<C’était …>
