NProp,Ligne,Seance,Numero,NomEleve,Lycee,Poesie,C1,C2,C3,C3BIS,C4,C5,C6,C7,C8,C9,C10,E1,E2,E3,E4,E5,E6,E7,E8,E9,E10,E11,Text
1,18,Rêve 1 Tps2,RHugo2,Elève ,,1,,,,,,,1.0,,,,,,,,,,1.0,,,,,,Elève :<déjà faut qu’on écrive quel groupe on est pour commencer>
2,24,Rêve 1 Tps2,RHugo2,Elève ,,1,,,,,,,1.0,,,,,,,,,,,,1.0,,,,Elève :<ah au fait c’est pour les procédés d’écriture>
3,26,Rêve 1 Tps2,RHugo2,Elève ,,1,,,,,,,1.0,,,,,,1.0,,,,,,,,,,Elève <: oui ! Ah au fait c’est pour ce qu’on écrit aussi>
4,29,Rêve 1 Tps2,RHugo2,Elève ,,1,,,,,,,1.0,,,,,,1.0,,,,,,,,,,Elève :<ensuite on écrit les champ lexicals pour dire que>(inaudible brouhaha)
5,33,Rêve 1 Tps2,RHugo2,Elève ,,1,,,,,,,1.0,,,,,,1.0,,,,,,,,,,Elève :<la description de la femme et ensuite champ lexical>
6,36,Rêve 1 Tps2,RHugo2,Elève,,1,,,,,,,1.0,,,,,,1.0,,,,,,,,,,Elève :<Ensuite tu écris : la description de la femme et après champ lexical>
7,38,Rêve 1 Tps2,RHugo2,Elève ,,1,,,,,,,1.0,,,,,,1.0,,,,,,,,,,"Elève :<Et euh moi je propose qu’on fasse, en fait dans mon ancien groupe, on avait fait c’est qu’on avait d’abord écrit tout ce qu’on avait relevé, et ensuite on a expliqué>."
8,40,Rêve 1 Tps2,RHugo2,Elève ,,1,,,,,,,1.0,,,,,1.0,,,,,,,,,,,Elève :<en fait du coup c’est ce qu’on avait fait aussi>
9,43,Rêve 1 Tps2,RHugo2,Elève ,,1,,,,,,,1.0,,,,,1.0,,,,,,,,,,,"Elève :<on a mis les mots qu’on avait trouvés, et après on avait expliqué comment on les avait trouvés>."
10,48,Rêve 1 Tps2,RHugo2,Elève,,1,,,,,,,1.0,,,,,,,,,,1.0,,,,,,Elève :<il est quelle heure ?>
11,50,Rêve 1 Tps2,RHugo2,Elève,,1,,,,,,,1.0,,,,,,1.0,,,,,,,,,,Elève :<58 !>
12,53,Rêve 1 Tps2,RHugo2,Elève,,1,,,1.0,,,,,,,,,,,,,,,,,,,,"Elève :<alors, du coup on écrit ( ) « femme inconnue »…>"
13,56,Rêve 1 Tps2,RHugo2,Elève ,,1,,,1.0,,,,,,,,,1.0,,,,,,,,,,,Elève :<ok >!
14,58,Rêve 1 Tps2,RHugo2,Elève ,,1,,,1.0,,,,,,,,,,,,,,,,,,,,Elève :<non ? oui ? non ?>
15,60,Rêve 1 Tps2,RHugo2,Elève ,,1,,,1.0,,,,,,,,,,,,,,,,,,,,Elève :<ah oui !>
16,62,Rêve 1 Tps2,RHugo2,Elève ,,1,,,1.0,,,,,,,,,,,,,,,,,,,,Elève :<ok >!
17,64,Rêve 1 Tps2,RHugo2,Elève ,,1,,,,,,,1.0,,,,,,,,,,,,,,,1.0,Elève :<faut me le dire si vous êtes pas d’accord ?>
18,66,Rêve 1 Tps2,RHugo2,Elève ,,1,,,1.0,,,,,,,,,,,,,,,,,,,,Elève :<non on est d’accord !>
19,71,Rêve 1 Tps2,RHugo2,Elève,,1,,,,,,,,,,1.0,,,,,,,,,,,,,Elève :<si ça tombe sur le jaune sinon aura un gage>
20,73,Rêve 1 Tps2,RHugo2,Elèves,,1,,,,,,,,,,1.0,,,,,,,,,,,,,Elèves :<ben il aura le gage !>
21,75,Rêve 1 Tps2,RHugo2,Elève,,1,,,,,,,1.0,,,,,,,,,,,,,1.0,,,"Elève :<Louis, tu veux écrire >?"
22,78,Rêve 1 Tps2,RHugo2,Elève,,1,,,1.0,,,,,,,,,,,,,,,,,,,,"Elève :<« femme inconnue, même, euh…ni tout à fait la même>… sinon, ni tout à fait la même. Ah non, tout à fait une autre, si c’est la même chose en fait."
23,78,Rêve 1 Tps2,RHugo2,Elève,,1,1.0,,,,,,,,,,,,,,,,,,,,,,"Elève  : « femme inconnue, même, euh…ni tout à fait la même …<sinon, ni tout à fait la même. Ah non, tout à fait une autre, si c’est la même chose en fait.>"
24,81,Rêve 1 Tps2,RHugo2,Elève,,1,,,,,,,1.0,,,,,,,,,,,,,1.0,,,Elève <: y a marqué quoi ici ?>
25,83,Rêve 1 Tps2,RHugo2,Elève,,1,,,,,,,1.0,,,,,,1.0,,,,,,,,,,Elève <: « ni tout à fait la même »>
26,85,Rêve 1 Tps2,RHugo2,Elève,,1,,,,,,,1.0,,,,,,1.0,,,,,,,,,,Elève :<« ni tout à fait une autre »>
27,91,Rêve 1 Tps2,RHugo2,Elève ,,1,,,,,,,1.0,,,,,,,,,,,,,1.0,,,Elève <: t’as écrit… vous avez écrit quoi par troisième ?>
28,93,Rêve 1 Tps2,RHugo2,Elève,,1,,,,,,,1.0,,,,,,1.0,,,,,,,,,,Elève :<« ni tout à fait la même »>. On va regarder les vidéos ?
29,93,Rêve 1 Tps2,RHugo2,Elève,,1,,,,,,,1.0,,,,,,,,,,,,,1.0,,,Elève  : « ni tout à fait la même » .<On va regarder les vidéos ?>
30,96,Rêve 1 Tps2,RHugo2,Elève,,1,,,,,,,1.0,,,,,,,,,,,,,1.0,,,Elève :<On y va tous ?>
31,98,Rêve 1 Tps2,RHugo2,Elève,,1,,,,,,,1.0,,,,,1.0,,,,,,,,,,,Elève :<euh oui !>
32,100,Rêve 1 Tps2,RHugo2,Elève,,1,,,,,,,1.0,,,,,1.0,,,,,,,,,,,Elève :<d’accord>
33,102,Rêve 1 Tps2,RHugo2,Elève ,,1,,,,,,,,1.0,,,,,1.0,,,,,,,,,,"Elève :<on se retrouve nous deux,>Hmmm ! (les autres sont partis écouter les vidéos)"
34,107,Rêve 1 Tps2,RHugo2,Elève,,1,,,,,,,1.0,,,,,,,,,,,,,1.0,,,"Elève :<euh du coup, euh est-ce qu’on dit ce qu’on a écouté ou pas ?>"
35,110,Rêve 1 Tps2,RHugo2,Elève,,1,,,1.0,,,,,,,,,,,,,,,,1.0,,,,Elève :<il y a euh pour elle seule qui est>(inaudible)
36,112,Rêve 1 Tps2,RHugo2,Elève,,1,,,,,,,1.0,,,,,,,,,1.0,,,,,,,Elève :<je suis pas maître du temps mais euh>(inaudible 11 :40)
37,114,Rêve 1 Tps2,RHugo2,Elève,,1,,,,,,,1.0,,,,,,,,,1.0,,,,,,,Elève :<on continue à écrire mais (inaudible)…on continue à écrire les choses (inaudible) et après on dit ce qu’on a trouvé>.
38,117,Rêve 1 Tps2,RHugo2,Elève,,1,,,1.0,,,,,,,,,,,,,,,,,1.0,,,Elève :<euh c’était elle seule on avait dit ?>
39,120,Rêve 1 Tps2,RHugo2,Elève ,,1,,,,,,,1.0,,,,,,,,,,,,,1.0,,,Elève :<du coup pour le 4 euh 5 truc on a dit quoi ?>
40,122,Rêve 1 Tps2,RHugo2,Elève,,1,,,1.0,,,,,,,,,,,,,,,,,,,,"Elève :<« elle seule » et après genre euh c’est euh, « blonde, brune ou rousse »>"
41,127,Rêve 1 Tps2,RHugo2,Elève,,1,,,1.0,,,,,,,,,,,,,,,,,1.0,,,Elève :<en fait je sais pas si il faut mettre son (inaudible) parce que c’est pas forcément une caractéristique de la femme>
42,129,Rêve 1 Tps2,RHugo2,Elève,,1,1.0,,,,,,,,,,,,1.0,,,,,,,,,,Elève :<ben ouais ça la décrit pas>
43,132,Rêve 1 Tps2,RHugo2,Elève ,,1,,,,,,,1.0,,,,,,1.0,,,,,,,,,,Elève :<après je pense que ça serait plus le travail des euh gens qui auront>(inaudible)
44,135,Rêve 1 Tps2,RHugo2,Elève ,,1,,,,,,,1.0,,,,,,,,,,,,,1.0,,,Elève :<qu’est ce qui vote pour pas mettre ?>
45,139,Rêve 1 Tps2,RHugo2,Elève,,1,,,,,,,1.0,,,,,,,,,,,,,,1.0,,"Elève :<ah non on vote là, on vote !>"
46,141,Rêve 1 Tps2,RHugo2,Elève,,1,,,,,,,1.0,,,,,,,,,,,,,1.0,,,Elève :<du coup on met pas ?>
47,143,Rêve 1 Tps2,RHugo2,Elève,,1,,,,,,,1.0,,,,,,,,1.0,,,,,,,,Elève :<on met pas !>
