,SommeA1,MoyenneA1
C1,40.0,0.2185792349726776
C2,56.0,0.30601092896174864
C3,27.0,0.14754098360655737
C3BIS,0.0,0.0
C4,0.0,0.0
C5,36.0,0.19672131147540983
C6,20.0,0.1092896174863388
C7,3.0,0.01639344262295082
C8,0.0,0.0
C9,1.0,0.00546448087431694
E1,19.0,0.10382513661202186
E2,77.0,0.4207650273224044
E3,20.0,0.1092896174863388
E4,10.0,0.0546448087431694
E5,7.0,0.03825136612021858
E6,16.0,0.08743169398907104
E7,0.0,0.0
E8,16.0,0.08743169398907104
E9,14.0,0.07650273224043716
E10,0.0,0.0
E11,0.0,0.0
