NProp,Ligne,Seance,Numero,NomEleve,Lycee,Poesie,C1,C2,C3,C3BIS,C4,C5,C6,C7,C8,C9,C10,E1,E2,E3,E4,E5,E6,E7,E8,E9,E10,E11,Text
1,1,Veston,V2,Eva V ,,,,,,,,,,,,,,1.0,,,,,,,,,,,"Eva V : Alors, « Le narrateur »… Attends, tu as mis quoi ? « Le narrateur a pris la bonne décision, car il commençait à devenir fou, mais le… est erroné. L’argent qui vient de son veston est de l’argent de la mort et du vol. je savais… venu de l’enfer. S’il détruit le veston, il y aurait plus de morts, donc il a pris la bonne décision ». En vrai, c'est bien, ton<truc>. Tu veux lire, Elisa ? C'est à toi de lire, Elisa"
2,1,Veston,V2,Eva V ,,,,,,,,,1.0,,,,,,,,,,,,,,,1.0,"Eva V : Alors, « Le narrateur »… Attends, tu as mis quoi ? « Le narrateur a pris la bonne décision, car il commençait à devenir fou, mais le… est erroné. L’argent qui vient de son veston est de l’argent de la mort et du vol. je savais… venu de l’enfer. S’il détruit le veston, il y aurait plus de morts, donc il a pris la bonne décision ». En vrai, c'est bien, ton truc . Tu veux lire, Elisa ? C'est à toi de lire,<Elisa>…"
3,4,Veston,V2,Elisa ,,,,,,,,,1.0,,,,,1.0,,,,,,,,,,,"<Elisa : On a écrit la même chose, tu peux lire>."
4,6,Veston,V2,Eva V ,,,,,,,,,1.0,,,,,,1.0,,,,,,,,,,"<Eva V : Oui, mais je viens de lire, il faut que tu lises. Sami, lis ce que tu as écrit, du coup…>"
5,8,Veston,V2,Sami ,,,,,1.0,,,,,,,,,1.0,,,,,,,,,,,"<Sami : « Le narrateur a pris la bonne décision de brûler la veste, car il n’y aura plus de vol d’argent. »>"
6,10,Veston,V2,Elisa,,,,,,,,,1.0,,,,,,1.0,,,,,,,,,,"Elisa : Mais je comprends pas trop ce que tu as écrit, en fait. Attends, je vais lire : « Le narrateur a pris la bonne décision de brûler la veste, car il n’y aura plus de vol d’argent, de morts, même si le narrateur est en fait sans argent. Il a peur du règlement de comptes entre lui et son tailleur. »<Après, là, c'est des citations, donc : « … Je m’en tire... » Ça, c'est parce que j'ai pas tout écrit…>"
7,12,Veston,V2,Eva V ,,,,,,,,,1.0,,,,,1.0,,,,,,,,,,,"<Eva V : OK. En fait, c'est un peu pareil que ce qu’on a écrit… On a quasiment le même avis…>"
8,14,Veston,V2,Sami ,,,,,,,,,1.0,,,,,,,,,,,,,1.0,,,"<Sami : Mais je sais pas ce que j'ai écrit, en fait, moi…>"
9,16,Veston,V2,Elisa ,,,,,,,,,1.0,,,,,,1.0,,,,,,,,,,<Elisa : On a écrit la même chose…>
10,18,Veston,V2,Sami ,,,,,,,,,,1.0,,,,,,,,,,,,1.0,,,"<Sami : Je sais pas… Il est où, mon quatre-couleurs ?>"
11,20,Veston,V2,Elisa,,,,,,,,,1.0,,,,,,,,,,,,1.0,,,,<Elisa : Donc compte rendu… comment on dit ?>
12,22,Veston,V2,Eva,,,,,,,,,1.0,,,,,,1.0,,,,,,,,,,<Eva V : Est-ce que vous voulez une feuille ?>
13,24,Veston,V2,Elisa,,,,,,,,,1.0,,,,,1.0,,,,,,,,,,,<Elisa : Oui vas-y.>
14,26,Veston,V2,Eva,,,,,,,,,1.0,,,,,,,,,1.0,,,,,,,<Eva V : Est-ce que tu veux une feuille ?>
15,28,Veston,V2,Ethan By ,,,,,,,,,1.0,,,,,1.0,,,,,,,,,,,"<Ethan By : Je veux bien, sil te plaît.>"
16,30,Veston,V2,Elisa ,,,,,,,,,1.0,,,,,,,,,1.0,,,,,,,<Elisa : Compte rendu commun. C'est un compte rendu commun.>
17,32,Veston,V2,Eva V ,,,,,,,,,1.0,,,,,,1.0,,,,,,,,,,"<Eva V : Du coup, de donner votre avis et tout, sur ce que vous avez trouvé.>"
18,34,Veston,V2,Elisa ,,,,,,,,,1.0,,,,,,1.0,,,,,,,,,,"<Elisa : De toute façon, on a écrit la même chose partout, donc forcément, on va devoir écrire la même chose.>"
19,37,Veston,V2,Eva,,,,,,,,,1.0,,,,,,,,,,1.0,,,,,,"<Eva V : C’est ce qu’on fait, madame. On a tous mis notre argument…>"
20,40,Veston,V2,Eva,,,,,,,,,1.0,,,,,,,,,,1.0,,,,,,"<Eva V : Là, on commence à donner des idées pour le compte rendu.>"
21,43,Veston,V2,Elisa ,,,,,,,,,1.0,,,,,,1.0,,,,,,,,,,"<Elisa : On dit que le narrateur, il a pris la bonne décision, car… Après, on a écrit la même chose partout, donc forcément…>"
22,45,Veston,V2,Eva V ,,,,,,,,,1.0,,,,,,,,,,,,,,,1.0,"<Eva V : Après, à vous aussi de donner votre avis sur les… enfin, je sais pas comment expliquer… Est-ce que tu as compris au moins ce qu’on a écrit ?>"
23,47,Veston,V2,Ethan By ,,,,,,,,,1.0,,,,,1.0,,,,,,,,,,,<Ethan By : Oui.>
24,49,Veston,V2,Elisa ,,,,,,,,,1.0,,,,,,,,,,,,1.0,,,,<Elisa : « Le narrateur a pris une bonne décision car... »>
25,51,Veston,V2,Eva V ,,,,,1.0,,,,,,,,,,1.0,,,,,,,,,,<…>
26,51,Veston,V2,Eva V ,,,,,,,,,1.0,,,,,,,,,,,,,1.0,,,"Eva V : Attendez, je relis juste… en fait, je comprends pas ce que j'ai écrit, parce que je me rappelle<plus>…"
27,55,Veston,V2,Elisa ,,,,,,,,,1.0,,,,,,,,,,,,,1.0,,,<Elisa : Est-ce qu’on cite ?>
28,57,Veston,V2,Ethan By ,,,,,,,,,1.0,,,,,,,,,,,,,1.0,,,<Ethan By : Qu’est-ce qu’il y a écrit ?>
29,59,Veston,V2,Eva V ,,,,,,,,,1.0,,,,,,,,,,,,1.0,,,,"<Eva V : D'abord, on peut faire notre « rédaction », et après, mettre citations, deux points…>"
30,61,Veston,V2,Elisa,,,,,,,,,1.0,,,,,,,1.0,,,,,,,,,"<Elisa : Non, il faut faire au fur et à mesure.>"
31,63,Veston,V2,Eva V ,,,,,,,,,1.0,,,,,,,1.0,,,,,,,,,"<Eva V : Mais dans ce cas, les citations…>"
32,65,Veston,V2,Elisa,,,,,,,,,1.0,,,,,1.0,,,,,,,,,,,<Elisa : OK.>
33,67,Veston,V2,Eva V ,,,,,,,,,1.0,,,,,1.0,,,,,,,,,,,<Eva V : Donc après on met la citation.>
34,69,Veston,V2,Elisa ,,,,,,,,,1.0,,,,,,,,,,,,,1.0,,,<Elisa : C'est quoi la citation ?>
35,71,Veston,V2,Eva V ,,,,,,,,,1.0,,,,,,1.0,,,,,,,,,,"<Eva V : En fait, il nous faudra la phrase entière. C'est ligne 142…>"
36,73,Veston,V2,Elisa ,,,,,,,,,1.0,,,,,,,1.0,,,,,,,,,"<Elisa : Non, pour les citations, vu que c'est trop long, on doit mettre des points de suspension…>"
37,75,Veston,V2,Eva V ,,,,,,,,,1.0,,,,,,,1.0,,,,,,,,,"<Eva V : Oui, mais si on passe à l’oral, il faut qu’on explique la citation.>"
38,77,Veston,V2,Elisa ,,,,,,,,,1.0,,,,,1.0,,,,,,,,,,,<Elisa : Exact.>
39,79,Veston,V2,Eva V ,,,,,,,,,1.0,,,,,,1.0,,,,,,,,,,"<Eva V : Attends, c'est ligne…>"
40,81,Veston,V2,Elisa ,,,,,,,,,1.0,,,,,,1.0,,,,,,,,,,"<Elisa : C’est lignes 142-143. Du coup, c'est : « Mais le... », jusqu’à « m’épéronnait ». Donc…>"
41,83,Veston,V2,Sami ,,,,,1.0,,,,,,,,,,,,,,,,1.0,,,,"Sami : « Mais le mirage », c'est<ça> ?"
42,85,Veston,V2,Elisa ,,,,,,1.0,,,,,,,,,1.0,,,,,,,,,,Elisa : « Mais le mirage d’une<existence>... »
43,87,Veston,V2,Eva V ,,,,,,1.0,,,,,,,,,,,1.0,,,,,,,,"Eva V : Donc ça, c'est<bon>. Après « existence de luxe effréné », on peut mettre"
44,87,Veston,V2,Eva V ,,,,,1.0,,,,,,,,,,,,,,,,1.0,,,,"Eva V : Donc ça, c'est bon . Après « existence de luxe effréné », on peut<mettre> : « , »…"
45,90,Veston,V2,Sami ,,,,,1.0,,,,,,,,,,1.0,,,,,,,,,,Sami : « <M’épéronnait> » ?
46,92,Veston,V2,Eva,,,,,,1.0,,,,,,,,,,,,,,,1.0,,,,"Eva V : Ah, « l’argent du veston est l’argent de la mort et du<vol> »."
47,94,Veston,V2,Ethan By ,,,,,,1.0,,,,,,,,,,,,,,,1.0,,,,Ethan By : On peut mettre celle-là aussi. J’ai mis celle-là aussi en<plus>.
48,96,Veston,V2,Elisa ,,,,,,1.0,,,,,,,,1.0,,,,,,,,,,,"Elisa : Ah, pas<mal>."
49,98,Veston,V2,Eva V ,,,,,1.0,,,,,,,,,,,1.0,,,,,,,,,"Eva V : Oui, mais là, on a mis la fin de la<phrase>."
50,100,Veston,V2,Elisa ,,,,,,1.0,,,,,,,,,1.0,,,,,,,,,,"Elisa : Bon, c'est pas<grave>."
51,102,Veston,V2,Eva V ,,,,,,,,,1.0,,,,,,,,1.0,,,,,,,,"Eva V : On la met pas. Après, c'est pas obligatoire. On ferme les guillemets, virgule… « <L’argent>... »"
52,104,Veston,V2,Tu,,,,,,,1.0,,,,,,,,,,,,,,,1.0,,,"Tu mets un point,<toi> ?"
53,106,Veston,V2,Elisa ,,,,,1.0,,,,,,,,,,1.0,,,,,,,,,,Elisa : « L’argent du veston était l’argent<de>... »
54,108,Veston,V2,Eva V ,,,,,1.0,,,,,,,,,,1.0,,,,,,,,,,"Eva V : Attends, « l’argent du<veston>... »"
55,110,Veston,V2,Elisa ,,,,,1.0,,,,,,,,,,1.0,,,,,,,,,,Elisa : « De toutes ces morts et de tous ces<braquages>... »
56,112,Veston,V2,Eva V ,,,,,1.0,,,,,,,,,,,,,,,,,1.0,,,"Eva V : « Etait l’argent des victimes » ? parce qu’ils sont victimes de mort, on va<dire>…"
57,114,Veston,V2,Elisa ,,,,,1.0,,,,,,,,,,,,,,,,,1.0,,,Elisa : A cause de<lui> ?
58,116,Veston,V2,Eva V ,,,,,1.0,,,,,,,,,,,,1.0,,,,,,,,Eva V : « L’argent de ce veston était l’argent des<victimes>. »
59,118,Veston,V2,Elisa ,,,,,,,,,1.0,,,,,,,,,,,,,1.0,,,"Elisa : On cite aussi, pour<ça> ?"
60,120,Veston,V2,Eva V ,,,,,,,,,1.0,,,,,,,,,,,,,1.0,,,Eva V : Qu'est-ce qu’il y<a> ?
61,122,Veston,V2,Ethan By ,,,,,,,,,1.0,,,,,,,,,,,,,1.0,,,"<Ethan By : En fait, vous dites un truc, mais je sais pas ce que vous avez dit avant… après la phrase.>"
62,124,Veston,V2,Eva V ,,,,,,,,,1.0,,,,,,1.0,,,,,,,,,,Eva V : « Etait l’argent des victimes... » Attends… 160 à<161>.
63,126,Veston,V2,Elisa ,,,,,,,,,1.0,,,,,,,,,,,,1.0,,,,<Elisa : Il va falloir qu’on se mette d'accord sur qui dit quoi.>
64,128,Veston,V2,Eva V ,,,,,,1.0,,,,,,,,,,,,1.0,,,,,,,"Eva V : Après, il y a la citation 160-161… « Je savais que l’argent que le veston me procurait venait du crime, du sang, du désespoir, de la mort, venait de<l’enfer>. »"
65,130,Veston,V2,Elisa ,,,,,1.0,,,,,,,,,,,,,,,,1.0,,,,<Elisa : C’était pas un pacte avec le diable ?>
66,132,Veston,V2,Eva V ,,,,,,,1.0,,,,,,,,,1.0,,,,,,,,,"<Eva V : Non, ça, c'était avec Faust.>"
67,134,Veston,V2,Elisa ,,,,,,,1.0,,,,,,,,,1.0,,,,,,,,,"<Elisa : Ça parle que du diable… Ben non, on est d'accord…>"
68,136,Veston,V2,Eva V ,,,,,1.0,,,,,,,,,1.0,,,,,,,,,,,<Eva V : Oui.>
69,138,Veston,V2,Elisa ,,,,,,,,,1.0,,,,,,,,,,,,1.0,,,,"<Elisa : Alors, citation…>"
70,140,Veston,V2,Eva V ,,,,,,1.0,,,,,,,,,,,,1.0,,,,,,,Eva V : « Je savais que l’argent… me procurait… du désespoir… venait de<l’enfer>. »
71,142,Veston,V2,Elisa ,,,,,,,,,1.0,,,,,,1.0,,,,,,,,,,"<Elisa : Et c'est lignes 161-162. Vous avez besoin de feuilles, ou pas ?>"
72,144,Veston,V2,Ethan By ,,,,,,,,,1.0,,,,,,1.0,,,,,,,,,,"Ethan By : Non, ça<va>."
73,146,Veston,V2,Eva V ,,,,,,,,,,1.0,,,,,,,,,,,1.0,,,,"Eva V : Sur une des citations, c'est<incompréhensible>."
74,148,Veston,V2,Elisa ,,,,,,,,,1.0,,,,,,,,,,,,,1.0,,,"Elisa : Et du coup, là, il faut qu’on mette d’autres trucs, ou<pas> ?"
75,150,Veston,V2,Eva V ,,,,,1.0,,,,,,,,,,1.0,,,,,,,,,,"Eva V : Parce que là, Ethan, il avait écrit : « S’il détruit le veston, il n’y’ aurait plus de morts, donc il a pris la bonne<décision>. »"
76,152,Veston,V2,Elisa ,,,,,1.0,,,,,,,,,,1.0,,,,,,,,,,"Elisa : C’est un peu ce qu’on a écrit au-dessus, parce<que>…"
77,154,Veston,V2,Eva V ,,,,,,,,,1.0,,,,,,,,,,,,,1.0,,,Eva V :On a écrit<quoi> ?
78,156,Veston,V2,Elisa,,,,,1.0,,,,,,,,,,1.0,,,,,,,,,,"Elisa : Ben, ça : « Le narrateur a pris la bonne décision de brûler la veste, car il n’y aura plus de vol d’argent et plus de morts, même si le narrateur est en peine, sans<argent>. »"
79,158,Veston,V2,Sami ,,,,,1.0,,,,,,,,,,1.0,,,,,,,,,,Sami : « L’argent du veston était<l’argent>... »
80,160,Veston,V2,Elisa ,,,,,1.0,,,,,,,,,,1.0,,,,,,,,,,"Elisa : En vrai, il a sauvé des<vies>…"
81,162,Veston,V2,Eva V ,,,,,1.0,,,,,,,,,,1.0,,,,,,,,,,"<Eva V : Oui et non. Enfin, il en a tué, mais il en a sauvé.>"
82,164,Veston,V2,Elisa ,,,,,1.0,,,,,,,,,,1.0,,,,,,,,,,"Elisa : Mais c'est pile la page, juste arrêter de mettre sa main dans sa<poche>…"
83,166,Veston,V2,Eva V ,,,,,1.0,,,,,,,,,,1.0,,,,,,,,,,"<Eva V : Pour lui, c'était un jeu, au début. Enfin, tu trouves de l’argent à chaque fois que tu mets ta main dans ta poche dans ta veste, tu vas continuer forcément. Tu es pas censé savoir que c'est des morts. Par exemple, demain, tu trouves plein d’argent dans ta poche… tu vois ? Après, ça dépend des personnes aussi.>"
84,169,Veston,V2,Elisa,,,,,,,,,1.0,,,,,,,,,,1.0,,,,,,<Elisa : On a mis en commun…>
85,172,Veston,V2,Elisa ,,,,,,,,,1.0,,,,,,,,,,1.0,,,,,,"<Elisa : Non, pas du tout.>6"
86,175,Veston,V2,Eva V ,,,,,,,,,1.0,,,,,,,,,,1.0,,,,,,"<Eva V : Là, on a commencé à mettre en commun. Enfin, on a commencé, on a limite terminé.>"
87,178,Veston,V2,Eva V ,,,,,,,,,1.0,,,,,,,,,,1.0,,,,,,"<Eva V : Et du coup, on a mis les choses les plus importantes... des trucs en commun.>"
88,181,Veston,V2,Eva V ,,,,,,,,,1.0,,,,,,,,,,1.0,,,,,,Eva V :<Oui>.
89,184,Veston,V2,Eva V ,,,,,,,,,1.0,,,,,,,,,,1.0,,,,,,<Eva V : Et c'est pas grave si c'est pas long ?>
90,187,Veston,V2,Ethan By ,,,,,,,,,1.0,,,,,,,,,,1.0,,,,,,Ethan By :<Deux>.E
91,189,Veston,V2,Elisa ,,,,,,,,,1.0,,,,,,,,,,1.0,,,,,,"Elisa : Là,<deux>.E"
92,192,Veston,V2,Elisa ,,,,,,,,,1.0,,,,,,,,,,1.0,,,,,,<Elisa : Est-ce qu’on se répartit les phrases à dire ?>
93,195,Veston,V2,Elisa ,,,,,,,,,1.0,,,,,,,,,,1.0,,,,,,Elisa :<Ensuite>…
94,197,Veston,V2,Eva V ,,,,,,,,,1.0,,,,,,,,,,1.0,,,,,,"<Eva V : Moi, je finis juste de recopier, parce que c'était pas propre.>"
95,199,Veston,V2,Elisa ,,,,,,,,,1.0,,,,,,,,,,,,1.0,,,,Elisa : On dit qu’il a peur du règlement de comptes avec le<tailleur> ?
96,201,Veston,V2,Eva V ,,,,,,,,,1.0,,,,,1.0,,,,,,,,,,,"<Eva V : Oui, et on peut citer, après.>"
97,203,Veston,V2,Elisa ,,,,,,1.0,,,,,,,,,1.0,,,,,,,,,,"<Elisa : Là, il y a, je cite, écrit : « Je m’en tire à grand-peine, et ce qui est étrange, personne ne semble surpris par ma ruine subite. Et je sais que ce n’est pas encore fini. Je sais qu’un jour la sonnette de la porte retentira, j’irai ouvrir et je trouverai devant moi ce tailleur de malheur, avec son sourire abject, pour l’ultime règlement de comptes. »>"
98,205,Veston,V2,Eva V ,,,,,,1.0,,,,,,,,,,,,,,,,1.0,,,Eva V :C’est<où> ?
99,207,Veston,V2,Elisa ,,,,,,,,,1.0,,,,,,1.0,,,,,,,,,,"Elisa : La dernière phrase. Du coup, je sais pas comment on peut formuler<ça>…"
100,209,Veston,V2,Ethan By ,,,,,,1.0,,,,,,,,,1.0,,,,,,,,,,Ethan By : « Je sais qu’un<jour>... »
101,211,Veston,V2,Elisa ,,,,,,,,,,1.0,,,,,,,,,,,,1.0,,,"Elisa : Du coup, comment on formule ça… ? Merci de me<répondre>…"
102,213,Veston,V2,Ethan By ,,,,,,,,,1.0,,,,,,1.0,,,,,,,,,,Ethan By : Je cherche en même<temps>…
103,215,Veston,V2,Eva V ,,,,,,,,,,1.0,,,,,,1.0,,,,,,,,,"<Eva V : Il faut aussi donner des avis, parce que, depuis tout à l’heure, on propose, mais vous nous répondez jamais…>"
104,217,Veston,V2,Ethan By ,,,,,1.0,,,,,,,,,,1.0,,,,,,,,,,Ethan By : On peut mettre : « Le narrateur attend patiemment le tailleur pour l’ultime règlement de<comptes>. »
105,219,Veston,V2,Elisa ,,,,,,,,,1.0,,,,,,1.0,,,,,,,,,,Elisa : OK. « Le<narrateur>... »
106,221,Veston,V2,Ethan By ,,,,,,,,,1.0,,,,,,1.0,,,,,,,,,,Ethan By : « Attend<patiemment>... »E2
107,224,Veston,V2,Eva V ,,,,,,,,,1.0,,,,,,,,,,1.0,,,,,,Eva V :<Nous>.
108,226,Veston,V2,Elisa ,,,,,,,,,1.0,,,,,,,,,,,,1.0,,,,Elisa : Comment on écrit « <impatiemment> » ?E
109,228,Veston,V2,Ethan By ,,,,,,,,,1.0,,,,,,,1.0,,,,,,,,,"Ethan By : Non, « <patiemment> »."
110,230,Veston,V2,Elisa ,,,,,,,,,1.0,,,,,,,,,,,,,1.0,,,Elisa : Comment ça<s’écrit> ?
111,232,Veston,V2,Eva V ,,,,,,,,1.0,,,,,,,1.0,,,,,,,,,,Eva V : Comme ça se<prononce>.
112,234,Veston,V2,Ethan By ,,,,,,,,,1.0,,,,,,1.0,,,,,,,,,,"Ethan By : Comme ça, je crois. Après, je sais pas si tu arrives à me<relire>."
113,236,Veston,V2,Elisa ,,,,,,,,1.0,,,,,,,,,,,,,,1.0,,,Elisa : Il y a deux<M> ?
114,238,Veston,V2,Ethan By ,,,,,,,,1.0,,,,,,,1.0,,,,,,,,,,"Ethan By : Non, je crois qu’il y en a<qu’un>."
115,240,Veston,V2,Elisa ,,,,,1.0,,,,,,,,,,,1.0,,,,,,,,,"<Elisa : Non, il attend impatiemment, parce que patiemment, ça veut dire genre qu’il attend longtemps, et là, il a envie de le voir.>"
116,242,Veston,V2,Eva V ,,,,,1.0,,,,,,,,,,1.0,,,,,,,,,,"Eva V : C'est pareil,<après>…"
117,244,Veston,V2,Elisa ,,,,,1.0,,,,,,,,,,,,,,,,,1.0,,,Elisa : Il attend impatiemment le<quoi> ?
118,246,Veston,V2,Ethan By ,,,,,,1.0,,,,,,,,,1.0,,,,,,,,,,Ethan By : « Le tailleur. Pour l’ultime règlement de<comptes>. »
119,248,Veston,V2,Elisa ,,,,,,,,1.0,,,,,,,,,,,,,,1.0,,,"Elisa : « Im », c'est « IM » ou « <IN> » ?"
120,250,Veston,V2,Ethan By ,,,,,,,,1.0,,,,,,1.0,,,,,,,,,,,Ethan By : « IM ». Il y a un<P>après.
121,253,Veston,V2,Ethan By ,,,,,,,,,1.0,,,,,,1.0,,,,,,,,,,"Ethan By : J'ai mis la fin de la phrase, je<pense>."
122,255,Veston,V2,Eva V ,,,,,,,,,1.0,,,,,,1.0,,,,,,,,,,"Eva V : Je l’ai pas. Enfin, je l’ai, mais je l’ai<plus>."
123,257,Veston,V2,Sami ,,,,,1.0,,,,,,,,,,1.0,,,,,,,,,,Sami : « Le narrateur attend<impatiemment>... »
124,259,Veston,V2,Ethan By ,,,,,1.0,,,,,,,,,,1.0,,,,,,,,,,Ethan By : « Le tailleur<pour>... »
125,261,Veston,V2,Sami ,,,,,1.0,,,,,,,,,,1.0,,,,,,,,,,Sami : « L’ultime règlement de<comptes>. »
126,263,Veston,V2,Ethan By ,,,,,1.0,,,,,,,,,,1.0,,,,,,,,,,"Ethan By : Oui, c'est<ça>."
127,265,Veston,V2,Eva V ,,,,,1.0,,,,,,,,,,1.0,,,,,,,,,,Eva V : Ça fait de « Je sais qu’un jour » à « de<comptes> ».
128,267,Veston,V2,Elisa,,,,,,,,,1.0,,,,,,,,,,1.0,,,,,,"Elisa : Attends, je vais faire ça… voilà. Madame, on a<trouvé>…"
129,270,Veston,V2,Elisa ,,,,,,,,,1.0,,,,,,,,,,1.0,,,,,,Elisa : On a trouvé un troisième<argument>.
130,273,Veston,V2,Elisa ,,,,,,,,,1.0,,,,,,,,,,1.0,,,,,,Elisa :<Oui>.
131,276,Veston,V2,Eva V ,,,,,,,,,1.0,,,,,,,,,,,,1.0,,,,"Eva V : Attends, vous avez<écrit> ?"
132,278,Veston,V2,Ethan By ,,,,,,,,,,,,,,,,,,,,,,,,,Ethan By :<Oui>.
133,280,Veston,V2,Eva V ,,,,,,,,,1.0,,,,,,1.0,,,,,,,,,,Eva V : « J’irai ouvrir et<je>... »
134,282,Veston,V2,Elisa ,,,,,,,,,1.0,,,,,,1.0,,,,,,,,,,"Elisa : Moi, je veux bien lire cette<citation>."
135,284,Veston,V2,Sami ,,,,,,,,,1.0,,,,,,1.0,,,,,,,,,,"Sami : Moi, je veux bien faire : « Le narrateur a pris la bonne décision,<car>... »"
136,286,Veston,V2,Elisa ,,,,,,,,,1.0,,,,,,1.0,,,,,,,,,,"Elisa : Chacun, on va surligner ce qu’on lit… lignes 216-<219>."
137,288,Veston,V2,Eva V ,,,,,,,,,1.0,,,,,,1.0,,,,,,,,,,Eva V :<Elisa>…
138,290,Veston,V2,Elisa ,,,,,,,,,1.0,,,,,,1.0,,,,,,,,,,Elisa : On va prendre un fluo et on va surligner ce qu’on<dit>.
139,292,Veston,V2,Eva V ,,,,,,,,,1.0,,,,,,1.0,,,,,,,,,,"Eva V : Du coup, dites-moi ce que vous voulez<lire>."
140,294,Veston,V2,Sami ,,,,,,,,,1.0,,,,,,1.0,,,,,,,,,,"Sami : Moi, le<début>…"
141,296,Veston,V2,Ethan By ,,,,,,,,,1.0,,,,,,,,,,,,,1.0,,,Ethan By : Mais jusqu’à<où> ?
142,298,Veston,V2,Sami ,,,,,,,,,1.0,,,,,,1.0,,,,,,,,,,Sami :<Jusqu’à>…
143,300,Veston,V2,Ethan By ,,,,,,,,,1.0,,,,,,1.0,,,,,,,,,,"Ethan By : Du coup, vu qu’on est<quatre>…"
144,302,Veston,V2,Eva V ,,,,,,,,,1.0,,,,,,1.0,,,,,,,,,,"Eva V : Sami, tu es la couleur orange, pour<moi>…"
145,304,Veston,V2,Elisa ,,,,,,,,,1.0,,,,,,,1.0,,,,,,,,,"Elisa : Non, surligne juste ce que tu dois<dire>."
146,306,Veston,V2,Eva V ,,,,,,,,,1.0,,,,,,,1.0,,,,,,,,,"Eva V : Non, moi, je lis rien. Il y a trois arguments, on est<quatre>."
147,308,Veston,V2,Sami ,,,,,,,,,1.0,,,,,,1.0,,,,,,,,,,"Sami : Moi, je vais faire le<début>…"
148,310,Veston,V2,Elisa ,,,,,,,,,1.0,,,,,,,,,,,,,1.0,,,"Elisa : Du coup, tu veux lire jusqu’à<où> ?"
149,312,Veston,V2,Sami ,,,,,,,,,1.0,,,,,,1.0,,,,,,,,,,"Sami : « Le narrateur », jusqu’à, je sais pas, « <m’éperonnait> »…"
150,314,Veston,V2,Ethan By ,,,,,,,,,1.0,,,,,,1.0,,,,,,,,,,"Ethan By : En fait, tu vas lire tout le premier argument,<quoi>."
151,316,Veston,V2,Sami ,,,,,,,,,1.0,,,,,,1.0,,,,,,,,,,"Sami : Sinon, on essaie de retrouver un autre argument pour<Eva>."
152,318,Veston,V2,Eva V ,,,,,,,,,1.0,,,,,,1.0,,,,,,,,,,"Eva V : Oui. Déjà, on se départage<avant>…"
153,321,Veston,V2,Ethan,,,,,,,,,1.0,,,,,,1.0,,,,,,,,,,"Ethan By : Par contre, il faut qu’on échange l’ordre de comment on met les<phrases>."
154,323,Veston,V2,Eva V ,,,,,,,,,1.0,,,,,,,,,,,,,1.0,,,Eva V : Je comprends<pas>…
155,325,Veston,V2,Professeur ,,,,,,,,,1.0,,,,,,,,,,,,,,,1.0,"Professeur : Qu’est-ce que tu comprends pas,<Eva> ?"
156,327,Veston,V2,Eva V ,,,,,,,,,1.0,,,,,,,,,,,,,1.0,,,"Eva V : Non, je sais pas, j'ai pas compris ce qu’ils veulent faire… Ah, trouver un quatrième<argument>…"
157,329,Veston,V2,Elisa ,,,,,,,,,1.0,,,,,,1.0,,,,,,,,,,Elisa : Trouver un quatrième argument pour que chacun en ait<un>.
158,332,Veston,V2,Eva V ,,,,,,,,,1.0,,,,,,1.0,,,,,,,,,,"Eva V : Après, elle va poser des questions, donc moi je pourrai répondre aux<questions>."
159,334,Veston,V2,Sami ,,,,,,,,,1.0,,,,,,,,,,,,,1.0,,,"Sami : Madame, est-ce qu’on peut dire ça comme ça ? Est-ce que les autres élèves vont poser des<questions> ?"
160,336,Veston,V2,Eva V ,,,,,,,,,1.0,,,,,,1.0,,,,,,,,,,Eva V : Vous allez forcément poser des<questions>…
161,339,Veston,V2,Elisa ,,,,,1.0,,,,,,,,,,,,,,1.0,,,,,,Elisa : Le diable. On le note ? C'est qu’ils ont fait un pacte avec le diable tous les<deux>…
162,342,Veston,V2,Eva V ,,,,,,,,,,1.0,,,,,1.0,,,,,,,,,,"Eva V : Elisa, tu es pas bête… La<recherche>…"
163,344,Veston,V2,Elisa ,,,,,,,,,1.0,,,,,,,,,,,,,1.0,,,"Elisa : Du coup, on le note,<madame> ?"
164,347,Veston,V2,Sami ,,,,,,,,,1.0,,,,,,,,,,,,,1.0,,,Sami : Quelles<recherches>… ?
165,350,Veston,V2,Eva V ,,,,,,,,,1.0,,,,,,,,,,,1.0,,,,,"Eva V : Vous voulez que j’enlève le sac,<madame> ?"
166,353,Veston,V2,Eva V ,,,,,,,,,1.0,,,,,,1.0,,,,,,,,,,Eva V : J’ai pas<écrit>…
167,355,Veston,V2,Elisa ,,,,,,,,,1.0,,,,,,1.0,,,,,,,,,,Elisa : Parce que moi ça fait<plus>…
168,357,Veston,V2,Sami ,,,,,,,,,1.0,,,,,,,,,,,,,1.0,,,"Sami : Tu lis quoi,<toi> ?"
169,359,Veston,V2,Eva V ,,,,,,,,,1.0,,,,,,1.0,,,,,,,,,,"Eva V : Déjà, il faut faire un peu la comparaison entre ça et<ça>."
170,362,Veston,V2,Eva V ,,,,,,,,,1.0,,,,,,,,,,1.0,,,,,,Eva V : Qui<commence> ?
171,364,Veston,V2,Sami ,,,,,,,,,1.0,,,,,,,,,,,,,1.0,,,"Sami : Ça, je l’ai pas<eu>."
172,366,Veston,V2,Elisa ,,,,,,,,1.0,,,,,,,,,,,,,1.0,,,,"Elisa : Moi, j'ai mis, c'était le héros d’un conte populaire allemand. « Ce conte raconte le destin d’un savant nommé Faust qui a été déçu par l’aporie qui condamne son art. Il contracte un pacte avec le diable et met à son service un de ses esprits prénommé<Méti>... », je sais pas comment ça se prononce."
173,368,Veston,V2,Eva V ,,,,,,,,1.0,,,,,,,1.0,,,,,,,,,,Eva V : « Prénommé<Méphistophélès> »…
174,370,Veston,V2,Elisa ,,,,,,,,1.0,,,,,,,1.0,,,,,,,,,,"Elisa : « Pour lui procurer un serviteur humain, Wagner… », je sais pas comment ça se prononce… « Il devient son famulus et lui offre une seconde vie. Selon certaines versions, l’âme de Faust est damnée après sa<mort>. »"
175,372,Veston,V2,Eva V ,,,,,,,,1.0,,,,,,,1.0,,,,,,,,,,"Eva V : Moi, j'ai mis : « Faust est le héros d’un conte populaire allemand qui a eu du succès au je sais pas combientième siècle et qui est à l’origine de nombreuses réinterprétations. Il raconte le destin d’un savant nommé Faust qui, déçu par l’aporie à laquelle le condamne son art, contracte un pacte avec le diable qui met à son service un de ses esprits, Méphistophélès, afin de lui procurer un serviteur humain. L’étudiant Wagner devient son famulus et lui offre au prix de son âme une seconde vie, tournée cette fois vers les plaisirs sensibles. Dans la plupart des versions populaires du récit fantastique, l’âme de Faust est damnée après sa mort qui suit après une longue période, vingt-quatre ans, précisent certains textes, durant laquelle le diable a exaucé la plupart de ses<vœux>. »"
176,374,Veston,V2,Sami ,,,,,,,,,1.0,,,,,,1.0,,,,,,,,,,Sami : Vous avez écrit exactement la même<chose>.
177,376,Veston,V2,Eva V ,,,,,,,,,1.0,,,,,,1.0,,,,,,,,,,"Eva V : Oui, je sais pourquoi on a écrit exactement la même chose, on a été sur le même site, Wikipédia. Tout le monde l’a mis,<ça>."
178,378,Veston,V2,Eva V ,,,,,,,,,1.0,,,,,,1.0,,,,,,,,,,"Eva V : Du coup, on peut<mettre>…"
179,380,Veston,V2,Elisa ,,,,,1.0,,,,,,,,,,1.0,,,,,,,,,,"Elisa : Qu’il a fait un pacte avec le diable, le diable lui a fait tous ses<vœux>."
180,382,Veston,V2,Eva V ,,,,,1.0,,,,,,,,,,1.0,,,,,,,,,,Eva V : Une comparaison avec le mythe de<Faust>.
181,384,Veston,V2,Sami ,,,,,,,,,1.0,,,,,,1.0,,,,,,,,,,"Sami : On marque <comparaison>"" ?"""
182,386,Veston,V2,Eva V ,,,,,1.0,,,,,,,,,,1.0,,,,,,,,,,Eva V : Oui. Comparaison avec le mythe de<Faust>.
183,388,Veston,V2,Elisa ,,,,,,,,1.0,,,,,,,,,,,,,,1.0,,,Elisa : C'est quoi le titre de<l'histoire> ?
184,390,Veston,V2,Eva V ,,,,,,,,1.0,,,,,,,1.0,,,,,,,,,,Eva V : Le mythe de<Faust>.
185,392,Veston,V2,Elisa ,,,,,1.0,,,,,,,,,,,1.0,,,,,,,,,"Elisa : Non, mais<ça>…"
186,394,Veston,V2,Sami ,,,,,,,,1.0,,,,,,,,,,,,,,1.0,,,"Sami : C’est quoi, Le mythe de<Faust> ?"
187,396,Veston,V2,Elisa ,,,,,1.0,,,,,,,,,,,,,1.0,,,,,,,"Elisa : Non, mais c'est pas grave, tu mets « comparaison », on va<comprendre>."
188,398,Veston,V2,Ethan By ,,,,,,,,,1.0,,,,,,1.0,,,,,,,,,,Ethan By : Il y a pas le titre de toute<façon>…
189,400,Veston,V2,Eva V ,,,,,1.0,,,,,,,,,,,,,1.0,,,,,,,Eva V : Les points communs<entre>…
190,402,Veston,V2,Elisa ,,,,,1.0,,,,,,,,,,1.0,,,,,,,,,,Elisa : Ils ont fait tous les deux un pacte avec le<diable>.
191,404,Veston,V2,Eva V ,,,,,1.0,,,,,,,,,,1.0,,,,,,,,,,Eva V : « Leurs points communs sont qu’ils ont<fait>... »
192,406,Veston,V2,Elisa ,,,,,1.0,,,,,,,,,,,1.0,,,,,,,,,Elisa : Sauf que l’un est au courant et pas<l’autre>…
193,408,Veston,V2,Eva V ,,,,,1.0,,,,,,,,,1.0,,,,,,,,,,,Eva V :<Oui>.
194,410,Veston,V2,Sami ,,,,,1.0,,,,,,,,,,1.0,,,,,,,,,,Sami : « Leurs points communs fait qu’ils ont<fait>... »
195,412,Veston,V2,Ethan By ,,,,,1.0,,,,,,,,,,1.0,,,,,,,,,,Ethan By : « Un pacte avec le<diable>. »
196,414,Veston,V2,Eva V ,,,,,1.0,,,,,,,,,,1.0,,,,,,,,,,"Eva V : Moi, j'ai mis : « Ils ont fait tous les deux un pacte avec le diable, sauf que l’un est au courant et pas<l’autre>. »"
197,416,Veston,V2,Sami ,,,,,1.0,,,,,,,,,1.0,,,,,,,,,,,Sami : Moi aussi j'ai mis<ça>.
198,418,Veston,V2,Ethan By ,,,,,1.0,,,,,,,,,1.0,,,,,,,,,,,Ethan By : Je vais mettre ça<aussi>.
199,420,Veston,V2,Eva V ,,,,,,,,,1.0,,,,,,1.0,,,,,,,,,,"Eva V : Du coup, je vais faire une légende avec les<couleurs>…"
200,422,Veston,V2,Sami ,,,,,,,,,1.0,,,,,,1.0,,,,,,,,,,"Sami : Moi, j'ai fait comme<ça>."
201,424,Veston,V2,Eva V ,,,,,,,,,1.0,,,,,,1.0,,,,,,,,,,"Eva V : Oui, les comparaisons… Donc toi, tu fais<jusqu’à>…"
202,426,Veston,V2,Sami ,,,,,,,,,1.0,,,,,,1.0,,,,,,,,,,Sami : « <M’épéronnait> ».
203,428,Veston,V2,Eva V ,,,,,,,,,1.0,,,,,1.0,,,,,,,,,,,Eva V :<Oui>.
204,430,Veston,V2,Sami ,,,,,,,,,1.0,,,,,,1.0,,,,,,,,,,Sami : « Avec le<diable>... »
205,432,Veston,V2,Ethan By ,,,,,,,,,1.0,,,,,,,1.0,,,,,,,,,"Ethan By : « Mais pas l’autre. » Enfin, je veux dire, « sauf que l’un est au courant, mais pas<l’autre>. »"
206,434,Veston,V2,Eva V ,,,,,,,,,1.0,,,,,,1.0,,,,,,,,,,"Eva V : Après, c'est<Sami>."
207,436,Veston,V2,Ethan By ,,,,,,,,,1.0,,,,,,1.0,,,,,,,,,,"Ethan By : Après, Elisa, tu as pas dit que tu voulais faire la dernière phrase,<toi>…"
208,438,Veston,V2,Elisa,,,,,,,,,1.0,,,,,1.0,,,,,,,,,,,Elisa:<Si>.
209,440,Veston,V2,Ethan By ,,,,,,,,,1.0,,,,,,1.0,,,,,,,,,,"Ethan By : Moi, je fais celle<d’avant>."
210,442,Veston,V2,Elisa ,,,,,,,,1.0,,,,,,,,,,,,,,1.0,,,"Elisa : Comment ça s’écrit, Sami ? Avec un Y à la<fin> ?"
211,444,Veston,V2,Ethan By ,,,,,,,,1.0,,,,,,,,1.0,,,,,,,,,"Ethan By : Non, c'est un<I>."
212,446,Veston,V2,Elisa ,,,,,,,,,1.0,,,,,,1.0,,,,,,,,,,"Elisa : Après, ça, c'est Ethan, on va dire. Ethan, tu veux faire quoi,<toi> ?"
213,448,Veston,V2,Ethan By ,,,,,,,,,1.0,,,,,,1.0,,,,,,,,,,Ethan By : Après celle de Sami. Comme Elisa fait la<dernière>…
214,450,Veston,V2,Elisa ,,,,,,,,,1.0,,,,,,1.0,,,,,,,,,,Elisa : Jusqu’à « <l’enfer> ».
215,452,Veston,V2,Ethan By ,,,,,,,,,1.0,,,,,1.0,,,,,,,,,,,"Ethan By : Oui, c'est<ça>."
216,454,Veston,V2,Sami ,,,,,,,,,1.0,,,,,,1.0,,,,,,,,,,"Sami : Oui, Elisa voulait<faire>…"
217,456,Veston,V2,Ethan By ,,,,,,,,,1.0,,,,,,1.0,,,,,,,,,,Ethan By : La<dernière>.
218,458,Veston,V2,Sami ,,,,,,1.0,,,,,,,,,,,,,,,,1.0,,,Sami : Ça fait de où ? « Le narrateur attend<impatiemment>... »
219,460,Veston,V2,Elisa ,,,,,,1.0,,,,,,,,,1.0,,,,,,,,,,Elisa : Du « narrateur » à « règlement de<comptes> ».
220,462,Veston,V2,Sami ,,,,,,,,,1.0,,,,,,,,,,,,,1.0,,,"Sami : Toi, tu as pris<quoi> ?"
221,464,Veston,V2,Elisa ,,,,,,,,,1.0,,,,,,1.0,,,,,,,,,,"Elisa : C'est juste une longue phrase, en<fait>."
222,466,Veston,V2,Ethan By ,,,,,,,,,1.0,,,,,,1.0,,,,,,,,,,"Ethan By : De toute façon, regarde moi ce que j'ai… Moi, je vais prendre ma feuille, par contre, parce que j'ai mis ça entre parenthèses, j'ai pas tout<mis>…"
223,468,Veston,V2,Sami ,,,,,,,,,1.0,,,,,,1.0,,,,,,,,,,"Sami : Après, je vais recopier sur vous la<légende>…"
224,470,Veston,V2,Elisa ,,,,,,,,,1.0,,,,,,,,,,,,,1.0,,,Elisa : Est-ce que je peux prendre ton beige ou ton<vert> ?
225,472,Veston,V2,Ethan By ,,,,,,,,,1.0,,,,,,,,,,,,,,,1.0,"Ethan By : Vas-y, prends les deux si tu<veux>."
226,474,Veston,V2,Elisa ,,,,,,,,,1.0,,,,,,,1.0,,,,,,,,,"Elisa : Non, j'ai déjà du<vert>."
228,478,Veston,V2,Ethan By ,,,,,,,,,1.0,,,,,,,,,,,,,1.0,,,"Ethan By : Tu peux me prêter un surligneur ? Parce que les miens, ça<bave>."
229,480,Veston,V2,Elisa ,,,,,,,,,1.0,,,,,,1.0,,,,,,,,,,Elisa : Je montre mon beau<travail>…
230,482,Veston,V2,Sami ,,,,,,1.0,,,,,,,,,,,,,,,,1.0,,,Sami : C’est jusqu’à « <l’enfer> » ?
231,484,Veston,V2,Ethan By ,,,,,,1.0,,,,,,,,1.0,,,,,,,,,,,Ethan By :<Oui>.
232,486,Veston,V2,Eva V ,,,,,,,,,1.0,,,,,,1.0,,,,,,,,,,"Eva V : Moi, c'est pas propre, mais c'est pas<grave>."
233,488,Veston,V2,Elisa ,,,,,,,,,1.0,,,,,,1.0,,,,,,,,,,"Elisa : Moi, c'est<propre>."
234,490,Veston,V2,Sami ,,,,,,,,,1.0,,,,,,1.0,,,,,,,,,,"Sami : De toute façon, je vais recopier au<propre>."
235,492,Veston,V2,Elisa ,,,,,,,,,1.0,,,,,,,,,,,,,1.0,,,"Elisa : Tu arrives à lire,<toi> ?"
236,494,Veston,V2,Ethan By ,,,,,,,,,1.0,,,,,,,,,1.0,,,,,,,"Ethan By : Ça va servir à rien,<Sami>…"
237,496,Veston,V2,Sami ,,,,,,,,,1.0,,,,,,1.0,,,,,,,,,,Sami : J’arrive pas à me<relire>…
238,498,Veston,V2,Eva V ,,,,,,,,,1.0,,,,,,,,1.0,,,,,,,,"Eva V : Madame, nous avons<terminé>."
239,500,Veston,V2,Sami ,,,,,,,,,1.0,,,,,,,,,,,,1.0,,,,"Sami : Ethan, ça s’écrit<ETHAN> ?"
240,502,Veston,V2,Ethan BY ,,,,,,,,,1.0,,,,,1.0,,,,,,,,,,,Ethan BY :<Oui>.
241,504,Veston,V2,Eva V ,,,,,,,,,1.0,,,,,,,,1.0,,,,,,,,"Eva V : Madame, nous avons<terminé>."
242,507,Veston,V2,Eva V ,,,,,,,,,1.0,,,,,,,,,,1.0,,,,,,Eva V :<Oui>.
243,510,Veston,V2,Eva V ,,,,,,,,,1.0,,,,,,1.0,,,,,,,,,,"Eva V : Du coup, je dirai la comparaison, vu qu’il y a trois<arguments>."
244,513,Veston,V2,Eva V ,,,,,,,,,1.0,,,,,,,,,,1.0,,,,,,"Eva V : Voilà, c'est<ça>."
245,516,Veston,V2,Eva V ,,,,,,,,,1.0,,,,,,,,,,,,1.0,,,,Eva V :<Oui>.
