,C1,C2,C3,C3BIS,C4,C5,C6,C7,C8,C9,E1,E2,E3,E4,E5,E6,E7,E8,E9,E10,E11,Lycee,Poesie
A1,40,56,27,0,0,36,20,3,0,1,19,77,20,10,7,16,0,16,14,0,0,1.0,1.0
A2,57,185,14,3,3,49,123,17,13,16,48,185,51,11,15,36,0,22,94,1,1,1.0,1.0
A5,21,131,20,3,17,24,97,56,1,23,38,125,41,14,35,23,3,20,73,15,5,1.0,1.0
A6,38,137,14,4,5,47,58,3,1,49,13,176,25,4,7,22,0,27,32,6,2,1.0,1.0
C1,12,5,5,1,0,0,20,3,0,2,16,6,1,0,2,1,1,2,13,0,4,1.0,1.0
C5,25,70,5,0,3,15,54,8,0,0,27,60,10,2,11,6,0,28,30,8,0,1.0,1.0
C7,16,0,4,0,2,1,4,3,0,0,3,10,0,1,0,3,0,4,9,0,0,1.0,1.0
C8,15,37,38,0,0,18,43,10,0,14,17,85,19,4,9,3,1,15,21,1,0,1.0,1.0
H1,7,0,7,1,3,0,52,6,0,2,12,14,5,1,0,1,0,6,29,1,0,1.0,0.0
H2,6,0,26,0,0,3,50,14,0,38,17,31,3,1,0,1,0,7,25,1,1,1.0,0.0
H3,17,0,24,0,1,7,100,6,0,44,20,59,15,3,3,0,1,10,20,0,0,1.0,0.0
H6,3,0,33,0,0,7,45,9,0,54,8,36,11,0,6,3,0,4,17,1,3,1.0,0.0
RB3,4,9,4,0,2,10,18,11,0,15,4,16,3,0,1,2,1,4,14,2,8,0.0,1.0
RC3,4,4,1,0,1,1,4,3,0,12,0,2,1,0,0,9,0,3,1,0,0,0.0,1.0
RH2,2,0,11,0,0,0,31,1,0,2,5,12,0,1,2,2,0,2,11,1,1,0.0,1.0
R1,7,29,5,7,0,2,49,3,0,0,5,49,8,5,2,3,1,13,10,0,6,0.0,1.0
R2,0,11,3,9,0,6,79,49,0,2,6,32,32,3,3,2,0,16,8,17,40,0.0,1.0
R3,4,37,0,28,0,4,76,1,0,0,3,54,19,8,6,5,0,11,32,0,12,0.0,1.0
V2,0,0,48,16,3,14,157,5,0,0,22,112,17,5,7,21,1,17,38,0,3,0.0,0.0
V4,0,0,107,5,5,0,220,26,0,40,28,180,55,4,10,27,0,12,48,1,14,0.0,0.0
